<svg   viewBox="0 0 47 59"  xmlns="http://www.w3.org/2000/svg">
<path d="M22.6446 0.443283C22.8421 -0.139315 23.7611 -0.147846 23.9865 0.418907C24.1206 0.846715 24.0329 1.30865 24.0548 1.74986C28.6388 1.87175 33.2204 3.13201 37.1279 5.55504C40.0665 7.36621 42.6212 9.84896 44.3409 12.8558C45.717 15.2484 46.5287 17.9676 46.6372 20.7282C46.6311 21.0938 46.8322 21.4997 46.6018 21.83C46.3898 22.1835 45.8669 22.259 45.5354 22.0336C41.2951 19.6142 35.8287 19.7019 31.575 22.0457C31.3019 22.2261 30.9607 22.164 30.6974 22.0006C28.6668 20.8879 26.3608 20.3174 24.0524 20.248C24.0585 22.1981 24.0524 24.147 24.056 26.0959C24.0841 26.4457 23.9073 26.8369 23.5478 26.9345C23.0968 27.1075 22.5569 26.7065 22.5947 26.2263C22.5861 24.2433 22.5971 22.2603 22.591 20.2772C20.5166 20.4186 18.4665 20.911 16.559 21.7398C16.2409 21.869 15.9484 22.064 15.6144 22.1506C15.317 22.2213 15.0623 22.0323 14.8185 21.897C10.6099 19.6154 5.27393 19.7483 1.10067 22.0482C0.658234 22.3565 -0.0194322 21.9994 0.00128781 21.4558C-0.0474652 17.6884 1.29081 13.9637 3.54319 10.963C6.12467 7.50881 9.79577 4.94562 13.8179 3.44525C16.62 2.38731 19.6037 1.83274 22.5947 1.75108C22.6105 1.31596 22.5374 0.868653 22.6446 0.443283ZM16.5225 4.09854C12.3419 5.23205 8.41606 7.49662 5.56644 10.7887C3.28968 13.4104 1.75518 16.7317 1.50897 20.2151C5.59813 18.3588 10.4734 18.2954 14.5797 20.1419C14.2201 15.614 15.4633 10.9971 17.9875 7.22848C18.2751 6.77264 19.0649 6.83115 19.2465 7.35158C19.4745 7.80621 19.0747 8.21329 18.8602 8.58016C16.6748 12.0599 15.6827 16.2612 16.0605 20.3528C17.79 19.6337 19.6134 19.1315 21.4758 18.9134C24.5631 18.5331 27.7576 18.9816 30.5841 20.2943C30.9607 16.1576 29.9198 11.9173 27.682 8.42049C27.4834 8.10969 27.2067 7.74892 27.3822 7.36134C27.5772 6.85796 28.3451 6.75558 28.6412 7.21873C31.1935 10.991 32.4233 15.6372 32.0588 20.1797C36.1626 18.3478 41.0477 18.2991 45.1417 20.1895C44.8626 16.6512 43.2915 13.2812 40.9453 10.64C38.2176 7.53928 34.5148 5.38074 30.5706 4.22652C26.0171 2.90287 21.1004 2.86753 16.5225 4.09854Z" />
<path d="M35.9469 21.9031C36.2162 21.7276 36.5538 21.8093 36.8049 21.9751C39.9763 23.8472 43.1513 25.7095 46.3239 27.578C46.5823 27.7108 46.7432 27.99 46.7225 28.2837C46.7298 30.1095 46.7213 31.9353 46.7274 33.7623C46.7359 34.0244 46.6811 34.3144 46.4678 34.49C46.2264 34.6764 45.9083 34.6667 45.6195 34.6679C44.2775 34.6594 42.9368 34.6703 41.5949 34.6618C41.5864 42.6512 41.5937 50.6406 41.5912 58.63C41.1037 58.63 40.6162 58.63 40.1286 58.63C40.1299 50.42 40.125 42.21 40.1311 34C40.097 33.5905 40.4382 33.1907 40.8575 33.2053C42.3262 33.1956 43.7937 33.2065 45.2623 33.2017C45.2623 31.7903 45.2623 30.3789 45.2623 28.9675C43.8509 28.965 42.4395 28.9687 41.0281 28.965C41.0269 29.3465 41.0269 29.728 41.0269 30.1095C40.5394 30.1095 40.0506 30.1095 39.5631 30.1083C39.5729 29.4696 39.5485 28.8309 39.5716 28.1935C39.579 27.8364 39.8849 27.5036 40.2505 27.5085C41.2646 27.489 42.2799 27.5171 43.2939 27.4976C41.211 26.2678 39.1268 25.038 37.0377 23.8191C37.0304 25.6754 37.0426 27.5305 37.0316 29.3867C37.0548 29.806 36.6331 30.1558 36.226 30.0985C35.8189 30.0656 35.5325 29.6524 35.5727 29.2575C35.5702 27.4342 35.5751 25.6108 35.5715 23.7862C32.3891 25.6059 29.186 27.3915 26.0012 29.2088C28.4352 29.2112 30.868 29.21 33.3008 29.2088C33.6031 29.1868 33.9236 29.2844 34.0857 29.5586C34.9767 30.7933 35.853 32.0401 36.7464 33.2736C36.9036 33.4881 37.0755 33.7209 37.0377 34.0061C37.0328 42.1978 37.0377 50.3907 37.0353 58.5837C36.5465 58.5849 36.059 58.5849 35.5715 58.5837C35.5739 50.6101 35.5727 42.6378 35.5715 34.6655C28.6607 34.6642 21.7488 34.663 14.838 34.6667C14.8453 35.8672 14.8258 37.069 14.8453 38.2707C14.8222 38.4974 15.0879 38.5608 15.2354 38.6656C16.1397 39.1288 16.6797 40.2075 16.4773 41.2081C16.2909 42.4294 15.0538 43.3886 13.8203 43.2058C12.5649 43.0851 11.535 41.8529 11.6788 40.595C11.7727 40.0831 12.4759 39.8369 12.8611 40.2026C13.1244 40.3744 13.0854 40.7206 13.1621 40.9899C13.2548 41.6445 14.1506 42.0064 14.6601 41.5725C15.0184 41.3081 15.1635 40.7876 14.9599 40.3842C14.8392 40.0722 14.5114 39.943 14.2457 39.7857C13.6996 39.5005 13.3815 38.8826 13.3754 38.2781C13.3718 37.0739 13.3767 35.8697 13.3754 34.6667C12.4601 34.6533 11.5448 34.6862 10.6306 34.6521C10.0639 34.6569 9.73115 33.9 10.109 33.482C11.2206 32.1608 12.3589 30.8603 13.4754 29.5427C13.6375 29.3258 13.8947 29.1905 14.1701 29.2112C17.0551 29.2088 19.9412 29.2112 22.8262 29.21C22.9773 29.2234 23.1151 29.1552 23.2443 29.0845C27.476 26.6883 31.7114 24.2957 35.9469 21.9031ZM12.2578 33.2017C19.8023 33.2004 27.3468 33.2065 34.8901 33.198C34.2917 32.3546 33.6908 31.5111 33.0851 30.6714C26.8703 30.6884 20.653 30.647 14.4407 30.6921C13.6838 31.5014 13 32.3777 12.2578 33.2017Z" />
<path d="M20.1984 40.6084C20.6872 40.6048 21.1759 40.6048 21.6647 40.6072C21.6622 41.9309 21.6659 43.2557 21.6622 44.5806C22.8859 44.5843 24.1096 44.583 25.3333 44.5806C25.3382 43.2557 25.3309 41.9309 25.337 40.606C25.8233 40.606 26.3108 40.606 26.7984 40.606C26.7947 41.9309 26.802 43.2557 26.7947 44.5818C28.0135 44.583 29.2323 44.583 30.4524 44.5806C30.456 43.2557 30.45 41.9309 30.4548 40.606C30.9424 40.606 31.4299 40.606 31.9174 40.606C31.9125 41.9309 31.9211 43.2557 31.9138 44.5806C32.483 44.583 33.0521 44.5843 33.6226 44.5806C33.6238 45.0681 33.6238 45.5557 33.6213 46.0444C28.6863 46.0493 23.7501 46.0407 18.815 46.0481C18.8126 50.2274 18.8175 54.4055 18.8126 58.5837C18.3251 58.5837 17.8375 58.5837 17.3512 58.5849C17.3549 54.1703 17.3451 49.7557 17.3561 45.3411C17.3305 44.9475 17.6742 44.5891 18.0667 44.5903C18.7773 44.5672 19.4878 44.5891 20.1996 44.5843C20.2008 43.2594 20.2021 41.9333 20.1984 40.6084Z" />
<path d="M21.3466 48.7538C21.3222 48.3443 21.6854 47.9714 22.0998 48.0031C23.2845 47.9836 24.4692 48.0018 25.6539 47.9957C25.6551 48.4833 25.6551 48.9708 25.6539 49.4583C24.7045 49.4583 23.7562 49.4571 22.8067 49.4595C22.8043 50.409 22.8067 51.3585 22.8055 52.3079C22.318 52.3067 21.8305 52.3067 21.3442 52.3067C21.3466 51.122 21.3368 49.9385 21.3466 48.7538Z" />
<path d="M27.8503 48.1773C28.0757 47.9799 28.3939 48.0006 28.6754 47.9933C29.7553 47.9957 30.8352 47.9969 31.9163 47.9933C31.9175 48.4808 31.9175 48.9683 31.915 49.4571C30.9656 49.4607 30.0161 49.4559 29.0666 49.4595C29.0679 50.409 29.0679 51.3572 29.0679 52.3067C28.5803 52.3067 28.0928 52.3079 27.6053 52.3043C27.6053 51.1574 27.6041 50.0117 27.6041 48.866C27.5992 48.6185 27.6528 48.3467 27.8503 48.1773Z" />
<path d="M21.516 54.5128C21.6854 54.3166 21.9572 54.2605 22.2058 54.2703C23.354 54.2703 24.5009 54.2764 25.649 54.269C25.6563 54.7578 25.6563 55.2453 25.6539 55.7353C24.7056 55.7353 23.7574 55.7341 22.8091 55.7353C22.8018 56.6848 22.8079 57.6354 22.8055 58.5861C22.3192 58.5837 21.8341 58.5837 21.3478 58.5849C21.3368 57.5014 21.349 56.4178 21.3405 55.3343C21.3478 55.0564 21.3173 54.7371 21.516 54.5128Z" />
<path d="M27.6088 54.9796C27.6015 54.6055 27.9282 54.2715 28.3036 54.2788C29.5078 54.2593 30.7132 54.28 31.9186 54.2715C31.9162 54.759 31.9186 55.2478 31.9113 55.7365C30.963 55.7341 30.016 55.7353 29.0678 55.7353C29.0678 56.6848 29.0653 57.6342 29.0702 58.5837C28.5815 58.5837 28.0939 58.5849 27.6064 58.5825C27.6076 57.3819 27.5966 56.1802 27.6088 54.9796Z" />
</svg>
