<svg   viewBox="0 0 50 56"  xmlns="http://www.w3.org/2000/svg">
<path d="M12.269 0.524849C12.3291 0.234715 12.5996 0.000400463 12.9002 0.00346741C15.3114 -0.00143971 17.7233 0.00530757 20.1351 0.000400451C20.3106 -0.00205311 20.5013 0.0034674 20.6485 0.113878C20.9166 0.278879 21.019 0.653661 20.8841 0.937047C19.9284 2.95939 18.9697 4.98051 18.0122 7.00225C19.6426 7.00409 21.273 6.99856 22.9034 7.0047C23.4082 7.00041 23.71 7.66777 23.3922 8.05298C21.211 10.7985 19.0316 13.5465 16.8443 16.2877C17.0535 16.2693 17.281 16.3313 17.4798 16.2503C23.2689 12.9791 29.0575 9.70607 34.8467 6.43486C35.0785 6.29133 35.3852 6.27722 35.6189 6.42505C39.6495 8.79457 43.6795 11.1665 47.7101 13.5367C48.0407 13.7373 48.3823 13.9219 48.7081 14.1311C48.9234 14.2728 49.0264 14.5408 49.0111 14.7929C49.0092 17.2471 49.0092 19.7019 49.0111 22.156C49.0295 22.4333 49.0025 22.7486 48.7694 22.9363C48.5645 23.1467 48.2548 23.1356 47.9849 23.1277C46.0263 23.1252 44.0678 23.1283 42.1092 23.1258C42.1098 33.8607 42.108 44.5951 42.1098 55.33C41.6191 55.3288 41.1284 55.3312 40.6377 55.3288C40.6358 44.3706 40.6383 33.4117 40.6365 22.4535C40.6039 22.0462 40.9444 21.6543 41.3578 21.6567C43.4182 21.6518 45.4786 21.6555 47.5383 21.6549C47.5359 19.5902 47.5383 17.5262 47.5377 15.4615C45.4724 15.4566 43.4077 15.4609 41.3425 15.459C41.3431 15.9706 41.3412 16.4822 41.3437 16.9931C40.853 16.9925 40.3623 16.9931 39.8722 16.9925C39.8691 16.2393 39.8685 15.486 39.8716 14.7328C39.8587 14.3316 40.2193 13.9746 40.6199 13.9881C42.2693 13.9881 43.9193 13.9832 45.5687 13.9906C42.3742 12.1044 39.1772 10.2225 35.9759 8.34802C35.9741 10.9868 35.9765 13.6256 35.9747 16.2644C35.9925 16.7085 35.5312 17.0815 35.1006 16.9803C34.7412 16.9189 34.4811 16.5644 34.5032 16.2049C34.5032 13.5772 34.5032 10.9494 34.5026 8.32226C29.8077 10.9746 25.1103 13.6238 20.4197 16.2847C24.0884 16.2914 27.7577 16.2841 31.4264 16.2884C31.654 16.292 31.8772 16.4123 32.0079 16.5987C33.2862 18.3892 34.5657 20.1791 35.844 21.9702C35.9354 22.0941 35.9759 22.248 35.9747 22.4014C35.9765 33.3774 35.9735 44.354 35.9765 55.33C35.4852 55.3288 34.9945 55.3312 34.5038 55.3288C34.5019 44.5951 34.5044 33.8614 34.5026 23.1277C25.0257 23.1258 15.5494 23.1276 6.07255 23.1264C6.07317 24.7838 6.07194 26.4406 6.07317 28.0979C6.05967 28.4016 6.19216 28.7414 6.49702 28.8543C7.41833 29.2481 8.12925 30.1123 8.30161 31.1036C8.43778 31.9261 8.23475 32.8094 7.72073 33.4706C7.24351 34.1061 6.50377 34.5434 5.71311 34.6367C5.13652 34.7066 4.53662 34.6121 4.01831 34.3472C3.0651 33.8896 2.39712 32.9026 2.31309 31.8501C2.29162 31.6262 2.2861 31.3808 2.4235 31.19C2.63205 30.8527 3.13196 30.7459 3.45215 30.9852C3.6834 31.1287 3.784 31.4029 3.77909 31.666C3.79381 32.207 4.11768 32.7192 4.58631 32.9842C5.07334 33.2639 5.72353 33.259 6.18542 32.9278C6.72275 32.5689 6.98896 31.8586 6.82089 31.2354C6.73256 30.8852 6.50254 30.5809 6.21118 30.3724C6.00385 30.2203 5.74623 30.1589 5.5389 30.0068C5.04635 29.6737 4.72371 29.1217 4.63477 28.5384C4.58999 28.2513 4.60103 27.9605 4.5998 27.6716C4.60042 26.1572 4.60042 24.6433 4.60042 23.1289C3.29512 23.1221 1.98983 23.1332 0.684538 23.1234C0.267433 23.1099 -0.0674781 22.6811 0.0116491 22.2732C0.0410918 22.0407 0.217135 21.872 0.361281 21.7021C1.83464 19.9853 3.30617 18.2665 4.77891 16.549C4.91815 16.384 5.13223 16.2865 5.34814 16.2877C7.88267 16.2865 10.4178 16.2877 12.9523 16.2871C13.6007 14.6163 14.2454 12.9442 14.8943 11.2733C13.6344 11.2721 12.3745 11.2733 11.1152 11.2727C10.7993 11.2886 10.4847 11.0574 10.4264 10.7433C10.3841 10.5409 10.4558 10.3385 10.4871 10.1391C11.0815 6.93477 11.674 3.7292 12.269 0.524849ZM11.8691 9.94652C13.1934 9.9459 14.5183 9.94713 15.8426 9.9459C16.1432 9.93425 16.4364 10.1483 16.5051 10.444C16.5738 10.6887 16.4499 10.9243 16.3646 11.1469C15.6997 12.8589 15.0403 14.5727 14.3742 16.2841C14.6336 16.289 14.8937 16.2871 15.1538 16.2877C17.2651 13.6342 19.3751 10.9795 21.4846 8.3241C19.9585 8.31551 18.4317 8.32717 16.9056 8.31858C16.472 8.30324 16.1702 7.78309 16.3609 7.39543C17.3172 5.37247 18.2729 3.3489 19.2359 1.32962C17.3141 1.32594 15.3924 1.33207 13.4706 1.32655C12.9302 4.19844 12.4076 7.07401 11.8691 9.94652ZM5.68305 17.7574C4.563 19.0523 3.45706 20.36 2.33517 21.6537C5.18191 21.6555 8.02865 21.6543 10.8754 21.6543C11.3771 20.3564 11.8795 19.0584 12.3825 17.7605C10.1491 17.7568 7.9164 17.7636 5.68305 17.7574ZM13.8031 17.7642C13.7473 17.9052 13.6915 18.0463 13.635 18.188C13.7516 18.0525 13.8828 17.9224 13.9515 17.7537C13.9147 17.7562 13.8399 17.7617 13.8031 17.7642ZM15.6807 17.7586C14.6441 19.0566 13.6148 20.3594 12.5788 21.6574C19.6567 21.6524 26.7346 21.6531 33.8125 21.6574C32.8863 20.3582 31.957 19.0615 31.0314 17.7617C25.9145 17.7568 20.7976 17.7623 15.6807 17.7586Z" />
<path d="M13.8001 31.6224C14.2908 31.6218 14.7815 31.6212 15.2722 31.623C15.2759 33.4117 15.2704 35.2003 15.2753 36.989C17.0841 36.9896 18.8936 36.989 20.7025 36.9896C20.7001 35.1997 20.7031 33.4105 20.7013 31.6212C21.1932 31.6273 21.6852 31.612 22.1771 31.6298C22.1704 33.4154 22.1753 35.2022 22.1747 36.9884C23.9842 36.9908 25.7937 36.9878 27.6032 36.9896C27.6001 35.2003 27.605 33.4117 27.6007 31.6224C28.092 31.6218 28.5827 31.6212 29.0735 31.623C29.0771 33.4117 29.0716 35.2003 29.0765 36.989C29.842 36.9896 30.6082 36.9878 31.3743 36.9902C31.3755 37.4803 31.3737 37.971 31.3755 38.4617C24.7301 38.4605 18.0852 38.463 11.4397 38.4605C11.4403 44.0841 11.4385 49.707 11.441 55.3299C10.9496 55.3287 10.4589 55.3312 9.96821 55.3287C9.9676 49.4623 9.96576 43.5952 9.96882 37.7287C9.96085 37.3429 10.297 36.9927 10.6847 36.9914C11.7237 36.9859 12.7628 36.9902 13.8019 36.9896C13.7988 35.2003 13.8037 33.4117 13.8001 31.6224Z" />
<path d="M15.336 42.3329C15.3243 41.9318 15.6856 41.5766 16.0861 41.5907C17.6037 41.5889 19.1218 41.5889 20.64 41.5907C20.6418 42.0808 20.6393 42.5715 20.6418 43.0623C19.3635 43.0616 18.0852 43.0623 16.8069 43.0616C16.8075 44.3399 16.8057 45.6183 16.8075 46.8959C16.3168 46.8947 15.8261 46.8966 15.3354 46.8947C15.3341 45.3741 15.3329 43.8535 15.336 42.3329Z" />
<path d="M23.7701 42.3329C23.7602 41.9447 24.0994 41.5907 24.4896 41.592C26.0181 41.5883 27.5461 41.5889 29.0747 41.5914C29.0753 42.0821 29.0734 42.5722 29.0759 43.0623C27.7976 43.061 26.5193 43.0635 25.241 43.0616C25.2416 44.3393 25.2404 45.6176 25.2416 46.8959C24.7503 46.8941 24.2595 46.8984 23.7688 46.8935C23.7701 45.3735 23.7664 43.8529 23.7701 42.3329Z" />
<path d="M15.436 50.3953C15.5617 50.1653 15.8193 50.0236 16.0794 50.0248C17.5552 50.0217 19.031 50.0254 20.5075 50.0229C20.5394 50.0291 20.6038 50.0407 20.6357 50.0469C20.6486 50.5296 20.6357 51.013 20.6412 51.4963C19.3623 51.4963 18.084 51.4957 16.8057 51.4963C16.8094 52.7746 16.8044 54.0523 16.8081 55.33C16.3174 55.3294 15.8267 55.33 15.3366 55.3294C15.3317 53.9008 15.3372 52.4728 15.3335 51.0442C15.336 50.8259 15.3133 50.5879 15.436 50.3953Z" />
<path d="M23.7713 50.7376C23.7762 50.3567 24.1142 50.0255 24.4939 50.0249C26.0206 50.0224 27.5473 50.0236 29.0734 50.0249C29.0765 50.515 29.0728 51.0057 29.0753 51.4964C27.797 51.4951 26.5187 51.4976 25.2404 51.4951C25.2422 52.7735 25.2391 54.0518 25.2422 55.3301C24.7509 55.3288 24.2602 55.3313 23.7695 55.3288C23.7695 53.7984 23.7652 52.268 23.7713 50.7376Z" />
</svg>
