<svg   viewBox="0 0 47 50"  xmlns="http://www.w3.org/2000/svg">
<path d="M11.8798 1.31266C11.8235 0.83469 12.3203 0.426789 12.7807 0.525636C14.9478 0.702059 17.1037 1.11371 19.1657 1.80815C20.6534 2.3249 22.1199 3.01058 23.2898 4.08538C24.6261 5.33661 25.8348 6.94694 25.9499 8.8388C26.0437 10.2189 25.3643 11.5177 24.4447 12.5011C25.4043 14.8184 25.831 17.3396 25.7697 19.8433C27.1223 18.7773 28.4761 17.7125 29.8337 16.6515C29.1893 15.5254 28.8602 14.1865 29.158 12.9015C29.601 10.9196 31.0349 9.33929 32.5664 8.08806C34.5721 6.47523 37.1096 5.72449 39.5958 5.23526C41.5227 4.87491 43.4833 4.67846 45.4428 4.65469C45.9245 4.6184 46.3574 5.11139 46.2148 5.58435C45.8457 7.10084 45.3352 8.58104 44.7596 10.0312C43.8875 12.147 42.8215 14.2166 41.3125 15.9533C40.0475 17.3459 38.4459 18.452 36.6779 19.1039C35.448 19.5506 34.0541 19.6832 32.8116 19.209C32.0271 18.9262 31.3527 18.4182 30.7571 17.8476C29.0967 19.1652 27.4163 20.4565 25.7647 21.784C25.7797 24.7657 25.766 27.7474 25.7722 30.7303C27.1198 30.8116 28.4661 31.0669 29.7298 31.5523C30.3017 31.7275 30.3905 32.6259 29.8525 32.8962C29.5634 33.1051 29.2143 32.9712 28.9153 32.8636C26.4404 31.999 23.6551 31.944 21.1927 32.8824C18.8079 33.7608 16.8459 35.6076 15.6373 37.8235C15.0692 38.9571 14.8765 40.2346 14.7514 41.4846C14.6951 41.9325 14.7476 42.3942 14.64 42.8347C14.5149 43.2326 13.9869 43.1788 13.8267 43.5391L13.6603 43.4903C13.7079 43.4478 13.803 43.3639 13.8505 43.3214C13.5502 43.1938 13.1924 43.0011 13.1924 42.6257C13.1798 41.1242 13.4326 39.6278 13.8405 38.1851C13.2424 38.3027 12.6306 38.2214 12.0275 38.2827C9.90538 38.4316 7.74076 39.1373 6.18173 40.635C5.22954 41.5121 4.55513 42.652 4.11095 43.8607C6.01531 44.216 7.71824 45.5598 8.42268 47.3741C8.60536 47.8821 8.75425 48.4752 8.52278 48.9907C8.27128 49.5012 7.45673 49.4074 7.23151 48.9219C7.11389 48.5615 7.13391 48.1662 6.97501 47.8183C6.55459 46.8449 5.74505 46.0428 4.76909 45.6324C4.10469 45.3647 3.34895 45.1907 2.65327 45.4447C2.10022 45.5511 1.57971 45.8939 1.00665 45.8314C0.404807 45.7 0.258414 44.8079 0.776423 44.4813C1.3182 44.2085 1.92505 44.0984 2.50187 43.922C3.08619 41.9088 4.3149 40.0795 6.00781 38.8332C7.43171 37.7584 9.14088 37.0678 10.9126 36.8513C12.1038 36.6736 13.3075 36.7912 14.5049 36.7424C15.7899 34.5653 17.6968 32.7235 20.0341 31.7163C21.3629 31.1232 22.8055 30.8191 24.2532 30.724C24.2545 29.4415 24.2495 28.159 24.2557 26.8778C22.8719 26.142 21.508 25.3713 20.1217 24.6381C19.4085 25.6303 18.2661 26.2997 17.0411 26.3798C15.2031 26.5111 13.4326 25.7792 11.8661 24.8883C9.67265 23.537 8.05231 21.4612 6.64844 19.3416C6.01156 18.3381 5.3922 17.3171 4.89296 16.2361C4.72154 15.922 4.85668 15.5204 5.1332 15.3164C5.36468 15.1713 5.64871 15.1688 5.91146 15.135C8.16242 14.9298 10.4422 14.921 12.6831 15.2526C14.3297 15.4978 15.9738 15.9595 17.3927 16.8554C18.7854 17.7025 20.1492 18.8036 20.7698 20.3576C21.1627 21.291 21.1327 22.3496 20.8386 23.3055C21.9872 23.9174 23.1259 24.5455 24.2695 25.1648C24.0818 21.9792 24.5848 18.7385 23.8478 15.5979C23.6939 14.8697 23.4487 14.1678 23.2109 13.4646C22.4002 13.8787 21.4817 14.1478 20.5646 14.0189C19.5236 13.9413 18.5589 13.4834 17.6905 12.9316C16.6057 12.2033 15.6185 11.3025 14.9003 10.2026C13.7879 8.52474 13.0998 6.60786 12.5667 4.67721C12.2752 3.57113 12.02 2.45003 11.8798 1.31266ZM13.5327 2.12095C13.9994 4.43322 14.6263 6.75175 15.8062 8.81252C16.637 10.2727 17.932 11.4701 19.4535 12.1821C20.437 12.6563 21.6482 12.6613 22.5853 12.0707C21.5981 10.0788 20.1905 8.29827 18.4801 6.87812C18.0033 6.52653 18.2098 5.67945 18.7854 5.57059C19.1782 5.43671 19.496 5.75327 19.7663 5.986C21.5356 7.50624 22.9407 9.41436 24.0055 11.4826C24.0092 11.086 23.9379 10.6618 24.1431 10.3002C24.506 9.57952 24.5172 8.72118 24.2532 7.96669C23.9016 6.93943 23.1797 6.09485 22.4202 5.34161C21.5643 4.49829 20.482 3.94024 19.3809 3.4898C17.5066 2.76534 15.5221 2.36244 13.5327 2.12095ZM35.1865 8.20067C34.0741 8.73369 33.1132 9.53323 32.2611 10.4166C31.4653 11.2537 30.7684 12.2659 30.607 13.4358C30.4856 14.2141 30.677 15.0086 31.0411 15.6993C33.5398 13.7349 36.0423 11.7729 38.5385 9.806C38.81 9.55575 39.2479 9.48568 39.552 9.72091C39.9574 9.99869 39.9549 10.6593 39.5482 10.9384C37.0208 12.9291 34.4908 14.9198 31.9558 16.9017C32.3937 17.2933 32.8804 17.6487 33.4497 17.8189C34.5233 18.1755 35.6919 17.9315 36.6992 17.4848C38.4409 16.679 39.9887 15.4303 41.0622 13.8312C42.655 11.5189 43.6773 8.86883 44.4893 6.19746C41.3212 6.38389 38.073 6.80305 35.1865 8.20067ZM6.76355 16.5852C7.80457 18.442 8.98323 20.24 10.4547 21.789C11.2855 22.6561 12.2277 23.4406 13.3212 23.9549C14.4686 24.5229 15.7374 25.0222 17.0399 24.862C17.7268 24.7882 18.3374 24.4078 18.7979 23.9061C16.9998 22.9376 15.2118 21.9504 13.4163 20.9795C13.0885 20.8281 12.847 20.4677 12.9509 20.1011C13.0247 19.6256 13.6178 19.3541 14.0294 19.6006C15.8775 20.5791 17.7018 21.6051 19.5461 22.5923C19.5699 21.9304 19.5774 21.2335 19.2533 20.6341C18.6427 19.4868 17.5479 18.7035 16.4518 18.0578C15.3069 17.3559 13.9894 16.9968 12.6743 16.7778C10.7212 16.4688 8.73298 16.455 6.76355 16.5852Z" />
<path d="M34.8673 26.4586C34.9061 26.1533 35.0713 25.7967 35.4329 25.8079C37.9366 25.7841 40.4403 25.8104 42.9453 25.7954C43.1805 25.8079 43.4357 25.7654 43.656 25.8705C43.8899 26.0469 44.0313 26.3797 43.8712 26.6525C42.8477 28.8622 41.7766 31.0493 40.7581 33.2602C42.5298 33.2627 44.3003 33.254 46.0721 33.264C46.6051 33.2177 46.9041 33.9309 46.5113 34.2887C42.6362 39.1723 38.7536 44.0483 34.8761 48.9306C34.6896 49.1621 34.5195 49.4086 34.308 49.62C34.0478 49.9016 33.521 49.794 33.3746 49.4461C33.2595 49.2197 33.3658 48.9719 33.4422 48.7529C34.8873 45.0343 36.3238 41.3144 37.7639 37.5945C36.36 37.5882 34.9562 37.5995 33.5523 37.5907C33.1632 37.6283 32.8278 37.2191 32.9517 36.845C33.5786 33.3816 34.233 29.922 34.8673 26.4586ZM35.9747 26.9891C35.4016 30.1297 34.8123 33.2665 34.2355 36.4058C35.6769 36.4046 37.1195 36.3983 38.5609 36.4071C38.8913 36.3833 39.2341 36.6398 39.2241 36.9889C39.1665 37.353 38.9964 37.6858 38.87 38.0299C37.8753 40.5987 36.8743 43.1662 35.8883 45.74C38.8913 41.9838 41.8755 38.2126 44.8684 34.4502C43.1817 34.4427 41.4951 34.4564 39.8084 34.4452C39.368 34.4814 39.0677 33.9472 39.2892 33.5768C40.3302 31.3809 41.3574 29.1775 42.4172 26.9891C40.2701 26.9866 38.1218 26.9878 35.9747 26.9891Z" />
</svg>
