<svg   viewBox="0 0 42 71"  xmlns="http://www.w3.org/2000/svg">
<path d="M34.1953 1.33831C34.1791 0.995505 33.9741 0.699828 33.6277 0.639932C33.3176 0.540137 32.9802 0.670691 32.7643 0.94817L26.4748 10.7907L21.2644 6.38079C21.025 6.16311 20.6804 6.14131 20.4192 6.26824C20.158 6.39517 19.9821 6.70892 19.9965 7.01364L20.6251 13.8171L16.4154 13.5972C16.1469 13.5717 15.8857 13.6987 15.7442 13.9344C15.6027 14.1702 15.5773 14.4386 15.6661 14.7016L17.454 18.5869C17.5828 18.8862 17.8947 19.0241 18.1994 19.0096C18.3137 19.0042 18.3899 19.0006 18.5023 18.9571C18.876 18.7866 19.0447 18.3205 18.8743 17.9469L17.5995 15.2206L21.4266 15.4206C21.6569 15.4478 21.8818 15.3608 22.0269 15.2012C22.1721 15.0416 22.2374 14.8095 22.2283 14.619L21.6831 8.76594L26.1372 12.5246C26.2968 12.6697 26.529 12.735 26.7557 12.6861C26.9824 12.6372 27.1675 12.5138 27.2745 12.3561L32.7114 3.852L33.0402 13.991C33.0511 14.2195 33.1762 14.4426 33.3358 14.5877C33.5335 14.731 33.7638 14.7583 33.9906 14.7093L39.12 13.3968L37.7684 16.2859C37.5961 16.6759 37.7701 17.1257 38.122 17.2999C38.5119 17.4722 38.9618 17.2982 39.1359 16.9463L41.1425 12.5754C41.2822 12.3015 41.2296 11.9986 41.0283 11.7791C40.827 11.5597 40.555 11.4581 40.2521 11.5106L34.4805 12.9682L34.1953 1.33831Z" />
<path d="M5.95842 18.4991C6.08646 17.9947 6.79134 17.8395 7.15866 18.1874C7.41216 18.3594 7.39793 18.6918 7.47424 18.9569C8.09376 21.7014 10.6145 24.0282 13.4961 24.0166C14.9576 24.0204 16.4191 24.0166 17.8806 24.0179C19.637 24.023 21.3585 23.2017 22.4992 21.8735C23.3218 20.9448 23.8896 19.7963 24.1392 18.5818C24.2129 17.9132 25.3188 17.7774 25.5374 18.4176C26.1414 20.919 25.5257 23.6686 23.9388 25.6928C25.2244 24.746 26.9264 24.3464 28.4836 24.7499C28.8509 24.8301 29.1148 25.1638 29.1652 25.5272C29.4239 26.8852 29.1846 28.3506 28.4332 29.5198C27.7167 30.6632 26.5604 31.5194 25.2567 31.8724C25.6628 32.2954 26.162 32.6161 26.5604 33.0481C28.86 35.2274 30.4689 38.1181 31.1247 41.217C31.9951 45.2109 31.2346 49.5424 29.0217 52.984C26.3716 57.2392 24.8027 62.1785 24.6268 67.1955C24.5997 67.9353 24.5932 68.6751 24.5984 69.4149C24.6165 69.8197 24.2505 70.1715 23.8469 70.1418C22.2884 70.1444 20.7299 70.1457 19.1714 70.1405C18.7821 70.1547 18.4795 69.7667 18.4859 69.3981C18.4808 66.285 18.4846 63.1731 18.4833 60.06C16.6662 60.3601 14.805 60.3562 12.9866 60.0639C12.984 63.1783 12.9917 66.294 12.984 69.4097C13.0085 69.8249 12.6115 70.1935 12.1989 70.1431C10.687 70.1444 9.17372 70.1418 7.66177 70.147C7.17806 70.2039 6.81204 69.7227 6.87024 69.2688C7.02415 63.856 5.65965 58.398 2.88021 53.7445C2.36286 52.8702 1.80155 52.0179 1.40319 51.0802C-0.0208041 47.9567 -0.370012 44.3625 0.396953 41.0191C1.20013 37.4093 3.32642 34.1177 6.26753 31.8802C5.01555 31.5284 3.89809 30.7446 3.1751 29.6608C2.31501 28.3985 1.98132 26.7637 2.38097 25.2802C2.44952 25.0021 2.67586 24.7641 2.9604 24.7059C4.50468 24.2558 6.21967 24.6322 7.50657 25.5764C6.01662 23.5794 5.41908 20.9358 5.95842 18.4991ZM7.48846 22.3805C7.87906 23.7294 8.66931 24.9491 9.72986 25.8674C10.0532 25.5401 10.3778 25.2142 10.7309 24.918C9.46602 24.3399 8.36407 23.4578 7.48846 22.3805ZM23.9413 22.3986C23.1149 23.4785 22.0181 24.3321 20.792 24.9142C21.1516 25.1922 21.4827 25.5065 21.7491 25.8777C22.7696 24.9465 23.6154 23.7553 23.9413 22.3986ZM10.374 27.7427C10.0933 28.4955 10.2278 29.3038 10.3623 30.0708C10.7464 32.6045 11.1358 35.1369 11.5108 37.6732C11.9363 37.5089 12.3864 37.4171 12.8443 37.4223C14.7391 37.4197 16.6351 37.4197 18.5299 37.421C18.9968 37.4132 19.4598 37.4947 19.8996 37.6525C20.3471 34.8291 20.814 32.007 21.2356 29.1797C21.4865 27.3767 19.9875 25.5156 18.1458 25.4936C16.5511 25.4858 14.9551 25.491 13.359 25.491C12.0127 25.5052 10.7723 26.4636 10.374 27.7427ZM3.72219 26.0264C3.51008 27.3379 4.00802 28.7425 5.01555 29.6116C5.89245 30.3631 7.09916 30.7252 8.2425 30.5351C8.44167 28.9404 7.62039 27.2732 6.21192 26.4921C5.46564 26.0536 4.57452 25.923 3.72219 26.0264ZM24.2207 27.3612C23.4473 28.2342 23.1653 29.437 23.2339 30.5804C24.6023 30.8248 26.0508 30.2157 26.9096 29.1396C27.6248 28.286 27.912 27.1258 27.7606 26.0303C26.4556 25.8596 25.073 26.3472 24.2207 27.3612ZM22.3091 31.7134C21.9922 33.8526 21.6547 35.9879 21.3184 38.122C21.2861 38.3755 21.1891 38.6613 21.3663 38.8851C21.7995 39.5731 22.022 40.4151 21.8603 41.2235C21.6223 42.672 20.2656 43.8451 18.7938 43.8555C16.7683 43.8568 14.7416 43.8542 12.7162 43.8568C11.2793 43.8619 9.9368 42.7587 9.64321 41.3541C9.40135 40.4255 9.71305 39.4529 10.233 38.6781C9.90964 36.3966 9.54233 34.1203 9.21769 31.8388C8.98359 31.91 8.74173 31.9656 8.52704 32.0884C7.24273 32.8774 6.04636 33.8267 5.05306 34.9649C2.97851 37.2839 1.7123 40.2987 1.47691 43.3989C1.23117 46.4668 2.02142 49.6019 3.67563 52.1951C6.781 57.0788 8.41839 62.877 8.34209 68.6622C9.41428 68.7204 10.4904 68.6699 11.5639 68.6829C11.5742 65.4314 11.5419 62.1785 11.5884 58.927C11.6673 58.4963 12.2222 58.4187 12.5817 58.517C14.7041 58.9982 16.9326 59.0007 19.055 58.5131C19.3965 58.398 19.7056 58.605 19.9513 58.821C19.9604 62.1074 19.9526 65.3951 19.9552 68.6829C21.0106 68.6635 22.0673 68.6673 23.1226 68.6803C23.0606 62.8744 24.7005 57.0672 27.8137 52.164C29.9374 48.8414 30.5776 44.6341 29.5688 40.8238C28.6414 37.1985 26.2487 33.9716 23.0373 32.0483C22.8058 31.9112 22.5562 31.813 22.3091 31.7134ZM12.4951 38.9252C11.7191 39.0519 11.0801 39.7633 11.0375 40.5483C10.9456 41.4925 11.7604 42.4379 12.7201 42.4328C14.7054 42.4651 16.6907 42.4431 18.6761 42.4457C19.6112 42.4806 20.4376 41.6115 20.413 40.6893C20.4609 39.7477 19.6228 38.8644 18.6748 38.8967C16.6144 38.9071 14.5515 38.8501 12.4951 38.9252Z" />
<path d="M11.8626 28.0857C12.7123 27.7921 13.7095 28.5332 13.6203 29.4412C13.6203 30.2702 12.7447 30.9557 11.9402 30.7371C11.2211 30.5716 10.7115 29.771 10.9288 29.0493C11.0594 28.6044 11.4138 28.2189 11.8626 28.0857Z" />
<path d="M18.8493 28.0804C19.7417 27.7906 20.7014 28.6559 20.5811 29.5664C20.5022 30.3412 19.6835 30.94 18.9217 30.7369C18.1871 30.5817 17.6736 29.7579 17.9026 29.0323C18.0293 28.5835 18.394 28.2019 18.8493 28.0804Z" />
<path d="M12.5106 39.4692C13.2387 39.4343 14.1493 39.2429 14.7054 39.8494C15.2085 40.4004 15.0301 41.3717 14.364 41.708C13.8945 41.9447 13.3435 41.827 12.8378 41.8516C12.2739 41.8904 11.7216 41.4778 11.6001 40.9255C11.4332 40.2995 11.8885 39.6076 12.5106 39.4692Z" />
<path d="M17.428 39.4756C18.1354 39.4381 18.9865 39.2545 19.5594 39.7912C20.1777 40.3564 19.9138 41.5062 19.13 41.7765C18.6373 41.9071 18.1186 41.8528 17.6142 41.8451C16.8848 41.8489 16.2924 41.0354 16.5356 40.3448C16.6714 39.9425 16.9934 39.5545 17.428 39.4756Z" />
</svg>
