<svg  viewBox="0 0 26 41" xmlns="http://www.w3.org/2000/svg">
    <path fill-rule="evenodd" clip-rule="evenodd"
          d="M13.3217 28.3187C13.5784 28.5283 13.6165 28.9063 13.4069 29.1629L9.03695 34.5135L5.80477 31.6387C5.55716 31.4184 5.53497 31.0392 5.7552 30.7916C5.97543 30.544 6.35468 30.5218 6.60228 30.742L8.89926 32.785L12.4775 28.4038C12.6871 28.1472 13.0651 28.109 13.3217 28.3187Z"
          />
    <path fill-rule="evenodd" clip-rule="evenodd"
          d="M8.92347 21.7456L8.92063 21.7482L8.90088 21.7657C8.882 21.7822 8.85179 21.8081 8.81053 21.8419C8.72798 21.9096 8.60141 22.0089 8.43315 22.1278C8.09632 22.3659 7.59443 22.6814 6.94587 22.9808C5.64989 23.5791 3.77414 24.1112 1.45251 23.8408L0.857591 23.7716L0.787257 24.3664L1.38311 24.4368C0.787257 24.3664 0.787294 24.366 0.787257 24.3664L0.787085 24.3678L0.786777 24.3705L0.785773 24.3793L0.782333 24.4109C0.779453 24.438 0.775461 24.4773 0.770743 24.5278C0.76131 24.629 0.748971 24.7756 0.736824 24.9621C0.71254 25.3349 0.688971 25.8677 0.691046 26.5148C0.695187 27.8066 0.801527 29.5658 1.21425 31.4222C2.03729 35.1239 4.11605 39.3382 9.16017 40.8391L9.33144 40.89L9.50269 40.839C14.5381 39.3379 16.6166 35.1236 17.4418 31.4225C17.8556 29.5663 17.9636 27.8072 17.9691 26.5154C17.9719 25.8684 17.9489 25.3356 17.9251 24.9628C17.9132 24.7764 17.901 24.6297 17.8917 24.5286C17.8871 24.478 17.8831 24.4388 17.8803 24.4117L17.8769 24.3801L17.8759 24.3712L17.8756 24.3686C17.8755 24.3683 17.8754 24.3671 17.2795 24.4368L17.8754 24.3671L17.8058 23.7715L17.2101 23.8408C14.8884 24.1112 13.0127 23.5791 11.7167 22.9808C11.0681 22.6814 10.5663 22.3659 10.2294 22.1278C10.0612 22.0089 9.9346 21.9096 9.85205 21.8419C9.81079 21.8081 9.78057 21.7822 9.7617 21.7657L9.74195 21.7482L9.73946 21.7459L9.73853 21.7451L9.33129 21.3671L8.92347 21.7456C8.92362 21.7454 8.92368 21.7454 8.92347 21.7456ZM16.7306 25.0887C14.4279 25.2373 12.5475 24.6861 11.2137 24.0703C10.4886 23.7355 9.92354 23.3811 9.53683 23.1078C9.4616 23.0546 9.39304 23.0044 9.33129 22.958C9.26954 23.0044 9.20098 23.0546 9.12575 23.1078C8.73904 23.3811 8.17397 23.7355 7.44888 24.0703C6.11489 24.6862 4.23428 25.2374 1.93119 25.0887C1.90954 25.4357 1.88915 25.9228 1.89104 26.511C1.895 27.7457 1.99708 29.414 2.38565 31.1617C3.15511 34.6225 5.01164 38.2714 9.33112 39.6364C13.6421 38.2715 15.4989 34.6227 16.2705 31.1614C16.6602 29.4136 16.7638 27.7451 16.7691 26.5103C16.7716 25.9225 16.7518 25.4357 16.7306 25.0887Z"
          />
    <path fill-rule="evenodd" clip-rule="evenodd"
          d="M19.1639 8.28641C19.4952 8.29006 19.7609 8.56162 19.7572 8.89297L19.6111 22.1924C19.6075 22.5237 19.3359 22.7894 19.0045 22.7857C18.6732 22.7821 18.4075 22.5105 18.4112 22.1792L18.5573 8.87978C18.561 8.54843 18.8325 8.28277 19.1639 8.28641Z"
          />
    <path fill-rule="evenodd" clip-rule="evenodd"
          d="M19.7418 2.68889L19.2374 3.01382L18.7391 2.67957C18.8516 2.51183 19.041 2.41197 19.2429 2.41384C19.4449 2.41572 19.6324 2.51909 19.7418 2.68889ZM19.226 4.15795C19.1651 4.25983 19.1022 4.36709 19.0393 4.47721C18.8639 4.78427 18.6945 5.10389 18.5699 5.38609C18.4339 5.69408 18.3901 5.87378 18.3891 5.93382C18.3816 6.38182 18.7374 6.75071 19.1944 6.75846C19.6387 6.76599 20.0115 6.40071 20.0192 5.95299C20.0202 5.89188 19.9819 5.71096 19.854 5.40011C19.7366 5.11482 19.5746 4.79162 19.4059 4.48088C19.3454 4.36949 19.2848 4.26099 19.226 4.15795ZM19.2374 3.01382C18.7391 2.67957 18.7391 2.67952 18.7391 2.67957L18.7376 2.68177L18.7341 2.68703L18.7212 2.70646C18.71 2.72326 18.694 2.74762 18.6736 2.77869C18.633 2.84079 18.5753 2.92983 18.5062 3.03889C18.3682 3.25653 18.1833 3.55622 17.9972 3.88214C17.8122 4.20617 17.6204 4.5658 17.4722 4.9014C17.3354 5.21121 17.1949 5.58787 17.1893 5.91313C17.1703 7.0328 18.0633 7.93946 19.174 7.95828C20.2975 7.97733 21.2002 7.06714 21.219 5.97367C21.2246 5.64267 21.0935 5.25881 20.9637 4.94343C20.8232 4.6022 20.6389 4.23702 20.4605 3.90836C20.2811 3.57776 20.1019 3.27389 19.9681 3.05328C19.9011 2.94272 19.845 2.85246 19.8055 2.78949C19.7857 2.75799 19.7701 2.73328 19.7592 2.71623L19.7466 2.6965L19.7432 2.69114L19.7418 2.68889C19.7417 2.68884 19.7418 2.68889 19.2374 3.01382Z"
          />
    <path fill-rule="evenodd" clip-rule="evenodd"
          d="M24.4339 7.49445L23.8339 7.49136L23.6009 6.93844C23.7867 6.86016 23.9993 6.88041 24.167 6.99232C24.3347 7.10424 24.4349 7.29287 24.4339 7.49445ZM23.8824 11.0512C23.2681 11.988 22.0159 12.2201 21.0853 11.6059L21.0806 11.6029C20.1558 10.98 19.9086 9.73058 20.5328 8.80367C20.7164 8.53112 21.04 8.29069 21.3255 8.10433C21.6339 7.90308 21.9914 7.70664 22.3233 7.5368C22.6573 7.36597 22.9756 7.21688 23.2098 7.11074C23.3272 7.05755 23.424 7.01486 23.492 6.9853C23.5259 6.97052 23.5527 6.959 23.5712 6.95108L23.5926 6.94194L23.5985 6.93947L23.6009 6.93844C23.601 6.93841 23.6009 6.93844 23.8339 7.49136C24.4339 7.49445 24.4339 7.49438 24.4339 7.49445L24.4339 7.49713L24.4338 7.50349L24.4336 7.52691C24.4334 7.54712 24.433 7.57638 24.4324 7.61358C24.4311 7.68795 24.4288 7.79423 24.4246 7.92355C24.4163 8.18158 24.4006 8.53416 24.3705 8.90939C24.3406 9.2824 24.2958 9.68924 24.2273 10.0521C24.1642 10.386 24.0655 10.777 23.8824 11.0512ZM23.2001 8.44063C23.0936 8.49234 22.9825 8.5475 22.8699 8.60513C22.5558 8.76578 22.2399 8.94053 21.9815 9.1092C21.7002 9.29278 21.5638 9.42105 21.5282 9.474C21.276 9.84837 21.3734 10.3514 21.7487 10.606C22.1452 10.8659 22.6435 10.7537 22.8798 10.3918L22.8844 10.3847C22.9188 10.3336 22.9856 10.1604 23.0481 9.82947C23.1054 9.52593 23.1461 9.16633 23.1743 8.81359C23.1846 8.68575 23.1931 8.56032 23.2001 8.44063Z"
          />
    <path fill-rule="evenodd" clip-rule="evenodd"
          d="M24.3811 12.45L23.7811 12.4469L23.5493 11.8935C23.735 11.8157 23.9474 11.8363 24.1147 11.9482C24.2821 12.0602 24.3822 12.2487 24.3811 12.45ZM20.478 13.7624C20.6598 13.4864 20.9839 13.2453 21.2667 13.0602C21.5749 12.8586 21.9333 12.662 22.2662 12.4921C22.6011 12.3212 22.9209 12.172 23.1561 12.0659C23.2741 12.0127 23.3714 11.97 23.4397 11.9404C23.4739 11.9256 23.5008 11.9141 23.5194 11.9062L23.5409 11.897L23.5468 11.8946L23.5493 11.8935C23.5493 11.8935 23.5493 11.8935 23.7811 12.4469C24.3811 12.45 24.3811 12.45 24.3811 12.45L24.3811 12.4527L24.3811 12.4591L24.3808 12.4825C24.3806 12.5027 24.3803 12.5319 24.3796 12.5691C24.3784 12.6435 24.3761 12.7498 24.3719 12.8791C24.3636 13.1372 24.3478 13.4897 24.3178 13.865C24.2879 14.238 24.243 14.6448 24.1745 15.0076C24.1112 15.3431 24.0119 15.7362 23.8271 16.0106C23.2042 16.9354 21.9548 17.1826 21.0279 16.5584C20.1041 15.9363 19.8564 14.689 20.478 13.7624ZM23.1475 13.3942C23.0392 13.4466 22.9262 13.5025 22.8116 13.561C22.4968 13.7216 22.1809 13.8961 21.9236 14.0644C21.6423 14.2485 21.5114 14.3746 21.4801 14.4225L21.4755 14.4296C21.2228 14.8047 21.321 15.3091 21.6982 15.5631C22.0734 15.8157 22.5777 15.7175 22.8317 15.3403C22.8662 15.2892 22.9329 15.116 22.9954 14.785C23.0527 14.4815 23.0934 14.1219 23.1216 13.7692C23.1319 13.6406 23.1404 13.5145 23.1475 13.3942Z"
          />
    <path fill-rule="evenodd" clip-rule="evenodd"
          d="M24.3147 17.4056L23.7147 17.4025L23.4818 16.8496C23.6675 16.7713 23.8802 16.7915 24.0478 16.9035C24.2155 17.0154 24.3158 17.204 24.3147 17.4056ZM23.081 18.3518C22.9745 18.4035 22.8634 18.4586 22.7507 18.5163C22.4367 18.6769 22.1207 18.8517 21.8623 19.0203C21.5811 19.2039 21.4447 19.3322 21.409 19.3851C21.1564 19.7603 21.2546 20.2646 21.6318 20.5186C22.007 20.7713 22.5113 20.6731 22.7653 20.2959C22.7998 20.2448 22.8665 20.0715 22.929 19.7406C22.9863 19.4371 23.0269 19.0775 23.0552 18.7247C23.0654 18.5969 23.0739 18.4715 23.081 18.3518ZM23.7147 17.4025C23.4818 16.8496 23.4818 16.8495 23.4818 16.8496L23.4793 16.8506L23.4735 16.8531L23.452 16.8622C23.4335 16.8701 23.4068 16.8816 23.3728 16.8964C23.3049 16.926 23.208 16.9687 23.0907 17.0219C22.8565 17.128 22.5381 17.2771 22.2042 17.4479C21.8722 17.6178 21.5147 17.8142 21.2064 18.0155C20.9209 18.2018 20.5973 18.4422 20.4137 18.7148C19.7895 19.6417 20.0367 20.8911 20.9615 21.514C21.8884 22.1382 23.1378 21.891 23.7607 20.9662C23.9455 20.6918 24.0448 20.2987 24.1081 19.9632C24.1766 19.6004 24.2215 19.1935 24.2514 18.8205C24.2814 18.4453 24.2972 18.0927 24.3055 17.8347C24.3097 17.7054 24.312 17.5991 24.3132 17.5247C24.3138 17.4875 24.3142 17.4583 24.3144 17.438L24.3147 17.4146L24.3147 17.4083L24.3147 17.4056C24.3147 17.4055 24.3147 17.4056 23.7147 17.4025Z"
          />
    <path fill-rule="evenodd" clip-rule="evenodd"
          d="M14.7676 6.83817L14.5205 7.38491L13.9206 7.37559C13.9237 7.17349 14.0284 6.98656 14.199 6.87828C14.3697 6.77 14.5834 6.75492 14.7676 6.83817ZM15.134 8.35263C15.1384 8.46927 15.1439 8.59132 15.1511 8.71571C15.1712 9.06786 15.2034 9.42769 15.2529 9.73259C15.3061 10.0608 15.367 10.2385 15.4014 10.2955C15.6342 10.66 16.1397 10.7835 16.5294 10.5551C16.9067 10.3082 17.0145 9.81616 16.774 9.42827C16.7427 9.3777 16.6133 9.24696 16.3365 9.05502C16.083 8.87921 15.7712 8.69564 15.4605 8.52613C15.3492 8.46544 15.2394 8.40725 15.134 8.35263ZM17.0204 8.06894C17.3004 8.26313 17.6194 8.51436 17.7939 8.79594C18.3756 9.73418 18.1144 10.9655 17.169 11.5705L17.1542 11.5797C16.2173 12.1418 14.9757 11.8672 14.3854 10.9342L14.3825 10.9296C14.2108 10.6525 14.1229 10.2609 14.0684 9.92485C14.0095 9.56213 13.9743 9.15635 13.953 8.78441C13.9316 8.41032 13.9235 8.05925 13.9207 7.80241C13.9193 7.6737 13.9193 7.56796 13.9196 7.49399C13.9197 7.457 13.92 7.4279 13.9202 7.40781L13.9204 7.38455L13.9205 7.37823L13.9206 7.37559C13.9206 7.37552 13.9206 7.37559 14.5205 7.38491C14.7676 6.83817 14.7675 6.83814 14.7676 6.83817L14.77 6.83927L14.7758 6.84191L14.7972 6.85165C14.8156 6.86009 14.8422 6.87236 14.8759 6.8881C14.9434 6.91957 15.0396 6.96499 15.1561 7.02149C15.3887 7.13424 15.7045 7.29233 16.0351 7.47266C16.3637 7.65191 16.7171 7.85862 17.0204 8.06894Z"
          />
    <path fill-rule="evenodd" clip-rule="evenodd"
          d="M14.7012 11.7937L14.4541 12.3405L13.8541 12.3312C13.8573 12.1291 13.962 11.9421 14.1326 11.8338C14.3033 11.7256 14.517 11.7105 14.7012 11.7937ZM15.0676 13.3082C15.0719 13.4248 15.0775 13.5469 15.0846 13.6713C15.1048 14.0234 15.137 14.3833 15.1865 14.6882C15.2389 15.0111 15.2987 15.1883 15.3333 15.2483C15.5829 15.6221 16.0799 15.7353 16.463 15.5106C16.8403 15.2638 16.9481 14.7717 16.7076 14.3838C16.6763 14.3333 16.5469 14.2025 16.2701 14.0106C16.0166 13.8348 15.7048 13.6512 15.3941 13.4817C15.2828 13.421 15.173 13.3628 15.0676 13.3082ZM16.954 13.0245C17.234 13.2187 17.5529 13.4699 17.7275 13.7515C18.3092 14.6897 18.0479 15.9211 17.1026 16.5261L17.0878 16.5352C16.1459 17.1004 14.9245 16.817 14.3237 15.8971L14.316 15.8853C14.1442 15.6082 14.0565 15.2164 14.002 14.8804C13.9431 14.5177 13.9079 14.1119 13.8866 13.74C13.8652 13.3659 13.8571 13.0148 13.8543 12.758C13.8529 12.6293 13.8529 12.5235 13.8532 12.4496C13.8533 12.4126 13.8536 12.3835 13.8538 12.3634L13.854 12.3401L13.8541 12.3338L13.8541 12.3312C13.8541 12.3311 13.8541 12.3312 14.4541 12.3405C14.7012 11.7937 14.7011 11.7937 14.7012 11.7937L14.7036 11.7948L14.7094 11.7975L14.7308 11.8072C14.7491 11.8157 14.7757 11.8279 14.8095 11.8437C14.877 11.8751 14.9732 11.9206 15.0897 11.9771C15.3223 12.0898 15.6381 12.2479 15.9687 12.4282C16.2973 12.6075 16.6507 12.8142 16.954 13.0245Z"
          />
    <path fill-rule="evenodd" clip-rule="evenodd"
          d="M14.6348 16.7498L14.3877 17.2965L13.7877 17.2872C13.7909 17.0851 13.8956 16.8982 14.0662 16.7899C14.2369 16.6816 14.4506 16.6665 14.6348 16.7498ZM15.0012 18.2642C15.0055 18.3809 15.0111 18.5029 15.0182 18.6273C15.0384 18.9795 15.0706 19.3393 15.12 19.6442C15.1725 19.9672 15.2323 20.1444 15.2669 20.2043C15.5165 20.5782 16.0134 20.6913 16.3966 20.4667C16.7739 20.2198 16.8817 19.7278 16.6412 19.3399C16.6099 19.2893 16.4805 19.1586 16.2037 18.9666C15.9502 18.7908 15.6384 18.6073 15.3277 18.4378C15.2164 18.3771 15.1066 18.3189 15.0012 18.2642ZM16.8875 17.9806C17.1676 18.1747 17.4865 18.426 17.6611 18.7076C18.2428 19.6458 17.9815 20.8771 17.0362 21.4821L17.0214 21.4913C16.0794 22.0565 14.8581 21.773 14.2573 20.8531L14.2496 20.8413C14.0778 20.5642 13.9901 20.1725 13.9355 19.8365C13.8767 19.4737 13.8415 19.068 13.8202 18.696C13.7988 18.3219 13.7907 17.9709 13.7879 17.714C13.7865 17.5853 13.7865 17.4796 13.7868 17.4056C13.7869 17.3686 13.7871 17.3395 13.7874 17.3194L13.7876 17.2962L13.7877 17.2899L13.7877 17.2872C13.7877 17.2871 13.7877 17.2872 14.3877 17.2965C14.6348 16.7498 14.6347 16.7498 14.6348 16.7498L14.6372 16.7509L14.643 16.7535L14.6643 16.7633C14.6827 16.7717 14.7093 16.784 14.7431 16.7997C14.8106 16.8312 14.9068 16.8766 15.0233 16.9331C15.2558 17.0459 15.5717 17.204 15.9023 17.3843C16.2309 17.5635 16.5843 17.7702 16.8875 17.9806Z"
          />
    <path fill-rule="evenodd" clip-rule="evenodd"
          d="M19.2719 0.46075C19.6033 0.465258 19.8682 0.737517 19.8637 1.06886L19.8372 3.02191C19.8326 3.35325 19.5604 3.6182 19.229 3.61369C18.8977 3.60919 18.6328 3.33693 18.6373 3.00559L18.6638 1.05253C18.6683 0.721191 18.9406 0.456242 19.2719 0.46075Z"
          />
    <path fill-rule="evenodd" clip-rule="evenodd"
          d="M14.5668 3.10477C14.8981 3.10837 15.1638 3.37991 15.1602 3.71126L15.1204 7.37822C15.1168 7.70957 14.8452 7.97527 14.5139 7.97166C14.1825 7.96806 13.9168 7.69653 13.9204 7.36518L13.9603 3.69822C13.9639 3.36686 14.2354 3.10117 14.5668 3.10477Z"
          />
    <path fill-rule="evenodd" clip-rule="evenodd"
          d="M19.0077 21.5857C19.339 21.5838 19.6092 21.8509 19.6111 22.1822C19.6232 24.2727 20.6725 25.714 21.7881 26.3556C22.3505 26.679 22.9003 26.7843 23.3343 26.7129C23.7465 26.6451 24.0893 26.4157 24.3015 25.9678L24.3028 25.965C24.5011 25.552 24.3864 24.9878 24.0323 24.6661C23.4416 24.1482 22.4417 24.4086 22.2549 25.275C22.185 25.5989 21.8658 25.8049 21.5418 25.735C21.2179 25.6651 21.012 25.3459 21.0818 25.022C21.4793 23.1793 23.6123 22.6952 24.8288 23.7686L24.8339 23.773L24.8338 23.773C25.5669 24.4346 25.8234 25.5685 25.3853 26.4829C24.9995 27.2963 24.3179 27.7673 23.529 27.897C22.7614 28.0233 21.9328 27.8231 21.1899 27.3958C19.6948 26.536 18.4256 24.6957 18.4111 22.1892C18.4092 21.8578 18.6763 21.5876 19.0077 21.5857Z"
          />
    <path fill-rule="evenodd" clip-rule="evenodd"
          d="M22.2939 27.125C22.2939 27.125 22.2939 27.125 22.2939 27.125L22.294 27.1249L22.294 27.1245L22.2942 27.1239L22.2943 27.1234C22.2943 27.1235 22.2943 27.1235 22.2943 27.1236M22.2939 27.125C22.2939 27.125 22.294 27.125 22.294 27.1249L22.2939 27.125Z"
          />
</svg>
