<svg  viewBox="0 0 26 15" xmlns="http://www.w3.org/2000/svg">
    <path d="M13.1939 2.96271L1.83997 14.1942L0.433451 12.7723L13.2093 0.134323L25.8473 12.9102L24.4254 14.3167L13.1939 2.96271Z"
          />
</svg>
