<svg   viewBox="0 0 57 52" xmlns="http://www.w3.org/2000/svg">
    <path fill-rule="evenodd" clip-rule="evenodd"
          d="M46.2747 14.9167C45.0737 16.0031 44.9807 17.8574 46.0671 19.0585C47.1535 20.2595 49.0078 20.3525 50.2089 19.2661C51.4099 18.1797 51.5029 16.3254 50.4165 15.1243C49.3301 13.9233 47.4758 13.8303 46.2747 14.9167ZM44.9547 20.0647C43.3126 18.2493 43.4531 15.4464 45.2685 13.8043C47.0839 12.1622 49.8868 12.3027 51.5289 14.1181C53.171 15.9335 53.0305 18.7364 51.2151 20.3785C49.3997 22.0206 46.5968 21.8801 44.9547 20.0647Z"
          />
    <path fill-rule="evenodd" clip-rule="evenodd"
          d="M35.267 15.408C35.199 14.0474 36.2613 12.9083 37.6344 12.9083H37.8455C39.1407 12.9083 40.2029 13.9332 40.2371 15.2335L40.2373 15.2397L40.3079 19.1468C40.3079 19.2765 40.3921 19.4484 40.6369 19.5449L49.2753 22.5414C50.2334 22.8621 51.0119 23.5303 51.4972 24.4154L56.1862 32.9728C56.1866 32.9735 56.1869 32.9741 56.1873 32.9748C56.5576 33.6431 56.5188 34.4544 56.1137 35.0809M56.1137 35.0809L53.208 39.58C53.2075 39.5807 53.207 39.5815 53.2065 39.5823C52.4874 40.7095 50.9794 41.0217 49.8775 40.266C48.8222 39.5496 48.5156 38.1485 49.1627 37.0587L49.1674 37.0508L50.7821 34.4066C50.8921 34.2162 50.8897 34.0027 50.81 33.8521L48.8734 30.1959L43.1476 45.6492C43.1473 45.6499 43.147 45.6506 43.1468 45.6513C43.0011 46.0505 42.7558 46.3515 42.5274 46.58L42.5138 46.5936L37.4588 51.1548C37.4583 51.1553 37.4578 51.1557 37.4573 51.1562C36.3743 52.1392 34.7154 52.0373 33.7384 50.9778L33.6905 50.93L33.6785 50.9167C32.6897 49.829 32.7964 48.1591 33.8697 47.1834L33.871 47.1822L38.304 43.1714L38.3055 43.1701C38.4214 43.0658 38.519 42.9119 38.58 42.719L40.0147 37.5075L36.429 40.7387C36.4282 40.7395 36.4273 40.7403 36.4264 40.7411C36.0025 41.1285 35.4588 41.324 34.937 41.3566L34.9268 41.3572L26.7645 41.7559L26.7619 41.756C25.3276 41.8212 24.0791 40.7169 24.0088 39.2662C23.9147 37.7884 25.0628 36.5477 26.5048 36.4814C26.5053 36.4814 26.5057 36.4814 26.5062 36.4813L33.253 36.1534C33.4789 36.1383 33.6828 36.0533 33.8205 35.9271L33.8238 35.9241L38.1775 31.9808L41.0374 24.9875L36.8053 23.3428C36.0716 23.0694 35.6097 22.4031 35.5719 21.647L35.267 15.408M37.6344 14.4083C37.1312 14.4083 36.7393 14.8173 36.7651 15.3331L37.07 21.5721C37.079 21.7519 37.1772 21.8812 37.3308 21.9378L37.3432 21.9424L43.0036 24.1423L39.4369 32.8638L34.8341 37.0329C34.8335 37.0334 34.8329 37.0339 34.8323 37.0345C34.4082 37.4224 33.8642 37.6181 33.3421 37.6507L33.3317 37.6514L26.5767 37.9797L26.5743 37.9798C25.9555 38.0079 25.4641 38.5451 25.506 39.1743L25.5065 39.1823L25.5069 39.1902C25.5346 39.7991 26.0659 40.2853 26.6924 40.2576C26.6929 40.2576 26.6934 40.2576 26.6938 40.2576L34.8479 39.8592C35.0739 39.8442 35.2778 39.7592 35.4154 39.633L35.4201 39.6287L39.4489 35.9981C40.4489 35.0659 41.9778 36.0801 41.6166 37.3402L40.0199 43.14L40.0166 43.1507C39.8898 43.5627 39.6607 43.968 39.3101 44.284C39.3097 44.2844 39.3093 44.2847 39.3089 44.2851L34.8787 48.2933C34.8784 48.2936 34.8781 48.2939 34.8778 48.2941C34.4079 48.7222 34.3708 49.4357 34.778 49.8962L34.8233 49.9414L34.8353 49.9546C35.267 50.4294 35.9894 50.4634 36.4497 50.0449L36.4518 50.0431L41.4794 45.5066C41.6179 45.3659 41.697 45.249 41.7379 45.1366L41.7394 45.1323L48.6308 26.5333L52.1356 33.1502C52.4775 33.7959 52.4289 34.5655 52.0724 35.1715L52.0661 35.1822L50.4504 37.828C50.2093 38.2381 50.3246 38.7571 50.7208 39.0255L50.725 39.0284C51.1233 39.3022 51.6764 39.1928 51.9425 38.7747L51.9452 38.7704L54.8536 34.2671C54.9639 34.0967 54.9725 33.8768 54.875 33.7013L54.8728 33.6974L50.182 25.1366C49.8706 24.5688 49.3842 24.1588 48.7964 23.9629L48.7877 23.96L40.1222 20.9541L40.1117 20.95C39.3803 20.6714 38.8112 20.0046 38.8078 19.1544L38.7376 15.2703C38.7235 14.7894 38.3321 14.4083 37.8455 14.4083H37.6344Z"
          />
    <path fill-rule="evenodd" clip-rule="evenodd"
          d="M12.5698 11.394C12.8489 11.0879 13.3233 11.066 13.6293 11.3451L15.2206 12.7959C15.7237 13.2417 16.3682 13.4948 17.0176 13.4948H26.8921C27.5555 13.4948 28.1922 13.2559 28.6811 12.8032L28.6853 12.7993L30.2803 11.3451C30.5864 11.066 31.0608 11.0879 31.3398 11.394C31.6189 11.7001 31.597 12.1744 31.2909 12.4535L29.7002 13.9038C29.6995 13.9045 29.6987 13.9052 29.698 13.9059C28.9207 14.6246 27.9165 14.9948 26.8921 14.9948H17.0176C15.9796 14.9948 14.9837 14.5923 14.2207 13.9141L14.2136 13.9078L12.6187 12.4535C12.3126 12.1744 12.2907 11.7001 12.5698 11.394Z"
          />
    <path fill-rule="evenodd" clip-rule="evenodd"
          d="M34.5079 18.2284C34.5617 18.6391 34.2725 19.0157 33.8618 19.0695L32.4369 19.2564C31.6784 19.3694 31.1133 20.017 31.1133 20.7887V21.188H33.7643C34.1785 21.188 34.5143 21.5237 34.5143 21.938C34.5143 22.3522 34.1785 22.688 33.7643 22.688H29.6133V20.7887C29.6133 19.2633 30.7345 17.9888 32.2253 17.7714L32.236 17.7698L33.6667 17.5823C34.0774 17.5284 34.454 17.8177 34.5079 18.2284Z"
          />
    <path fill-rule="evenodd" clip-rule="evenodd"
          d="M5.90726 17.803C5.96285 17.3925 6.34066 17.1049 6.75112 17.1604L11.2621 17.7713C12.7528 17.9887 13.874 19.2633 13.874 20.7886V22.6879H6.65048C6.23627 22.6879 5.90048 22.3521 5.90048 21.9379C5.90048 21.5237 6.23627 21.1879 6.65048 21.1879H12.374V20.7886C12.374 20.0165 11.8082 19.3685 11.049 19.2561L6.54984 18.6469C6.13937 18.5913 5.85168 18.2135 5.90726 17.803Z"
          />
    <path fill-rule="evenodd" clip-rule="evenodd"
          d="M3.1792 14.4095C3.59341 14.4095 3.9292 14.7453 3.9292 15.1595V25.8785C3.9292 26.2927 3.59341 26.6285 3.1792 26.6285C2.76499 26.6285 2.4292 26.2927 2.4292 25.8785V15.1595C2.4292 14.7453 2.76499 14.4095 3.1792 14.4095Z"
          />
    <path fill-rule="evenodd" clip-rule="evenodd"
          d="M10.3328 2.94898L6.63654 10.0458H2.10038C1.94049 10.0458 1.81836 10.1667 1.81836 10.3278V12.4387C1.81836 12.5548 1.86204 12.6229 1.895 12.6522L1.92383 12.6778L3.73245 14.653C4.01218 14.9585 3.99129 15.4329 3.6858 15.7127C3.38031 15.9924 2.90589 15.9715 2.62616 15.666L0.865775 13.7435C0.498539 13.3992 0.318359 12.9185 0.318359 12.4387V10.3278C0.318359 9.31612 1.13442 8.54578 2.10038 8.54578H5.72654L9.06508 2.13578L9.10532 2.08347C9.94996 0.985435 11.2479 0.336548 12.6551 0.336548H30.8562C32.2373 0.336548 33.5597 0.983403 34.406 2.08347L34.4462 2.13578L37.7847 8.54578H41.4109C42.4226 8.54578 43.1929 9.36185 43.1929 10.3278V12.4387C43.1929 12.9218 42.9952 13.3876 42.6547 13.7331L41.9821 14.4522C41.6991 14.7547 41.2245 14.7705 40.922 14.4876C40.6195 14.2046 40.6037 13.73 40.8866 13.4275L41.5754 12.6913L41.5842 12.6824C41.6599 12.6067 41.6929 12.514 41.6929 12.4387V10.3278C41.6929 10.1679 41.572 10.0458 41.4109 10.0458H36.8747L33.1785 2.9491C32.6161 2.24933 31.7529 1.83655 30.8562 1.83655H12.6551C11.738 1.83655 10.8958 2.2474 10.3328 2.94898Z"
          />
    <path fill-rule="evenodd" clip-rule="evenodd"
          d="M33.7646 25.1284C34.1789 25.1284 34.5146 25.4642 34.5146 25.8784V26.2772C34.5146 27.6725 35.6366 28.8108 37.0483 28.8108C37.4626 28.8108 37.7983 29.1466 37.7983 29.5608C37.7983 29.9751 37.4626 30.3108 37.0483 30.3108C34.8012 30.3108 33.0146 28.4939 33.0146 26.2772V25.8784C33.0146 25.4642 33.3504 25.1284 33.7646 25.1284Z"
          />
    <path fill-rule="evenodd" clip-rule="evenodd"
          d="M3.15576 25.1284C3.56998 25.1284 3.90576 25.4642 3.90576 25.8784V26.2772C3.90576 27.6889 5.04414 28.8108 6.43946 28.8108C7.85124 28.8108 8.97315 27.6725 8.97315 26.2772V25.8784C8.97315 25.4642 9.30894 25.1284 9.72315 25.1284C10.1374 25.1284 10.4731 25.4642 10.4731 25.8784V26.2772C10.4731 28.4939 8.68664 30.3108 6.43946 30.3108C4.22271 30.3108 2.40576 28.5243 2.40576 26.2772V25.8784C2.40576 25.4642 2.74155 25.1284 3.15576 25.1284Z"
          />
    <path fill-rule="evenodd" clip-rule="evenodd"
          d="M5.90039 25.8784C5.90039 25.4642 6.23618 25.1284 6.65039 25.1284H36.8369C37.2511 25.1284 37.5869 25.4642 37.5869 25.8784C37.5869 26.2926 37.2511 26.6284 36.8369 26.6284H6.65039C6.23618 26.6284 5.90039 26.2926 5.90039 25.8784Z"
          />
    <path fill-rule="evenodd" clip-rule="evenodd"
          d="M18.4258 21.938C18.4258 21.5238 18.7616 21.188 19.1758 21.188H24.3124C24.7266 21.188 25.0624 21.5238 25.0624 21.938C25.0624 22.3522 24.7266 22.688 24.3124 22.688H19.1758C18.7616 22.688 18.4258 22.3522 18.4258 21.938Z"
          />
    <path fill-rule="evenodd" clip-rule="evenodd"
          d="M9.1377 9.29578C9.1377 8.88156 9.47348 8.54578 9.8877 8.54578H33.6007C34.0149 8.54578 34.3507 8.88156 34.3507 9.29578C34.3507 9.70999 34.0149 10.0458 33.6007 10.0458H9.8877C9.47348 10.0458 9.1377 9.70999 9.1377 9.29578Z"
          />
</svg>
