<svg   viewBox="0 0 39 67"  xmlns="http://www.w3.org/2000/svg">
<path d="M25.3986 1.302C26.6243 0.313795 28.3313 -0.0385903 29.8455 0.40189C31.3776 0.818112 32.625 2.02592 33.1715 3.50568C34.6232 3.90148 35.8565 5.08375 36.1948 6.56607C36.3557 7.05762 36.2383 7.59513 36.3429 8.08285C37.0337 8.89997 37.4512 9.97117 37.3043 11.05C37.1486 12.7341 35.7071 14.1564 34.0346 14.3402C32.2241 14.6032 30.3358 13.389 29.8634 11.6144C29.7587 11.1726 29.6553 10.6964 29.7689 10.2495C29.9196 9.79625 30.6601 9.82051 30.7763 10.2865C30.8465 10.7883 30.8312 11.3233 31.0955 11.7765C31.6598 12.9358 33.1025 13.5537 34.3321 13.1656C35.5539 12.8337 36.4157 11.5314 36.2127 10.275C36.1374 9.62389 35.7633 9.05829 35.3049 8.61015C35.07 8.41608 35.1785 8.09945 35.1913 7.8441C35.3598 6.62863 34.6474 5.394 33.5749 4.83606C33.1983 4.61263 32.7374 4.60497 32.3595 4.40452C32.1373 4.04575 32.0748 3.60782 31.8488 3.24778C30.9435 1.588 28.7309 0.833433 27.0022 1.60842C26.4621 1.78462 26.0919 2.25829 25.5888 2.48683C25.1164 2.42555 24.6747 2.18679 24.187 2.20978C22.9204 2.15615 21.7037 2.9937 21.2734 4.18236C21.1879 4.499 20.8393 4.53602 20.5763 4.62412C19.7541 4.85521 19.0684 5.51657 18.8118 6.33114C18.508 7.2504 18.7684 8.32926 19.4642 9.00339C20.2622 9.86137 21.6373 10.072 22.6715 9.53452C23.2115 9.28555 23.5499 8.78634 23.9048 8.33437C24.2827 7.92836 25.0092 8.45311 24.75 8.94211C23.9495 10.5636 21.8633 11.3309 20.1805 10.7142C18.582 10.1895 17.4419 8.5195 17.6078 6.83418C17.7049 5.29314 18.8769 3.94233 20.3516 3.53249C20.8265 2.5213 21.7049 1.70418 22.7698 1.34669C23.6124 1.03516 24.5419 1.05942 25.3986 1.302Z" />
<path d="M27.6865 2.1843C29.1969 1.85234 30.886 2.6567 31.518 4.079C31.6776 4.4416 31.3444 4.87187 30.9575 4.83356C30.6281 4.80292 30.5132 4.45947 30.3434 4.23094C29.8391 3.43041 28.8036 3.06143 27.8933 3.25422C27.5333 3.32444 27.2371 3.56575 26.8847 3.65512C26.4072 3.70236 26.1225 3.03079 26.4863 2.72437C26.8311 2.44603 27.2575 2.28133 27.6865 2.1843Z" />
<path d="M20.6669 4.99972C20.9861 4.92566 21.3295 4.91928 21.6423 5.03036C21.9871 5.14399 22.1364 5.64575 21.8645 5.90493C21.5887 6.21519 21.1342 5.97133 20.792 6.10794C20.1332 6.40542 19.8728 7.33362 20.2737 7.93242C20.4524 8.24012 20.935 8.2248 21.0486 8.58101C21.1942 8.9334 20.8673 9.36239 20.4843 9.30238C19.5893 9.13385 18.9969 8.21969 18.9995 7.34256C18.9522 6.31222 19.6493 5.25634 20.6669 4.99972Z" />
<path d="M26.0254 5.09387C26.402 5.00322 26.6165 5.36326 26.7787 5.63521C27.3941 6.65917 28.8687 7.02688 29.894 6.41276C30.2055 6.1523 30.766 6.26976 30.8209 6.71024C30.923 7.14944 30.4442 7.3882 30.1136 7.53247C28.5036 8.25129 26.3982 7.49672 25.6628 5.8829C25.4943 5.57904 25.6883 5.16409 26.0254 5.09387Z" />
<path d="M34.1916 8.67161C34.9321 8.63203 35.5347 9.29721 35.7569 9.95219C36.2421 11.2851 35.2411 13.0126 33.7664 13.0215C33.3553 13.0611 32.7591 12.8262 32.8816 12.3167C32.9148 11.9503 33.326 11.8469 33.6324 11.9044C34.4725 12.0167 34.9998 10.9519 34.7074 10.2484C34.6002 9.8526 34.1571 9.76962 33.889 9.52192C33.6643 9.23465 33.8341 8.74566 34.1916 8.67161Z" />
<path d="M23.4707 10.9684C23.7848 10.8943 24.104 11.1522 24.1155 11.4714C24.2265 12.8107 24.2993 14.1551 24.4091 15.4957C24.4091 15.7792 24.51 16.1316 24.2648 16.3473C23.9725 16.6818 23.3494 16.4469 23.352 16.0013C23.2345 14.5573 23.1438 13.1108 23.043 11.6667C22.9843 11.3629 23.1464 11.0233 23.4707 10.9684Z" />
<path d="M21.4444 11.5594C21.3895 11.1572 21.9028 10.8598 22.2347 11.0666C22.4033 11.1649 22.5258 11.3373 22.5271 11.539C22.7773 13.7899 22.9855 16.0472 23.2472 18.2969C23.4821 18.9084 23.8779 19.4459 24.1767 20.0294C24.9606 19.6247 25.7228 19.1804 26.5106 18.7833C26.5336 18.639 26.5565 18.4884 26.6625 18.3786C26.9983 17.9509 27.3226 17.5129 27.6928 17.1146C27.4809 17.2972 27.2013 17.5334 26.9051 17.3827C26.5859 17.2806 26.4569 16.8439 26.6574 16.5796C27.4835 15.4063 28.3402 14.2547 29.1701 13.0826C29.3105 12.877 29.5173 12.6472 29.7969 12.7162C30.1915 12.7417 30.4225 13.255 30.1608 13.5639C29.3973 14.6798 28.561 15.7459 27.8116 16.8707C28.7015 15.8174 29.4867 14.676 30.374 13.6201C30.7903 13.2026 31.5384 13.8308 31.1809 14.3121C30.0434 15.8595 28.8023 17.3355 27.6788 18.8918C27.4937 19.7639 27.209 20.6103 26.9817 21.4709C28.5623 21.5385 30.1455 21.5768 31.7248 21.67C32.2266 21.716 32.3377 22.4833 31.8742 22.6787C30.7341 23.3349 29.562 23.9363 28.4168 24.5823C28.2138 24.6857 28.0082 24.8313 27.7682 24.8134C27.426 24.7853 27.2039 24.3755 27.3379 24.0665C27.4043 23.8724 27.6073 23.7856 27.7669 23.6848C28.3976 23.349 29.0207 22.9991 29.6539 22.6659C28.5087 22.6161 27.3622 22.5893 26.2195 22.5216C25.9067 22.5242 25.6526 22.1935 25.7381 21.8935C25.8671 21.3138 26.0573 20.7495 26.2118 20.1775C25.5275 20.5299 24.8661 20.9295 24.1716 21.2615C23.9379 21.4019 23.6264 21.2806 23.5038 21.0521C23.117 20.401 22.762 19.7319 22.3905 19.0731C22.2028 19.6898 22.0432 20.3141 21.8364 20.9244C21.7381 21.2398 21.3384 21.3662 21.0639 21.1964C20.2315 20.7648 19.4169 20.2975 18.5806 19.8698C18.8628 20.4622 19.242 21.0087 19.4654 21.6279C19.5433 22.159 18.7402 22.4718 18.4772 21.979C17.9167 21.001 17.4201 19.9873 16.8864 18.994C16.7332 18.7424 16.6106 18.3786 16.8762 18.1526C17.0651 17.9126 17.3933 17.9662 17.6218 18.1117C18.7517 18.7144 19.8804 19.3195 21.0039 19.9349C21.2235 19.188 21.447 18.4424 21.6704 17.6968C21.7189 17.4797 21.867 17.3112 22.0164 17.1554C21.8415 15.2888 21.6104 13.4273 21.4444 11.5594Z" />
<path d="M26.411 11.2341C26.8349 11.0311 27.3264 11.5035 27.1349 11.935C26.6932 13.5297 26.2259 15.1167 25.7867 16.7114C25.7114 16.9616 25.6245 17.2808 25.3347 17.3549C24.9402 17.494 24.5023 17.0561 24.6644 16.6616C25.1011 15.0669 25.576 13.4825 26.0178 11.8891C26.102 11.6529 26.1365 11.3298 26.411 11.2341Z" />
<path d="M10.7988 18.9632C11.7475 18.4985 12.7906 18.1946 13.8528 18.1883C14.5372 18.187 15.2215 18.1908 15.9059 18.1895C15.9059 18.7002 15.9059 19.2109 15.9059 19.7216C15.03 19.7421 14.1503 19.6744 13.2783 19.7638C12.2007 19.8914 11.2623 20.4622 10.292 20.8975C9.05479 21.495 7.80996 22.0772 6.56895 22.6658C5.73651 23.0808 5.09174 23.9081 4.99471 24.8465C4.94875 25.3649 4.98322 25.8871 4.97556 26.408C14.5563 26.4093 24.1358 26.4067 33.7153 26.4093C33.6872 25.6585 33.8238 24.8721 33.534 24.1558C33.3821 23.7447 33.0974 23.4064 32.8088 23.0859C32.8063 22.4871 32.8037 21.8883 32.8114 21.2895C34.2822 21.9968 35.3036 23.5647 35.2513 25.2091C35.2359 33.6804 35.2666 42.1529 35.2653 50.6255C35.2934 51.8269 34.8082 53.0296 33.9311 53.8557C33.068 54.7213 31.8296 55.1414 30.6179 55.0814C32.9748 58.3716 35.3406 61.6554 37.6962 64.9456C37.8903 65.2188 38.1086 65.478 38.2695 65.7755C38.4929 66.2415 38.1099 66.8505 37.5903 66.8416C37.2813 66.8696 37.0196 66.6603 36.8612 66.4164C36.3097 65.644 35.7671 64.8639 35.1976 64.1042C24.6274 64.1055 14.0571 64.1042 3.48686 64.1042C2.89572 64.9328 2.30842 65.7653 1.70324 66.5837C1.3866 66.9999 0.661403 66.8977 0.452016 66.4241C0.254118 66.1138 0.407329 65.741 0.614163 65.4818C3.10639 62.0231 5.57691 58.5478 8.08063 55.0954C7.19711 55.1069 6.297 54.9307 5.53988 54.4596C4.25547 53.6986 3.4243 52.238 3.4409 50.743C3.44345 42.19 3.4409 33.637 3.44218 25.084C3.44984 23.474 4.48784 21.9496 5.93823 21.2793C7.55077 20.4928 9.18119 19.7421 10.7988 18.9632ZM4.97428 27.9414C4.97428 31.0158 4.97428 34.0902 4.97428 37.1634C14.5551 37.1647 24.1358 37.1647 33.7153 37.1634C33.7166 34.0902 33.7179 31.0158 33.7153 27.9414C24.1345 27.9401 14.5551 27.9401 4.97428 27.9414ZM4.97556 38.698C4.97428 42.7122 4.97428 46.7276 4.97556 50.7417C4.92576 52.321 6.4068 53.6808 7.97083 53.5569C15.6352 53.5352 23.2983 53.5378 30.9614 53.5403C32.1028 53.5544 33.1867 52.7653 33.5647 51.6954C33.797 51.0647 33.7217 50.3816 33.7332 49.7241C33.7357 46.0483 33.7319 42.3725 33.7166 38.6955C24.1358 38.6993 14.5551 38.6968 4.97556 38.698ZM9.95107 55.0878C9.4059 55.8717 8.84668 56.6454 8.28619 57.4178C15.6582 57.4153 23.0314 57.4217 30.4034 57.4153C29.8519 56.6313 29.2811 55.8615 28.7334 55.075C22.4722 55.0712 16.211 55.0622 9.95107 55.0878ZM7.18051 58.9563C6.32637 60.168 5.44668 61.3617 4.59381 62.5734C14.4312 62.567 24.2673 62.5772 34.1047 62.5695C33.2442 61.363 32.3709 60.1654 31.5206 58.9525C23.4068 58.9499 15.293 58.9436 7.18051 58.9563Z" />
<path d="M8.78534 44.5443C10.3877 44.4932 11.9938 44.5366 13.5974 44.5213C14.5026 44.4971 15.3964 45.0307 15.7781 45.8555C16.0743 46.4671 16.0092 47.1655 15.9913 47.8243C15.9364 48.9912 14.8857 49.9986 13.7149 49.9935C12.1407 49.9986 10.5677 49.9999 8.99473 49.9922C7.83416 49.9756 6.79871 48.9746 6.72849 47.8192C6.69657 47.1425 6.64933 46.4147 6.98128 45.7968C7.32346 45.1125 8.02184 44.6209 8.78534 44.5443ZM9.01899 46.0624C8.63213 46.0585 8.30273 46.3892 8.26315 46.7658C8.22995 47.0735 8.22867 47.3851 8.25804 47.694C8.29251 48.1154 8.67809 48.4844 9.10836 48.4601C10.6073 48.4678 12.1062 48.4665 13.6038 48.4614C14.0009 48.4869 14.4005 48.206 14.4503 47.8013C14.4873 47.4247 14.495 47.0403 14.4388 46.665C14.3699 46.2756 13.9728 46.0368 13.5962 46.056C12.0704 46.0572 10.5447 46.0445 9.01899 46.0624Z" />
<path d="M24.9913 44.5279C26.554 44.5139 28.1168 44.5266 29.6808 44.5215C30.5899 44.5011 31.4772 45.0629 31.836 45.9004C32.1028 46.4533 32.0454 47.0827 32.0415 47.6777C32.0492 48.9187 30.9142 50.0218 29.677 49.995C28.1449 49.9975 26.6128 50.0001 25.0807 49.9937C24.2278 49.9975 23.403 49.483 23.0225 48.7221C22.6867 48.0888 22.7634 47.347 22.7787 46.6575C22.8361 45.52 23.8639 44.5624 24.9913 44.5279ZM24.8726 46.0932C24.5189 46.1903 24.2712 46.549 24.3006 46.9155C24.3159 47.3495 24.1882 47.882 24.5329 48.2241C24.7385 48.445 25.0551 48.4693 25.3386 48.4667C26.7443 48.4616 28.15 48.4654 29.5557 48.4654C29.8315 48.482 30.1124 48.3824 30.2962 48.1718C30.6243 47.8437 30.4877 47.333 30.5107 46.918C30.5579 46.4597 30.1507 46.0243 29.6885 46.0575C28.0849 46.0753 26.4723 46.0064 24.8726 46.0932Z" />
</svg>
