<svg   viewBox="0 0 43 40"  xmlns="http://www.w3.org/2000/svg">
<path d="M17.6808 0.0629481C17.8198 0.0193371 17.9854 -0.0558761 18.1074 0.0673724C25.4448 5.06178 32.7822 10.0575 40.1202 15.0519C40.0273 15.2137 39.9173 15.3654 39.8339 15.5328C40.7699 15.823 41.6972 16.1409 42.6313 16.4367C42.2078 17.8259 41.7294 19.1987 41.287 20.5822C41.1953 20.8667 41.1081 21.153 40.9987 21.4311C33.6038 19.0325 26.2171 16.608 18.8248 14.2018C18.6212 14.1367 18.4215 14.0526 18.2079 14.0267C17.6334 16.1251 17.0007 18.2083 16.4375 20.3086C16.0868 21.4279 15.7891 22.5643 15.4585 23.69C14.6564 26.495 13.8613 29.3013 13.058 32.1057C12.9335 32.5633 12.7843 33.0139 12.6781 33.4759C13.3026 33.4867 13.9296 33.4494 14.5534 33.4949C14.5414 34.7925 14.5452 36.0901 14.5509 37.3876C14.2229 37.3883 13.8942 37.3839 13.5655 37.3914C13.5295 36.4257 13.5542 35.4568 13.5535 34.4897C12.5897 34.4505 11.6226 34.484 10.6581 34.4727C8.10278 34.4777 5.54743 34.4638 2.99208 34.4796C2.98386 35.5206 2.9826 36.5622 2.99334 37.6032C2.66152 37.6443 2.32717 37.6196 1.99408 37.6177C1.98839 36.2386 1.98839 34.8588 1.99408 33.4797C2.69059 33.4683 3.38774 33.4785 4.08488 33.4759C4.1721 33.4911 4.25364 33.45 4.26691 33.3577C6.75337 26.4476 9.24172 19.5375 11.7288 12.6273C11.8059 12.4023 11.9071 12.1843 11.95 11.9492C8.78476 10.9366 5.63086 9.88807 2.46874 8.86416C2.26649 8.80285 2.06361 8.73901 1.86957 8.65368C2.23046 7.55646 2.58757 6.45796 2.94341 5.35947C3.13745 4.79822 3.2923 4.22369 3.50846 3.67065C10.253 5.8847 17.0051 8.07284 23.7515 10.2812C28.1702 11.7128 32.5793 13.1741 37.0017 14.593C37.0535 14.4729 37.1041 14.3528 37.1496 14.2308C30.7394 9.86594 24.3267 5.50421 17.9165 1.13995C17.8299 1.05526 17.7155 1.0976 17.6169 1.13047C14.075 2.26688 10.5324 3.4014 6.98975 4.53718C6.87346 4.22938 6.77928 3.91399 6.68005 3.6005C10.3415 2.40467 14.0162 1.24866 17.6808 0.0629481ZM4.1405 4.92779C3.77202 5.99531 3.43767 7.07421 3.08183 8.14615C4.85724 7.62029 6.61811 7.04513 8.39099 6.50916C8.48138 6.48325 8.56797 6.44469 8.64887 6.39666C7.1465 5.90556 5.64476 5.4132 4.1405 4.92779ZM9.81941 6.79611C9.89905 6.93832 9.9869 7.07547 10.0798 7.20946C10.7789 8.21884 11.4621 9.23959 12.1624 10.2477C12.2237 10.3539 12.3413 10.2483 12.4222 10.2294C13.5592 9.72942 14.7064 9.25033 15.8384 8.73964C14.8151 8.40529 13.7918 8.07284 12.7685 7.73975C11.7844 7.42878 10.8124 7.07737 9.81941 6.79611ZM4.96848 8.61639C6.71165 9.2181 8.47569 9.76102 10.2252 10.3457C10.5444 10.4443 10.8572 10.5637 11.1834 10.6351C11.0696 10.4057 10.9078 10.2072 10.7675 9.99488C10.1778 9.12393 9.57355 8.26371 8.99207 7.38833C7.64455 7.77388 6.3122 8.21568 4.96848 8.61639ZM17.6789 9.3483C18.2363 10.431 18.8159 11.5023 19.3879 12.578C20.1489 12.1855 20.8953 11.7646 21.6519 11.3639C21.9256 11.2046 22.2214 11.0814 22.4786 10.8955C20.872 10.4007 19.2843 9.84509 17.6789 9.3483ZM16.0545 9.75597C15.1766 10.1415 14.293 10.5132 13.4151 10.8993C13.2166 10.9847 13.0119 11.0592 12.8286 11.1755C13.3475 11.3911 13.8974 11.5213 14.4245 11.7147C15.7669 12.1407 17.0993 12.6008 18.4462 13.0129C17.8723 11.8404 17.2168 10.7085 16.6316 9.54107C16.4268 9.57457 16.2429 9.67507 16.0545 9.75597ZM20.0484 13.3624C19.9858 13.3978 19.9315 13.4465 19.8777 13.4932C21.7802 14.1044 23.6757 14.7384 25.5794 15.3445C25.4979 15.1606 25.3917 14.9893 25.2868 14.8186C24.6396 13.7404 23.9968 12.6596 23.3496 11.5819C22.2504 12.1786 21.1501 12.7721 20.0484 13.3624ZM24.5625 11.6028C25.0194 12.4099 25.5149 13.1955 25.9827 13.997C26.1287 14.2144 26.2285 14.4653 26.4036 14.6606C26.5724 14.6145 26.7253 14.5285 26.884 14.4571C27.7492 14.0532 28.6176 13.6563 29.4835 13.255C29.4804 13.236 29.4734 13.1974 29.4696 13.1785C28.3155 12.8176 27.1709 12.4276 26.0187 12.061C25.5345 11.9043 25.0561 11.7254 24.5625 11.6028ZM13.3001 12.415C13.3961 12.7165 13.5384 13.0002 13.6635 13.2904C14.3303 14.8357 14.9996 16.3804 15.6677 17.9251C15.7391 18.0977 15.8124 18.2696 15.9073 18.4314C15.9414 18.3454 15.9742 18.2582 16.0021 18.1697C16.4268 16.6813 16.8496 15.1922 17.2788 13.7043C16.3345 13.3763 15.3789 13.0805 14.4295 12.7683C14.0516 12.6533 13.6863 12.499 13.3001 12.415ZM12.5593 13.3036C12.419 13.6076 12.3255 13.9294 12.2066 14.2422C11.78 15.4324 11.3471 16.6206 10.9236 17.8114C12.0442 18.1937 13.1749 18.5439 14.2981 18.9187C14.5635 19.0059 14.8271 19.1007 15.1001 19.1627C15.0357 18.9528 14.944 18.7531 14.8555 18.5534C14.1312 16.8747 13.3999 15.1991 12.6781 13.5198C12.644 13.4446 12.6017 13.3732 12.5593 13.3036ZM31.3133 13.7871C31.8847 14.8755 32.5167 15.9329 33.1071 17.0118C33.4439 16.8747 33.7568 16.6863 34.0855 16.5308C34.7959 16.1472 35.5284 15.8034 36.2338 15.4096C35.8912 15.2592 35.529 15.1644 35.1764 15.0449C33.8883 14.6265 32.6014 14.2037 31.3133 13.7871ZM27.0755 15.4703C26.9269 15.5398 26.7752 15.6049 26.6431 15.7022C28.5058 16.2913 30.3551 16.9221 32.2184 17.5061C31.58 16.3299 30.9183 15.165 30.2546 14.002C29.1922 14.4856 28.1379 14.9868 27.0755 15.4703ZM35.8602 16.735C35.1005 17.1483 34.3111 17.508 33.5628 17.9409C34.4666 18.2645 35.3881 18.5382 36.2976 18.8473C37.5288 19.2341 38.7474 19.6626 39.9837 20.0343C39.1317 18.6709 38.2513 17.3241 37.3847 15.9702C36.8614 16.194 36.3735 16.4904 35.8602 16.735ZM38.7664 16.2306C39.0091 16.6794 39.3118 17.0927 39.5792 17.5269C39.9489 18.0907 40.2984 18.6678 40.6802 19.2233C40.9216 18.5079 41.1675 17.7924 41.3811 17.0674C40.5077 16.7938 39.6462 16.4815 38.7664 16.2306ZM10.5949 18.7601C10.2195 19.7075 9.89968 20.6777 9.54574 21.634C9.20064 22.6244 8.8132 23.6021 8.49528 24.6014C8.73356 24.4775 8.94656 24.3132 9.16714 24.1615C10.9621 22.9233 12.7559 21.682 14.5515 20.4438C14.6773 20.3598 14.8075 20.2789 14.9112 20.1676C13.4733 19.6961 12.0328 19.2303 10.5949 18.7601ZM12.6421 22.9594C11.4134 23.8139 10.1759 24.6545 8.95098 25.5134C10.4496 26.0248 11.95 26.5348 13.4537 27.0316C13.764 26.0715 14.013 25.0919 14.3 24.1236C14.5597 23.1761 14.8606 22.2382 15.0951 21.2838C14.2627 21.8198 13.4631 22.4063 12.6421 22.9594ZM8.50286 26.4337C9.36055 28.7185 10.2644 30.9863 11.1328 33.2674C11.1701 33.3337 11.172 33.4336 11.2491 33.4702C11.3774 33.4873 11.5063 33.4721 11.6346 33.4646C12.1415 31.6436 12.6813 29.8316 13.1825 28.0094C11.622 27.4854 10.0627 26.9583 8.50286 26.4337ZM7.33801 27.7673C6.65603 29.6704 5.96205 31.5684 5.28892 33.4747C6.90759 33.4747 8.52688 33.4766 10.1462 33.4734C9.31757 31.3074 8.46052 29.1521 7.64645 26.981C7.50803 27.2275 7.43977 27.505 7.33801 27.7673Z" />
<path d="M38.3176 21.8438C38.6457 21.835 38.9731 21.8331 39.3011 21.8451C39.3036 24.0218 39.322 26.1992 39.3068 28.376C39.8219 28.4183 40.3408 28.388 40.8578 28.3911C40.8642 28.723 40.8616 29.0548 40.8616 29.3866C40.344 29.3999 39.8263 29.3834 39.3087 29.3955C39.3194 29.7279 39.3055 30.0597 39.3144 30.3922C39.3036 30.5388 39.4458 30.6248 39.5369 30.7177C39.9015 31.0204 40.3136 31.3055 40.5222 31.7479C40.7314 32.1632 40.6764 32.6587 40.5134 33.0796C40.1594 34.0208 38.9339 34.4935 38.0345 34.0555C37.6325 33.871 37.276 33.5328 37.1774 33.0885C37.137 32.8907 37.1098 32.6416 37.2792 32.4937C37.4524 32.2946 37.7931 32.2725 37.982 32.4621C38.0977 32.5588 38.1198 32.7137 38.1565 32.8515C38.1748 33.0006 38.3176 33.0841 38.4396 33.1454C38.9124 33.3773 39.5609 33.0544 39.6513 32.5317C39.7277 32.2801 39.5748 32.0361 39.3864 31.8825C39.0761 31.6259 38.7348 31.3921 38.5073 31.0533C38.3303 30.7954 38.2336 30.4731 38.2911 30.1609C38.3322 29.9074 38.3164 29.6495 38.3214 29.3942C37.7621 29.3929 37.2021 29.4106 36.6427 29.3942C36.644 29.0611 36.6383 28.728 36.6491 28.3956C37.2071 28.4013 37.7671 28.4133 38.3246 28.376C38.3151 26.1986 38.3018 24.0212 38.3176 21.8438Z" />
<path d="M0 38.7459C1.02328 38.7074 2.04909 38.7396 3.07363 38.7295C7.55861 38.7326 12.043 38.7225 16.5279 38.7345C16.5279 39.0664 16.5305 39.3982 16.5241 39.73C11.0165 39.7199 5.50952 39.7275 0.00189605 39.7262C0.00821649 39.3994 0.0101127 39.072 0 38.7459Z" />
</svg>
