<svg   viewBox="0 0 55 48"  xmlns="http://www.w3.org/2000/svg">
<path d="M13.4281 20.3712C13.2941 20.3712 13.16 20.3374 13.0372 20.2698C11.7416 19.5823 10.6694 18.4777 10.0105 17.1703C9.7983 16.7533 9.96582 16.2461 10.3791 16.0319C10.7923 15.8178 11.2949 15.9868 11.5071 16.4039C12.0097 17.407 12.825 18.2523 13.8078 18.7708C14.221 18.9849 14.3774 19.5034 14.1652 19.9091C14.0312 20.2022 13.7296 20.3712 13.4281 20.3712Z" />
<path d="M16.2984 21.0814C15.8405 21.0814 15.4608 20.6982 15.4608 20.236C15.4608 19.7739 15.8405 19.3907 16.2984 19.3907C19.2469 19.3907 21.6482 16.9675 21.6482 13.9919C21.6482 12.4929 21.0562 11.0953 19.9729 10.0696C19.6378 9.75403 19.6267 9.21302 19.9394 8.87489C20.2521 8.53676 20.7882 8.52549 21.1232 8.84108C22.5417 10.1936 23.3235 12.0195 23.3235 13.9919C23.3235 17.9029 20.1739 21.0814 16.2984 21.0814Z" />
<path d="M19.1129 34.9221C18.3981 34.9221 17.6722 34.7418 17.0356 34.3924C15.7958 33.7161 14.7013 32.8257 13.7967 31.7324L9.48561 26.5477C9.18406 26.1871 9.22873 25.6573 9.58612 25.353C9.94352 25.0487 10.4684 25.0938 10.77 25.4545L15.0811 30.6278C15.8517 31.5521 16.7787 32.3072 17.8397 32.882C18.6662 33.3329 19.6602 33.3216 20.4755 32.8482L33.5762 25.2516C34.3803 24.7895 34.7266 23.7751 34.3692 22.9072C34.1681 22.4226 33.7996 22.0506 33.3081 21.859C32.8279 21.6674 32.303 21.6899 31.8339 21.9154L20.3973 27.9792C20.0511 28.1595 19.6155 28.0806 19.3698 27.7763L16.2202 23.978C15.9187 23.6173 15.9745 23.0875 16.3319 22.7832C16.6893 22.4789 17.2142 22.5353 17.5158 22.8959L20.2186 26.1645L31.0744 20.4163C31.0856 20.4163 31.0856 20.405 31.0968 20.405C31.9791 19.9767 33.0066 19.9317 33.9112 20.2811C34.8271 20.6305 35.553 21.3631 35.9216 22.276C36.5805 23.9216 35.9328 25.8264 34.4138 26.7168L21.3019 34.3473C20.6318 34.7305 19.8724 34.9221 19.1129 34.9221Z" />
<path d="M6.24665 45.1674C6.23549 45.1674 6.21315 45.1674 6.20198 45.1674C5.74407 45.1449 5.38668 44.7391 5.40901 44.277L6.34717 27.1113C6.34717 27.1 6.34717 27.0775 6.34717 27.0662C6.64872 24.2485 7.62039 21.4983 9.15048 19.1202L10.4795 17.0463C10.7364 16.6518 11.2502 16.5391 11.6411 16.7983C12.032 17.0576 12.1437 17.576 11.8868 17.9705L10.5577 20.0331C9.17282 22.1859 8.2905 24.6768 8.01129 27.224L7.0843 44.3672C7.06196 44.818 6.68223 45.1674 6.24665 45.1674Z" />
<path d="M21.3578 44.7955C20.911 44.7955 20.5424 44.4461 20.5201 43.9953L20.2856 39.4192C20.2632 38.9571 20.6206 38.5514 21.0785 38.5288C21.5364 38.5063 21.9385 38.867 21.9609 39.3291L22.1954 43.9051C22.2177 44.3672 21.8603 44.773 21.4024 44.7955C21.3801 44.7955 21.3689 44.7955 21.3578 44.7955Z" />
<path d="M20.0064 28.0693C19.8947 28.0693 19.7942 28.0468 19.6825 28.0017C19.2581 27.8214 19.0571 27.3254 19.2246 26.8972L19.917 25.2065C21.1568 22.1859 23.4016 19.6612 26.2384 18.1058L30.8511 15.5698C31.2531 15.3444 31.7669 15.5022 31.9903 15.9079C32.2136 16.3137 32.0573 16.8322 31.6552 17.0576L27.0426 19.5936C24.5408 20.9686 22.5528 23.2003 21.4583 25.8602L20.7659 27.5509C20.6542 27.8777 20.3414 28.0693 20.0064 28.0693Z" />
<path d="M35.2403 23.6398C34.9387 23.6398 34.6483 23.482 34.5032 23.189C34.2798 22.7832 34.4361 22.2648 34.8494 22.0394L35.7205 21.566L31.9344 13.9468L31.2754 14.2849L34.2798 20.529C34.4808 20.9461 34.3133 21.4533 33.8889 21.6561C33.4756 21.859 32.9731 21.69 32.772 21.2617L29.4103 14.2849C29.2093 13.8679 29.3768 13.372 29.79 13.1578L31.9344 12.0758C32.1354 11.9744 32.3588 11.9631 32.571 12.0307C32.7832 12.0983 32.9507 12.2561 33.0512 12.459L37.5745 21.566C37.7755 21.9717 37.6192 22.4677 37.2171 22.6931L35.6312 23.5497C35.5195 23.606 35.3743 23.6398 35.2403 23.6398Z" />
<path d="M1.46652 46.6215C1.08679 46.6215 0.751731 46.3622 0.651214 45.979C0.539529 45.5282 0.818743 45.0661 1.26549 44.9534L9.03881 43.0147C11.5741 42.3836 13.7519 40.7042 15.0252 38.3936L17.6274 33.6711C17.8508 33.2653 18.3646 33.1188 18.7666 33.3442C19.1687 33.5697 19.3139 34.0881 19.0905 34.4939L16.4882 39.2164C14.9916 41.9327 12.4229 43.9164 9.44087 44.6603L1.66755 46.5989C1.60054 46.6102 1.53353 46.6215 1.46652 46.6215Z" />
<path d="M14.1875 47.6471C13.8972 47.6471 13.6291 47.5005 13.4728 47.23C13.2382 46.8243 13.3611 46.3058 13.7631 46.0691L15.081 45.2689C16.8568 44.1981 18.2976 42.6427 19.2469 40.783L24.2951 30.8082C24.5073 30.3912 25.0099 30.2334 25.4231 30.4363C25.8364 30.6504 25.9927 31.1576 25.7917 31.5746L20.7323 41.572C19.649 43.7135 17.9849 45.5056 15.941 46.7341L14.6231 47.5344C14.4779 47.6132 14.3327 47.6471 14.1875 47.6471Z" />
<path d="M6.24669 19.4809C5.91164 19.4809 5.59892 19.278 5.47606 18.9511C5.29737 18.5228 5.50957 18.0269 5.93398 17.8466C16.0415 13.665 23.8148 4.56935 23.893 4.47919C24.1946 4.12978 24.7195 4.0847 25.0769 4.38902C25.4231 4.69333 25.4678 5.22307 25.1662 5.58374C24.8424 5.96695 17.0579 15.0739 6.55941 19.4245C6.4589 19.4583 6.34721 19.4809 6.24669 19.4809Z" />
<path d="M9.10583 18.1509C8.80428 18.1509 8.52507 17.9931 8.36871 17.7113C7.46406 16.0207 7.10666 14.037 7.36354 12.1209C7.63158 10.1372 8.5139 8.34512 9.92114 6.93624C10.245 6.60939 10.7811 6.60939 11.105 6.93624C11.4289 7.2631 11.4289 7.80411 11.105 8.13097C8.82662 10.4302 8.3017 14.0482 9.84296 16.8998C10.0663 17.3055 9.90997 17.824 9.5079 18.0494C9.37388 18.1171 9.23986 18.1509 9.10583 18.1509Z" />
<path d="M20.9445 9.56239C20.6876 9.56239 20.4308 9.43841 20.2632 9.21299C17.6833 5.60627 13.6961 7.29692 13.5286 7.36455C13.1712 7.52234 12.7691 7.40963 12.5346 7.10531L10.9486 5.03145C10.7923 4.81731 10.7364 4.5468 10.8035 4.28757C10.8705 4.02834 11.0603 3.82546 11.306 3.72402C13.7185 2.75471 17.2812 1.98829 20.5424 3.81419C22.5193 4.91874 23.4239 6.46287 23.4574 6.53049C23.692 6.93625 23.558 7.45471 23.1559 7.69141C22.7538 7.9281 22.2512 7.79284 22.0167 7.38709C21.905 7.19548 19.2916 2.93505 12.9813 4.90747L13.4951 5.58373C14.0423 5.41467 14.9135 5.22306 15.9298 5.22306H15.941C17.5604 5.22306 19.8612 5.74152 21.6258 8.22114C21.8938 8.60435 21.8157 9.12282 21.4359 9.39332C21.2907 9.5173 21.112 9.56239 20.9445 9.56239Z" />
<path d="M36.1338 20.3712C35.8769 20.3712 35.62 20.2473 35.4525 20.0218C35.1845 19.6386 35.2626 19.1202 35.6424 18.8384L41.3607 14.6794L40.8134 13.4734L34.3915 16.077C33.9671 16.2461 33.4757 16.0432 33.297 15.6036C33.1295 15.1753 33.3305 14.6794 33.7661 14.4991L40.9251 11.6024C41.3383 11.4334 41.8074 11.625 41.9973 12.0307L43.17 14.6005C43.3375 14.9724 43.2258 15.4007 42.9019 15.6374L36.6252 20.2022C36.48 20.3149 36.3013 20.3712 36.1338 20.3712Z" />
<path d="M42.8573 16.7082C42.5445 16.7082 42.243 16.5279 42.0978 16.2235L40.0763 11.8504C39.8753 11.4221 40.0651 10.9262 40.4784 10.7233C40.9028 10.5204 41.3942 10.712 41.5952 11.1291L43.6167 15.5022C43.8178 15.9305 43.6279 16.4264 43.2147 16.6293C43.0918 16.6744 42.9801 16.7082 42.8573 16.7082Z" />
<path d="M42.8349 10.5542C42.4998 10.1823 42.5334 9.61874 42.9019 9.28061C43.2705 8.94248 43.8289 8.97629 44.164 9.34823C44.499 9.72017 44.4655 10.2837 44.097 10.6219C43.9294 10.7796 43.7061 10.8585 43.4939 10.8585C43.2481 10.8473 43.0136 10.7571 42.8349 10.5542ZM45.8951 7.75902C45.56 7.38708 45.5935 6.82353 45.9621 6.4854C46.3307 6.14727 46.8891 6.18109 47.2241 6.55303C47.5592 6.92497 47.5257 7.48852 47.1571 7.82665C46.9896 7.98444 46.7662 8.06334 46.554 8.06334C46.3083 8.05207 46.0738 7.95063 45.8951 7.75902ZM48.9553 4.95255C48.6202 4.58061 48.6537 4.01706 49.0223 3.67893C49.3908 3.3408 49.9493 3.37461 50.2843 3.74655C50.6194 4.1185 50.5859 4.68204 50.2285 5.02017C50.061 5.17797 49.8376 5.25687 49.6254 5.25687C49.3797 5.24559 49.134 5.15543 48.9553 4.95255ZM52.0155 2.15734C51.6804 1.7854 51.7139 1.22185 52.0713 0.883723C52.4399 0.545594 52.9983 0.579407 53.3333 0.951349C53.6684 1.32329 53.6349 1.88684 53.2775 2.22497C53.11 2.38276 52.8866 2.46166 52.6744 2.46166C52.4399 2.45039 52.1942 2.34895 52.0155 2.15734Z" />
<path d="M53.6572 16.0094C53.1658 15.9643 52.8084 15.5247 52.8419 15.0288C52.8866 14.5329 53.3222 14.1722 53.8136 14.206C54.305 14.2511 54.6624 14.6907 54.6289 15.1866C54.5842 15.66 54.1933 16.0094 53.7354 16.0094C53.7131 16.0207 53.6907 16.0207 53.6572 16.0094ZM49.5472 15.6375C49.0558 15.5924 48.6984 15.1528 48.7319 14.6569C48.7766 14.161 49.2121 13.8003 49.7036 13.8341C50.195 13.8792 50.5524 14.3187 50.5189 14.8147C50.4742 15.2881 50.0833 15.6375 49.6254 15.6375C49.5919 15.6487 49.5695 15.6487 49.5472 15.6375ZM45.426 15.2655C44.9346 15.2204 44.566 14.7809 44.6107 14.2849C44.6554 13.789 45.0909 13.4283 45.5824 13.4622C46.0738 13.5072 46.4312 13.9468 46.3977 14.4427C46.353 14.9048 45.9621 15.2655 45.5042 15.2655C45.4818 15.2768 45.4595 15.2655 45.426 15.2655Z" />
<path d="M44.0635 12.2674C43.8848 11.8053 44.1193 11.2756 44.5772 11.1065C45.0351 10.9262 45.56 11.1629 45.7276 11.625C45.9063 12.0871 45.6717 12.6168 45.2138 12.7859C45.1133 12.831 45.0016 12.8422 44.8899 12.8422C44.5437 12.8422 44.1975 12.6281 44.0635 12.2674ZM47.9278 10.7796C47.7491 10.3175 47.9836 9.78779 48.4415 9.61873C48.8994 9.43839 49.4244 9.67508 49.5919 10.1372C49.7706 10.5993 49.536 11.129 49.0781 11.2981C48.9776 11.3432 48.8659 11.3545 48.7542 11.3545C48.3969 11.3545 48.0618 11.1403 47.9278 10.7796ZM51.7809 9.29187C51.6022 8.82976 51.8368 8.30002 52.2947 8.13096C52.7526 7.95062 53.2775 8.18731 53.445 8.64942C53.6237 9.11153 53.3892 9.64127 52.9313 9.81033C52.8308 9.85542 52.7191 9.86669 52.6074 9.86669C52.2612 9.86669 51.915 9.65254 51.7809 9.29187Z" />
</svg>
