<svg  viewBox="0 0 82 41"  xmlns="http://www.w3.org/2000/svg">
<path d="M49.4858 3.50413C51.8067 2.34488 54.1264 1.18802 56.4317 0C58.4685 4.38646 60.4993 8.77651 62.5493 13.157C63.0168 12.9784 63.4736 12.7686 63.9543 12.6271C64.9313 14.8593 65.9563 17.0723 66.9501 19.2985C67.1827 19.7648 67.3385 20.2731 67.6346 20.7071C67.6778 18.7183 67.643 16.7282 67.6526 14.7382C69.7218 14.7406 71.7897 14.7394 73.8589 14.7382C74.6429 14.7262 75.4581 14.7322 76.1846 15.0655C77.0141 15.4287 77.6399 16.136 78.0691 16.9176C78.6745 18.017 78.9982 19.235 79.3926 20.4182C80.3792 23.4608 81.1752 26.5777 81.5229 29.7629C81.7986 32.0635 81.7339 34.382 81.7399 36.6933C78.9275 36.6981 76.115 36.6849 73.3026 36.6993C73.1012 38.0767 72.3172 39.363 71.1579 40.1411C69.8105 41.0833 67.9799 41.2619 66.4694 40.6194C64.8594 39.966 63.6929 38.4052 63.4496 36.6945C57.8919 36.6957 52.3354 36.6873 46.7789 36.6981C46.5619 38.211 45.6244 39.598 44.2925 40.3508C43.0014 41.1109 41.3543 41.1996 39.9732 40.6314C38.3416 39.9744 37.1572 38.3956 36.9151 36.6621C35.5268 36.6621 34.1386 36.6705 32.7504 36.6585C31.108 36.6034 29.6946 35.13 29.6562 33.4972C29.6419 31.2207 29.6574 28.9441 29.649 26.6664C30.4367 26.6676 31.2231 26.6688 32.0107 26.6664C34.346 21.8148 36.6573 16.9512 39.007 12.1068C41.3854 13.0311 43.7567 13.971 46.1351 14.8917C44.8428 12.3106 43.6176 9.696 42.3289 7.11256C44.7229 5.92453 47.1038 4.71373 49.4858 3.50413ZM44.2578 7.76951C45.4782 10.2822 46.7094 12.7913 47.9214 15.3088C48.0113 15.4863 48.0988 15.6985 48.3158 15.7488C49.6009 16.2487 50.8788 16.7702 52.1711 17.2473C52.5488 17.155 52.8964 16.9728 53.2585 16.8373C55.9066 15.7908 58.5536 14.7406 61.2006 13.6928C59.3952 9.77752 57.561 5.87418 55.758 1.95646C51.9326 3.90813 48.0772 5.80465 44.2578 7.76951ZM39.7143 13.9254C37.6811 18.1728 35.6407 22.4178 33.6027 26.664C38.1223 26.6748 42.643 26.6616 47.1625 26.67C48.444 23.8983 49.7016 21.1147 50.9891 18.3454C47.2344 16.8637 43.4714 15.4 39.7143 13.9254ZM52.6435 18.6284C52.2323 18.7398 52.1999 19.2314 52.0117 19.5478C50.9268 21.9215 49.8299 24.2892 48.7521 26.6664C55.0531 26.6688 61.3529 26.6664 67.6538 26.6676C67.6526 25.7421 67.655 24.8154 67.6526 23.8899C67.4716 23.7425 67.2906 23.5854 67.2067 23.3625C65.8676 20.393 64.5309 17.4212 63.187 14.4541C59.6721 15.8435 56.1572 17.2353 52.6435 18.6284ZM69.0912 16.178C69.0936 20.1544 69.0912 24.1309 69.0924 28.1074C56.4245 28.105 43.7567 28.1074 31.0888 28.1062C31.0948 29.8612 31.084 31.6163 31.0924 33.3714C31.0768 34.3232 31.9064 35.2019 32.8631 35.2211C34.2165 35.2307 35.5712 35.2223 36.9258 35.2235C37.186 33.4301 38.4723 31.8141 40.1962 31.2267C41.7031 30.6752 43.481 30.9258 44.7637 31.8944C45.8594 32.6784 46.5847 33.93 46.7813 35.2559C52.3282 35.2463 57.8751 35.2667 63.422 35.2463C63.5143 35.0017 63.5467 34.7404 63.6222 34.4911C64.0909 32.8894 65.4192 31.5671 67.0304 31.1236C68.3743 30.7376 69.8812 30.9581 71.0513 31.7278C72.2669 32.5058 73.1024 33.8269 73.3038 35.2547C75.6355 35.2535 77.9684 35.2547 80.3013 35.2547C80.3205 33.2527 80.2869 31.2447 80.0124 29.2594C78.4383 29.263 76.8643 29.2594 75.2891 29.2618C74.8863 29.311 74.4727 28.9849 74.4763 28.5701C74.4439 28.1817 74.7928 27.828 75.1764 27.828C76.718 27.8089 78.2609 27.8328 79.8026 27.8173C79.3195 25.0312 78.5211 22.3123 77.622 19.6354C77.3246 18.7243 77.0166 17.7856 76.4159 17.0231C75.9844 16.4609 75.2711 16.166 74.5698 16.1816C72.744 16.1732 70.917 16.1816 69.0912 16.178ZM41.0629 32.4675C40.5906 32.5777 40.1399 32.7791 39.755 33.0764C38.561 33.9396 38.0443 35.5724 38.4543 36.9774C38.7133 37.9137 39.3882 38.7121 40.2382 39.1712C41.3351 39.749 42.7401 39.6783 43.7711 38.9866C45.0826 38.1498 45.7036 36.4103 45.2348 34.9286C44.7649 33.1855 42.8228 32.0131 41.0629 32.4675ZM67.7605 32.4315C66.6228 32.6281 65.6122 33.4289 65.1591 34.4911C64.5813 35.7246 64.8042 37.2687 65.6854 38.3033C66.6324 39.4589 68.3527 39.8941 69.7278 39.2899C71.3042 38.6617 72.2189 36.8144 71.8245 35.1732C71.4684 33.3762 69.5707 32.0587 67.7605 32.4315Z" />
<path d="M24.1908 8.79217C24.1117 8.33782 24.4881 7.87508 24.9509 7.87508C25.2218 7.85949 25.4687 8.01893 25.6246 8.23232C27.2226 10.2559 28.8374 12.2663 30.433 14.2911C31.2794 13.2901 32.0886 12.2579 32.9338 11.2557C33.2826 10.8194 34.1074 10.9932 34.2165 11.5518C34.4598 12.626 34.678 13.7073 34.9058 14.785C35.0137 15.1447 34.8686 15.5798 34.5222 15.7501C34.1074 15.9755 33.5212 15.7201 33.4109 15.2598C33.273 14.6903 33.1819 14.1101 33.0512 13.5395C32.495 14.1473 32.0059 14.8126 31.4748 15.442C31.2051 15.7429 30.9977 16.1709 30.5661 16.2572C30.2652 16.3303 29.9487 16.1924 29.7797 15.9383C28.4933 14.3151 27.195 12.7015 25.9099 11.0783C26.0526 13.1534 26.1964 15.2286 26.3331 17.3037C26.3858 17.7473 26.0058 18.2017 25.5455 18.1537C24.3802 18.0998 23.2162 18.0074 22.0533 17.9295C22.8409 18.7759 23.6082 19.6426 24.3862 20.4986C24.7159 20.8115 24.6871 21.4121 24.2939 21.6578C23.6561 22.1014 23.0028 22.521 22.3578 22.9513C22.8673 23.2702 23.42 23.5124 23.9235 23.8397C24.373 24.1046 24.3431 24.873 23.8707 25.0984C23.6178 25.2567 23.2821 25.2591 23.0268 25.1044C22.172 24.6309 21.2993 24.1885 20.4553 23.6982C19.9698 23.4345 19.9686 22.6624 20.4337 22.3807C21.1674 21.8808 21.9119 21.3965 22.6479 20.9014C21.6949 19.8608 20.7682 18.7975 19.8163 17.7557C19.6725 17.5915 19.507 17.4248 19.4627 17.2018C19.332 16.7283 19.7672 16.2068 20.2611 16.274C21.7476 16.3603 23.2354 16.4586 24.7219 16.5485C24.5469 13.9626 24.3634 11.378 24.1908 8.79217Z" />
<path d="M0.110263 19.5981C-0.223007 19.0982 0.250524 18.3489 0.845135 18.4508C2.14705 18.6978 3.38422 19.2168 4.56146 19.8151C6.40763 20.8844 8.22743 21.9993 10.0604 23.0926C10.6994 23.4906 11.3731 23.861 12.1188 24.0097C16.2295 24.8788 20.3426 25.7384 24.4534 26.6051C25.5359 26.8269 26.5009 27.5426 27.0392 28.5053C27.3809 29.1095 27.3509 29.8227 27.4396 30.4905C28.1169 30.7674 28.7379 31.2889 28.9297 32.0202C29.1911 32.7898 28.9165 33.5882 28.7067 34.3339C28.4034 35.4128 27.5331 36.2748 26.5009 36.6764C25.5862 37.0312 24.5864 36.8682 23.6298 36.9029C23.0244 36.9893 22.5425 36.246 22.8781 35.7329C23.0927 35.3313 23.5902 35.3385 23.9846 35.3553C24.7746 35.3289 25.6558 35.5099 26.3475 35.0208C27.1627 34.5317 27.3964 33.5211 27.4852 32.6448C27.4708 31.9554 26.6352 31.9854 26.2875 31.5526C25.802 31.0395 25.9363 30.2747 25.8164 29.6345C25.7733 29.1394 25.3908 28.7738 25.0144 28.4969C24.5421 28.1432 23.9439 28.0701 23.384 27.9538C19.6473 27.1686 15.9118 26.381 12.1751 25.5969C11.3791 25.4567 10.6083 25.1857 9.90696 24.7817C8.02962 23.6632 6.15947 22.534 4.28213 21.4155C3.27033 20.858 2.20819 20.3761 1.08969 20.0776C0.742037 19.9769 0.30567 19.9541 0.110263 19.5981Z" />
<path d="M1.25515 23.7232C1.46854 23.6141 1.71549 23.6525 1.94447 23.6681C3.58204 23.8275 5.22082 23.9834 6.8584 24.1404C7.16769 24.15 7.48298 24.3035 7.60167 24.6044C7.88938 25.0995 7.39547 25.7648 6.84521 25.6881C5.0386 25.5226 3.22839 25.3608 1.42418 25.1642C0.750448 25.0383 0.630567 24.0049 1.25515 23.7232Z" />
<path d="M16.6072 30.2124C18.1452 29.9439 19.7996 30.4174 20.9373 31.4927C22.0797 32.5273 22.7007 34.0978 22.5701 35.6346C22.4406 37.7721 20.809 39.713 18.7255 40.2069C17.3432 40.5594 15.8231 40.2992 14.6399 39.5032C13.4219 38.6964 12.5875 37.3429 12.4065 35.8948C12.2471 34.6636 12.548 33.3725 13.2649 32.3547C14.0261 31.2254 15.2657 30.4378 16.6072 30.2124ZM16.7294 31.7637C16.1768 31.8848 15.6613 32.1509 15.2213 32.5045C13.9266 33.5451 13.5478 35.5279 14.3762 36.9689C15.1662 38.465 17.0939 39.2095 18.6823 38.6161C20.4494 38.0395 21.5055 35.9523 20.9097 34.1865C20.4062 32.459 18.4785 31.3429 16.7294 31.7637Z" />
<path d="M3.05221 35.4428C3.2668 35.3673 3.49937 35.3768 3.72354 35.3708C6.24345 35.3816 8.76335 35.3637 11.2833 35.3804C11.8299 35.3457 12.2579 35.9834 12.0025 36.4726C11.8491 36.855 11.4103 36.9641 11.0375 36.9341C8.44327 36.9185 5.84664 36.9593 3.25361 36.9137C2.51034 36.8478 2.36409 35.7161 3.05221 35.4428Z" />
</svg>
