<svg  viewBox="0 0 77 61"  xmlns="http://www.w3.org/2000/svg">
<path d="M61.6454 30.3104C61.8816 30.0615 62.2299 29.9714 62.5314 30.1523C62.8314 30.2794 63.0016 30.5986 62.9838 30.9497L61.3173 42.5106L68.1431 42.5748C68.4665 42.5663 68.7417 42.7749 68.8566 43.0416C68.9714 43.3084 68.8997 43.6609 68.6897 43.8822L63.7699 48.6232L67.1012 51.2064C67.321 51.3624 67.4359 51.6292 67.3891 51.9001C67.3422 52.1711 67.1861 52.3909 66.9471 52.5321L63.0555 54.3062C62.7625 54.4487 62.4362 54.3494 62.215 54.1394C62.132 54.0606 62.0767 54.0081 62.0199 53.9017C61.8483 53.5286 62.025 53.0654 62.3981 52.8938L65.1441 51.6622L62.1157 49.3139C61.9235 49.184 61.81 48.9712 61.8044 48.7556C61.7987 48.5399 61.9009 48.3215 62.0321 48.1832L66.2681 44.1074L60.4403 44.0441C60.2247 44.0497 60.0062 43.9475 59.8665 43.7624C59.7268 43.5772 59.6673 43.363 59.6893 43.1736L61.1272 33.1831L54.2556 40.6455C54.0981 40.8115 53.8576 40.8987 53.642 40.9043C53.3987 40.8837 53.2065 40.7539 53.0668 40.5687L50.04 36.2244L49.1763 39.2949C49.0521 39.7027 48.6265 39.9297 48.2463 39.8317C47.8385 39.7075 47.6116 39.2819 47.7095 38.9017L49.0451 34.2814C49.1182 33.9828 49.3559 33.7878 49.6517 33.7531C49.9475 33.7183 50.2198 33.8191 50.4149 34.0568L53.8331 38.9303L61.6454 30.3104Z" />
<path fill-rule="evenodd" clip-rule="evenodd" d="M46.413 50.9932C46.413 50.579 46.7488 50.2432 47.163 50.2432H55.6293C56.0435 50.2432 56.3793 50.579 56.3793 50.9932V59.4595C56.3793 59.8737 56.0435 60.2095 55.6293 60.2095H47.163C46.7488 60.2095 46.413 59.8737 46.413 59.4595V50.9932ZM47.913 51.7432V58.7095H54.8793V51.7432H47.913Z" />
<path fill-rule="evenodd" clip-rule="evenodd" d="M40.4866 42.5269C40.4866 42.1126 40.8224 41.7769 41.2366 41.7769H49.7029C50.1171 41.7769 50.4529 42.1126 50.4529 42.5269V50.9932C50.4529 51.4074 50.1171 51.7432 49.7029 51.7432H41.2366C40.8224 51.7432 40.4866 51.4074 40.4866 50.9932V42.5269ZM41.9866 43.2769V50.2432H48.9529V43.2769H41.9866Z" />
<path fill-rule="evenodd" clip-rule="evenodd" d="M33.7135 50.9932C33.7135 50.579 34.0493 50.2432 34.4635 50.2432H42.9298C43.344 50.2432 43.6798 50.579 43.6798 50.9932V59.4595C43.6798 59.8737 43.344 60.2095 42.9298 60.2095H34.4635C34.0493 60.2095 33.7135 59.8737 33.7135 59.4595V50.9932ZM35.2135 51.7432V58.7095H42.1798V51.7432H35.2135Z" />
<path fill-rule="evenodd" clip-rule="evenodd" d="M21.0801 9.524C21.251 9.21515 21.6141 9.06728 21.9522 9.16888L49.0887 17.3249C49.3932 17.4165 49.6069 17.6901 49.622 18.0077C49.637 18.3253 49.4502 18.6179 49.1557 18.7378L47.2144 19.5283L52.8494 33.3668L51.4601 33.9325L45.5423 19.3994C45.3861 19.0157 45.5704 18.5781 45.9541 18.4219L46.6221 18.1499L22.0996 10.7795L9.70139 33.1839L10.3694 32.9119C10.7531 32.7557 11.1907 32.94 11.3469 33.3236L20.2164 55.1055L18.8272 55.6711L10.2405 34.584L8.29924 35.3744C8.00475 35.4944 7.66664 35.4155 7.45553 35.1777C7.24443 34.94 7.20621 34.5949 7.36017 34.3167L21.0801 9.524Z" />
<path fill-rule="evenodd" clip-rule="evenodd" d="M16.5475 31.2059C16.3913 30.8222 16.5756 30.3846 16.9593 30.2284L39.3644 21.1051C39.748 20.9489 40.1857 21.1332 40.3419 21.5168L43.5764 29.4602L42.1871 30.0259L39.2355 22.7772L18.2196 31.3348L26.8062 52.422L25.417 52.9877L16.5475 31.2059Z" />
<path fill-rule="evenodd" clip-rule="evenodd" d="M18.4113 35.7827L42.2057 26.0937L42.7714 27.4829L18.977 37.172L18.4113 35.7827Z" />
<path fill-rule="evenodd" clip-rule="evenodd" d="M20.5579 41.0547L35.7856 34.854L36.3513 36.2432L21.1236 42.4439L20.5579 41.0547Z" />
<path fill-rule="evenodd" clip-rule="evenodd" d="M22.7046 46.3262L32.6605 42.2721L33.2262 43.6614L23.2703 47.7154L22.7046 46.3262Z" />
<path fill-rule="evenodd" clip-rule="evenodd" d="M9.16125 54.4761H30.1338V55.9761H9.16125V54.4761Z" />
</svg>
