<svg   viewBox="0 0 49 60"  xmlns="http://www.w3.org/2000/svg">
<path d="M23.5058 0.405523C23.7629 -0.141214 24.645 -0.133385 24.8916 0.418572C25.0599 0.86092 24.9581 1.35155 24.9829 1.81477C29.9323 1.95178 34.8712 3.37669 39.0298 6.0882C41.7282 7.85498 44.0913 10.1724 45.7642 12.94C47.3052 15.4845 48.2421 18.4074 48.3687 21.3851C48.3687 21.7335 48.4913 22.0806 48.4378 22.4277C48.3334 22.9705 47.6105 23.1845 47.1825 22.8713C42.8674 20.4182 37.3295 20.4626 32.97 22.7826C32.6255 23.0279 32.1819 23.0919 31.823 22.8374C29.7261 21.7061 27.3591 21.1045 24.9803 21.0341C24.9738 23.1754 25.0077 25.3179 24.9634 27.4592C31.7565 28.8098 38.547 30.1786 45.3401 31.5291C45.6232 31.5969 45.9599 31.6178 46.153 31.867C46.307 32.0302 46.3422 32.2611 46.3357 32.4777C46.3292 40.6997 46.3383 48.9216 46.3305 57.1435C46.354 57.5715 45.9886 57.9578 45.5567 57.9434C36.6301 58.6219 27.701 59.2822 18.7744 59.9555C18.4273 59.9842 18.0763 60.0247 17.7292 59.9803C12.7525 59.2979 7.7731 58.6245 2.79636 57.9408C2.40229 57.9108 2.06824 57.548 2.08521 57.1514C2.07999 48.2287 2.0839 39.3061 2.0826 30.3834C2.04215 29.9776 2.35009 29.6044 2.74547 29.5353C7.72482 28.3974 12.7081 27.2739 17.6874 26.1348C18.0567 26.0317 18.4312 26.1531 18.7953 26.2209C20.335 26.5328 21.876 26.8381 23.4158 27.1461C23.4158 25.1196 23.4184 23.0932 23.4145 21.0667C21.024 21.235 18.6543 21.8392 16.5039 22.9066C16.2208 23.0631 15.8711 23.0501 15.6023 22.87C11.3184 20.4299 5.82494 20.4665 1.48106 22.7369C1.29316 22.8348 1.11178 22.9509 0.904308 23.0031C0.476313 23.0866 0.0196113 22.7461 0.00134327 22.305C-0.0456318 18.6618 1.14179 15.0448 3.19564 12.0488C5.65922 8.44478 9.26586 5.70457 13.2653 4.00433C16.4674 2.62901 19.9383 1.91655 23.4184 1.81216C23.4458 1.34633 23.3323 0.850481 23.5058 0.405523ZM19.1672 3.83731C14.2269 4.76507 9.47856 7.14644 6.09374 10.9097C3.5858 13.6577 1.91427 17.2043 1.60763 20.9297C5.84452 19.0416 10.8669 18.9541 15.1143 20.8605C14.7358 16.2191 16.0172 11.4903 18.5734 7.60967C18.7157 7.40089 18.9088 7.1895 19.1815 7.17906C19.6343 7.08642 20.0871 7.50789 20.0649 7.95937C20.0649 8.25688 19.864 8.49175 19.7191 8.73315C17.3808 12.3659 16.2965 16.7815 16.6944 21.085C21.4102 19.0846 27.0068 18.7962 31.6925 21.0341C32.1023 16.625 30.9227 12.1127 28.4787 8.42781C28.0846 7.94762 28.4695 7.14252 29.0945 7.17123C29.6726 7.15688 29.9023 7.76494 30.1684 8.16945C32.4989 11.947 33.6198 16.454 33.2819 20.884C37.5253 19.0259 42.5451 18.9672 46.7728 20.9036C46.5079 17.6858 45.2174 14.592 43.2445 12.0488C40.7274 8.79187 37.2017 6.38831 33.3536 4.97645C28.8453 3.31797 23.8829 2.96044 19.1672 3.83731ZM10.5146 29.3722C10.5564 34.0122 10.5159 38.651 10.5342 43.2911C11.1971 43.3002 11.8612 43.2755 12.5241 43.2989C12.9377 43.2937 13.3005 43.6682 13.2888 44.0806C13.3057 44.489 12.9364 44.8596 12.5306 44.8556C11.8638 44.8687 11.1984 44.8517 10.5316 44.8569C10.5316 49.0429 10.5303 53.2289 10.5329 57.4149C12.7655 57.7255 15.0007 58.0217 17.2334 58.3336C17.236 57.2831 17.2347 56.2327 17.2347 55.1823C16.7714 55.1823 16.3095 55.1823 15.8476 55.1797C15.8489 54.6591 15.8489 54.1384 15.8476 53.6191C16.3095 53.6165 16.7714 53.6152 17.2347 53.6165C17.2242 47.0243 17.2555 40.4309 17.219 33.8387C16.7623 33.8517 16.3056 33.8491 15.8489 33.8478C15.8476 33.3259 15.8476 32.8039 15.8489 32.282C16.3108 32.282 16.7714 32.2807 17.2334 32.282C17.236 30.8023 17.2347 29.3239 17.2347 27.8442C14.9955 28.357 12.7551 28.8646 10.5146 29.3722ZM18.8005 27.8259C18.8018 38.0116 18.8005 48.1974 18.8005 58.3831C27.453 57.7359 36.1043 57.0809 44.7555 56.4402C44.7829 48.6319 44.7594 40.8236 44.7672 33.0166C36.1108 31.2929 27.4569 29.5548 18.8005 27.8259ZM3.64843 30.9367C3.64843 31.841 3.64843 32.7465 3.64843 33.6521C4.10513 33.6508 4.56314 33.6521 5.01984 33.6534C5.01854 34.174 5.01854 34.6947 5.01984 35.2166C4.56314 35.2179 4.10513 35.2179 3.64843 35.2179C3.64974 40.8941 3.64582 46.5702 3.64974 52.2477C4.10644 52.2451 4.56184 52.2451 5.01854 52.2464C5.01984 52.7683 5.01984 53.2903 5.01854 53.8122C4.56184 53.8122 4.10644 53.8122 3.64974 53.8122C3.64582 54.7008 3.64974 55.5907 3.64843 56.4807C5.42043 56.7155 7.19113 56.9635 8.96313 57.2023C8.96835 53.088 8.96444 48.9751 8.96574 44.8609C8.43858 44.8295 7.89967 44.9222 7.38295 44.8048C6.76575 44.5973 6.74226 43.6134 7.35033 43.3759C7.86705 43.205 8.43075 43.325 8.96705 43.2937C8.96313 38.7711 8.96444 34.2497 8.96705 29.7284C7.19244 30.1264 5.42043 30.5296 3.64843 30.9367Z" />
<path d="M23.1248 36.4941C22.5076 36.1822 22.6772 35.1488 23.361 35.0535C24.0982 35.017 24.8381 35.0418 25.5753 35.0405C26.0177 35.0118 26.4052 35.4241 26.3687 35.8612C26.37 40.8667 26.3687 45.8708 26.3687 50.8763C26.9272 50.9232 27.5313 50.7614 28.0598 50.9859C28.677 51.3003 28.4799 52.3547 27.7858 52.4225C27.0472 52.4643 26.3047 52.4421 25.5649 52.4356C25.1539 52.4447 24.8015 52.0741 24.8068 51.6696C24.7989 46.6485 24.8055 41.6261 24.8028 36.6037C24.2483 36.5567 23.6493 36.7185 23.1248 36.4941Z" />
<path d="M31.2371 35.9394C31.5725 35.6132 32.0736 35.7502 32.4937 35.7202C32.9008 35.7411 33.3823 35.6341 33.7098 35.942C33.9134 36.1182 33.9473 36.3948 33.9395 36.6479C33.9343 41.3898 33.9395 46.1317 33.9369 50.8736C34.3597 50.8814 34.8986 50.7809 35.17 51.1985C35.5301 51.616 35.2248 52.3285 34.6976 52.4172C34.1757 52.4655 33.6485 52.4459 33.1253 52.4342C32.6647 52.4381 32.3254 51.9683 32.3711 51.5312C32.3698 46.7854 32.3724 42.0396 32.3711 37.2939C32.0018 37.2756 31.5686 37.3617 31.2698 37.0903C30.9227 36.8124 30.9057 36.2369 31.2371 35.9394Z" />
<path d="M38.1646 36.5919C38.5143 36.314 38.9867 36.4301 39.3977 36.4053C39.7709 36.4275 40.2002 36.3309 40.5225 36.575C40.7522 36.7394 40.8448 37.029 40.8226 37.3031C40.8174 41.827 40.8213 46.3497 40.8213 50.8736C41.1971 50.8932 41.6408 50.7914 41.9487 51.0707C42.3245 51.3786 42.2802 52.0415 41.8678 52.2972C41.5233 52.5178 41.0953 52.4225 40.7104 52.446C40.3046 52.4251 39.8244 52.523 39.4982 52.2189C39.2633 52.0128 39.2542 51.6813 39.2529 51.393C39.2555 46.9212 39.2555 42.4494 39.2542 37.9777C38.8862 37.9529 38.4504 38.0612 38.1542 37.7833C37.7993 37.4857 37.7953 36.879 38.1646 36.5919Z" />
</svg>
