<svg   viewBox="0 0 51 71"  xmlns="http://www.w3.org/2000/svg">
<path d="M4.80374 34.0125C4.86164 34.1862 4.91955 34.302 5.09326 34.3599C5.15116 34.4178 5.26697 34.4178 5.38278 34.4178C5.44068 34.4178 5.49858 34.4178 5.55649 34.4178L17.7162 30.9436L21.8274 38.4774C21.8853 38.709 22.1169 38.8827 22.4064 38.8827C22.4643 38.8827 22.5223 38.8827 22.5802 38.8827C22.8697 38.7669 23.0434 38.4774 22.9855 38.1879L18.8743 30.6541L24.2015 29.1486L25.1858 38.3616C25.1858 38.6511 25.4753 38.8827 25.7649 38.8827C25.7649 38.8827 25.7649 38.8827 25.8228 38.8827C26.1702 38.8827 26.4018 38.5932 26.3439 38.2458L25.3595 28.8012L30.3971 27.3536C30.5709 27.2957 30.6867 27.2378 30.7446 27.064C30.6867 26.9482 30.6867 26.7745 30.6867 26.6008L29.7602 23.474L34.2767 24.8637L27.9073 38.2458C27.7915 38.5353 27.9652 38.8827 28.3126 38.9985C28.3705 38.9985 28.4284 38.9985 28.4863 38.9985C28.7179 38.9985 28.9496 38.8248 29.0654 38.5932L35.4348 25.2111L45.2784 28.28C45.3363 28.28 45.3942 28.28 45.4521 28.28C45.6837 28.28 45.9153 28.1063 46.0311 27.8747L50.1423 14.7885C50.2581 14.499 50.0844 14.1515 49.737 14.0357L32.9449 8.76649L32.4238 1.52854C32.4238 1.18111 32.1343 0.949499 31.7868 1.0074L10.7678 2.28128C10.5941 2.28128 10.4783 2.33919 10.3625 2.45499C10.2467 2.5708 10.1888 2.74451 10.2467 2.86032L10.9994 14.7306L0.808388 17.6257C0.518869 17.7416 0.345159 18.0311 0.403062 18.3206L4.80374 34.0125ZM44.9889 27.0061L25.3595 20.8684L29.1233 8.8823L48.7526 15.0201L44.9889 27.0061ZM11.4048 3.38145L31.2657 2.16548L31.671 8.47697L28.9496 7.60842C28.7758 7.55051 28.66 7.55051 28.4863 7.66632C28.3705 7.72423 28.2547 7.84003 28.1968 8.01374L26.7492 12.7618L26.2281 11.0247C26.1702 10.851 26.1123 10.7352 25.9386 10.6773C25.8228 10.6194 25.6491 10.5615 25.4753 10.6194L12.0417 14.441L11.4048 3.38145ZM25.2437 11.8354C25.2437 11.8354 26.0544 14.6148 26.0544 14.6727L24.0857 21.0421C24.0277 21.2158 24.0278 21.3316 24.1436 21.5053C24.2015 21.6211 24.3173 21.7369 24.491 21.7948L28.4863 23.0108V23.0687L29.4128 26.3113L5.7302 33.1439L1.61904 18.6101L25.2437 11.8354Z" />
<path d="M12.2155 21.6211L15.0527 23.0686L13.6051 25.9059C13.4893 26.1954 13.5472 26.5429 13.8368 26.6587C13.8947 26.7166 14.0105 26.7166 14.1263 26.7166C14.3579 26.7166 14.5316 26.6008 14.6474 26.4271L16.095 23.5898L18.9323 25.0374C18.9902 25.0953 19.106 25.0953 19.2218 25.0953C19.4534 25.0953 19.6271 24.9795 19.7429 24.8058C19.8587 24.5162 19.8008 24.1688 19.5113 24.053L16.674 22.6054L18.1216 19.7681C18.2374 19.4786 18.1795 19.1312 17.89 19.0154C17.6005 18.8996 17.2531 18.9575 17.1373 19.247L15.6897 22.0843L12.7366 20.5788C12.4471 20.463 12.0997 20.5209 11.9838 20.8104C11.8101 21.1578 11.9259 21.5052 12.2155 21.6211Z" />
<path d="M34.3346 19.9421C34.4504 19.9421 34.5083 19.9421 34.6241 19.8842L36.8244 18.7261L37.9825 20.9264C38.0983 21.1001 38.272 21.216 38.5037 21.216C38.6195 21.216 38.6774 21.216 38.7932 21.158C39.0827 20.9843 39.1985 20.6369 39.0248 20.4053L37.8667 18.205L40.0671 17.0469C40.3566 16.8732 40.4724 16.5258 40.2987 16.2941C40.125 16.0046 39.7775 15.8888 39.5459 16.0625L37.3456 17.2206L36.1875 15.0203C36.0138 14.7307 35.6664 14.6149 35.4348 14.7886C35.1452 14.9624 35.0294 15.3098 35.2031 15.5414L36.3612 17.7417L34.1609 18.8998C33.8714 19.0735 33.7556 19.4209 33.9293 19.6526C33.9293 19.8263 34.1609 19.9421 34.3346 19.9421Z" />
<path d="M22.5223 8.24516L23.6804 6.97128C23.912 6.73967 23.8541 6.39224 23.6225 6.16063C23.3909 5.92901 23.0434 5.98692 22.8118 6.21853L21.6538 7.49241L20.3799 6.33434C20.1483 6.10273 19.8008 6.16063 19.5692 6.39224C19.3376 6.62386 19.3955 6.97128 19.6271 7.20289L20.901 8.36097L19.7429 9.63485C19.5113 9.86646 19.5692 10.2139 19.8008 10.4455C19.9167 10.5613 20.0325 10.5613 20.2062 10.5613C20.3799 10.5613 20.5536 10.5034 20.6694 10.3876L21.8275 9.11372L23.1014 10.2718C23.2172 10.3876 23.333 10.3876 23.5067 10.3876C23.6804 10.3876 23.8541 10.3297 23.9699 10.2139C24.2015 9.98227 24.1436 9.63485 23.912 9.40323L22.5223 8.24516Z" />
<path fill-rule="evenodd" clip-rule="evenodd" d="M27.2613 37.6886C27.6459 37.5348 28.0824 37.7218 28.2362 38.1064L30.4911 43.7436C30.5265 43.8322 30.5447 43.9267 30.5447 44.0221V49.0956C30.5447 49.3265 30.4383 49.5446 30.2563 49.6867C30.0742 49.8289 29.8369 49.8792 29.6128 49.8232L27.5398 49.3049L25.4669 49.8232C25.3475 49.853 25.2225 49.853 25.1031 49.8232L23.0301 49.3049L20.9572 49.8232C20.7331 49.8792 20.4957 49.8289 20.3137 49.6867C20.1317 49.5446 20.0252 49.3265 20.0252 49.0956V44.0221C20.0252 43.9057 20.0524 43.7909 20.1044 43.6867L22.923 38.0496C23.1083 37.6791 23.5588 37.5289 23.9292 37.7141C24.2997 37.8994 24.4499 38.3499 24.2647 38.7204L21.5252 44.1992V48.135L22.8482 47.8043C22.9676 47.7744 23.0926 47.7744 23.212 47.8043L25.285 48.3225L27.3579 47.8043C27.4774 47.7744 27.6023 47.7744 27.7217 47.8043L29.0447 48.135V44.1666L26.8435 38.6635C26.6897 38.2789 26.8767 37.8424 27.2613 37.6886Z" />
<path fill-rule="evenodd" clip-rule="evenodd" d="M15.2541 37.7732C15.3922 37.6477 15.5721 37.5781 15.7587 37.5781H34.925C35.1116 37.5781 35.2915 37.6477 35.4295 37.7732L41.6304 43.4103C41.9369 43.689 41.9595 44.1633 41.6808 44.4698C41.4022 44.7763 40.9279 44.7989 40.6214 44.5202L34.6351 39.0781H16.0486L10.0623 44.5202C9.75578 44.7989 9.28145 44.7763 9.00282 44.4698C8.72419 44.1633 8.74678 43.689 9.05327 43.4103L15.2541 37.7732Z" />
<path fill-rule="evenodd" clip-rule="evenodd" d="M10.2509 44.7153V69.1463H40.319V44.7153H10.2509ZM41.819 70.6463V44.529C41.819 44.1895 41.7026 43.8483 41.4443 43.59C41.1861 43.3318 40.8449 43.2153 40.5053 43.2153H10.0646C9.72508 43.2153 9.38384 43.3318 9.12561 43.59C8.86737 43.8483 8.75092 44.1895 8.75092 44.529V69.3326C8.75092 69.6721 8.86737 70.0134 9.12561 70.2716C9.38384 70.5298 9.72508 70.6463 10.0646 70.6463H41.819Z" />
</svg>
