<svg   viewBox="0 0 50 55"  xmlns="http://www.w3.org/2000/svg">
<path d="M5.71253 0.478264C5.76254 0.0586979 6.33029 -0.152305 6.64497 0.126389C7.33774 0.776473 7.83597 1.65951 7.95062 2.61024C8.06283 3.42986 7.87744 4.26411 7.53532 5.00994C9.3758 6.26254 11.176 7.58039 12.8555 9.0446C13.813 9.87276 14.7387 10.7369 15.6297 11.6358C18.1519 8.20181 20.6705 4.76601 23.1989 1.33691C23.5154 1.66805 23.8874 1.96138 24.0935 2.38034C24.5046 3.18349 24.4716 4.13056 24.3003 4.99287C24.185 5.62587 23.9027 6.20827 23.6557 6.79737C23.9264 7.06874 24.2058 7.33341 24.4668 7.61454C24.7845 7.96032 24.8668 8.4927 24.6826 8.92203C24.5412 9.28122 24.2082 9.50259 23.9594 9.78067C23.5435 10.2374 22.7873 10.2667 22.3073 9.89288C22.2153 10.1069 22.1189 10.3192 22.0299 10.535C22.2976 10.8143 22.5891 11.0723 22.8422 11.3656C23.244 11.848 23.1709 12.6262 22.7086 13.0433C22.4165 13.3073 22.1805 13.6684 21.7829 13.7806C21.417 13.9086 21.0127 13.8233 20.6876 13.6281C20.376 14.3392 20.0595 15.0484 19.7534 15.7619C20.7187 16.7224 21.6792 17.6872 22.6427 18.6489C22.9336 18.9483 23.2434 19.2294 23.5166 19.5453C23.6679 19.7106 23.7118 19.9686 23.6136 20.171C23.5002 20.4387 23.1642 20.5906 22.8909 20.4857C22.6751 20.4144 22.5507 20.2125 22.3976 20.0594C19.6936 17.3548 16.9884 14.6496 14.2831 11.9468C12.8262 10.5259 11.2846 9.19157 9.66121 7.96398C8.70072 7.23096 7.69998 6.55221 6.71083 5.85883C6.55715 5.74784 6.38396 5.65454 6.2687 5.50025C6.12661 5.29229 6.15771 5.00262 6.30651 4.80626C6.84743 3.94517 7.00172 2.79929 6.51934 1.87783C6.28516 2.39619 5.94061 2.86089 5.54117 3.2646C5.30638 3.5067 4.8612 3.47621 4.66605 3.19995C4.48737 2.97614 4.51786 2.63098 4.7185 2.43034C5.23869 1.90467 5.64606 1.22775 5.71253 0.478264ZM16.4676 12.4743C17.2664 13.272 18.0635 14.0709 18.8624 14.8685C19.1752 14.1636 19.4814 13.4561 19.793 12.7506C19.871 12.5835 19.9235 12.4036 20.0272 12.2499C20.2065 12.0188 20.573 11.9572 20.8108 12.1346C21.0145 12.2944 21.1669 12.5091 21.3712 12.6682C21.6109 12.5566 21.7634 12.3048 21.9585 12.1273C21.6054 11.7498 21.2231 11.401 20.8706 11.0235C20.6949 10.8284 20.7236 10.5399 20.8389 10.3216C21.0938 9.75933 21.3322 9.18913 21.5883 8.62748C21.7268 8.30366 22.1884 8.19084 22.4598 8.41586C22.6763 8.59821 22.8562 8.82018 23.0721 9.00435C23.2629 8.82567 23.4441 8.63784 23.6295 8.45367C23.2306 8.02191 22.8031 7.61759 22.3884 7.20047C22.3445 7.14558 22.2457 7.09374 22.2915 7.00959C22.608 6.17899 23.0818 5.3917 23.1977 4.49646C23.2593 4.108 23.269 3.70856 23.1953 3.32131C20.9462 6.36743 18.7069 9.42148 16.4676 12.4743Z" />
<path d="M2.60361 2.22353C2.80729 2.15827 3.04391 2.20889 3.19088 2.36806C3.72875 2.90654 4.26724 3.44502 4.80572 3.9829C5.02221 4.19085 5.01245 4.56773 4.80694 4.77995C4.5996 5.01718 4.19772 5.02998 3.97818 4.80191C3.43054 4.25366 2.87986 3.70847 2.33589 3.15657C2.06025 2.86629 2.22002 2.3272 2.60361 2.22353Z" />
<path d="M2.31576 4.84325C2.44627 4.72799 2.57372 4.5798 2.76033 4.56821C3.10733 4.50967 3.45554 4.81824 3.42871 5.17073C3.42932 5.46406 3.1738 5.64823 2.97622 5.82325C2.64812 6.11414 2.27125 6.341 1.88766 6.55017C2.83534 7.02035 3.99037 6.85326 4.8606 6.29099C5.10637 6.11292 5.47593 6.18793 5.64973 6.43186C6.32481 7.38321 6.97368 8.35345 7.67133 9.28833C8.93369 10.9934 10.3125 12.6119 11.7871 14.1365C13.627 15.9752 15.4662 17.815 17.3061 19.6543C17.558 19.8744 17.572 20.3032 17.3201 20.5288C17.1122 20.7288 16.7505 20.7422 16.5401 20.5392C16.2718 20.2842 16.0163 20.0153 15.7529 19.7561C15.0711 20.0507 14.3935 20.3562 13.7099 20.6477C13.3312 20.8118 12.8689 20.458 12.9238 20.0507C12.9348 19.8043 13.1251 19.6128 13.3464 19.5317C13.852 19.311 14.3563 19.0871 14.8625 18.8688C14.0691 18.0693 13.2708 17.2759 12.475 16.4795C10.6278 17.8425 8.78062 19.2055 6.93038 20.5654C6.66876 20.7788 6.23212 20.6959 6.07417 20.3965C5.91744 20.1458 5.9955 19.7872 6.24005 19.6226C8.03906 18.2956 9.83929 16.9704 11.6371 15.6422C9.92954 13.959 8.35129 12.1454 6.91208 10.2281C6.24859 9.35419 5.63265 8.44554 5.00147 7.54786C4.25138 7.9101 3.397 8.0772 2.56763 7.96316C1.62787 7.83814 0.762517 7.34052 0.117922 6.65628C-0.154064 6.32819 0.0740142 5.76531 0.500288 5.72812C1.18818 5.66286 1.81509 5.3055 2.31576 4.84325Z" />
<path d="M25.4437 12.6146C25.4413 12.206 25.8364 11.8615 26.2395 11.9066C26.5951 11.9359 26.9 12.2493 26.9018 12.6091C26.911 13.2537 26.8939 13.8983 26.9104 14.5429C28.1788 14.5368 29.4473 14.5429 30.7157 14.5399C30.7188 13.8794 30.7066 13.2184 30.7212 12.5585C30.7487 12.0969 31.289 11.7694 31.7116 11.9554C32.0037 12.0585 32.1927 12.367 32.1793 12.6726C32.1793 13.2952 32.1781 13.9172 32.1793 14.5399C35.8902 14.5423 39.6016 14.5374 43.3125 14.5429C43.7125 14.5319 44.0644 14.8924 44.0473 15.2912C44.0473 16.1675 44.0497 17.0445 44.0467 17.9208C44.0504 18.2233 43.8418 18.505 43.557 18.6014C42.5532 18.9831 41.5464 19.3576 40.5414 19.7369C40.5432 20.2491 40.5377 20.7608 40.5444 21.273C40.0572 21.2883 39.5699 21.2718 39.0833 21.2822C39.0698 20.6071 39.0814 19.9314 39.0772 19.2557C39.0656 18.9526 39.2546 18.6508 39.5449 18.5489C40.5554 18.1678 41.5653 17.7854 42.5788 17.4104C42.591 16.942 42.5813 16.473 42.5843 16.0047C36.8708 16.0047 31.1566 16.0035 25.4431 16.0047C25.4388 14.8747 25.4376 13.7446 25.4437 12.6146Z" />
<path d="M8.71357 22.5276C8.93067 22.4196 9.17948 22.4599 9.41304 22.4532C22.4623 22.4538 35.5121 22.4532 48.5613 22.4532C48.9754 22.4282 49.3493 22.8044 49.323 23.2179C49.3224 27.1891 49.3255 31.1598 49.3218 35.131C48.8346 35.1304 48.3479 35.1292 47.8619 35.1316C47.8558 34.0309 47.8613 32.9301 47.8588 31.8294C45.7092 31.83 43.5595 31.8294 41.4092 31.8294C41.4123 32.4904 41.4092 33.1515 41.411 33.8126C40.9213 33.8058 40.4323 33.8211 39.9432 33.804C39.9505 33.146 39.9456 32.4886 39.9456 31.8306C37.7966 31.8282 35.6475 31.8306 33.4978 31.8294C33.4972 32.2691 33.4984 32.7088 33.4972 33.1491C33.0094 33.1478 32.5221 33.1484 32.0348 33.1484C32.0336 32.7088 32.0348 32.2691 32.0342 31.8294C29.884 31.8294 27.7343 31.83 25.5846 31.8294C25.5858 32.2691 25.5852 32.7088 25.5846 33.1484C25.0968 33.1478 24.6095 33.1484 24.1216 33.1484C24.1204 32.7088 24.1235 32.2691 24.1198 31.83C21.9708 31.8294 19.8223 31.83 17.6732 31.8294C17.672 32.4898 17.6732 33.1503 17.6726 33.8113C17.1848 33.8113 16.6963 33.8126 16.2084 33.8107C16.209 33.1503 16.2084 32.4904 16.209 31.83C14.0594 31.8288 11.9091 31.83 9.75882 31.8294C9.76126 32.9295 9.75943 34.0297 9.76004 35.1298C9.27217 35.1304 8.78431 35.1304 8.29644 35.1298C8.29644 31.1604 8.29583 27.1904 8.29644 23.2203C8.28668 22.9356 8.44829 22.6434 8.71357 22.5276ZM9.75882 23.9174C9.76187 26.0664 9.75882 28.2161 9.76065 30.3652C11.9097 30.367 14.0594 30.3658 16.2084 30.3658C16.2096 28.2161 16.2084 26.0671 16.209 23.918C14.0588 23.9162 11.9091 23.9168 9.75882 23.9174ZM17.6726 23.918C17.6732 26.0671 17.672 28.2161 17.6732 30.3658C19.8223 30.3664 21.972 30.3652 24.1216 30.3658C24.1229 28.2179 24.1192 26.0701 24.1235 23.9223C21.9732 23.9107 19.8229 23.9198 17.6726 23.918ZM25.5846 23.9162C25.5858 26.0658 25.5846 28.2149 25.5852 30.3639C27.7349 30.3682 29.8846 30.3652 32.0342 30.3658C32.0336 28.2161 32.0355 26.0664 32.033 23.9162C29.8833 23.9174 27.7343 23.918 25.5846 23.9162ZM33.4991 23.9162C33.496 26.0658 33.4984 28.2161 33.4978 30.3658C35.6475 30.3664 37.7972 30.3646 39.9468 30.367C39.9456 28.2173 39.948 26.0677 39.9456 23.918C37.7966 23.9156 35.6481 23.9186 33.4991 23.9162ZM41.4092 23.918C41.4129 26.0671 41.4086 28.2161 41.411 30.3652C43.5601 30.3664 45.7098 30.3658 47.8588 30.3658C47.86 28.2161 47.8588 26.0671 47.8594 23.918C45.7092 23.9168 43.5589 23.9162 41.4092 23.918Z" />
<path d="M24.1027 34.9014C25.5651 34.7276 27.0208 34.4604 28.4972 34.4397C29.6851 34.4068 30.8664 34.5538 32.0403 34.7172C37.3258 35.4063 42.6118 36.096 47.8978 36.7851C48.3009 36.8449 48.6888 37.0315 48.9748 37.3242C49.3901 37.7267 49.5883 38.3219 49.5609 38.8927C49.5499 39.2257 49.4279 39.5391 49.3419 39.8569C48.4729 42.8512 47.6021 45.8448 46.7331 48.8391C46.6696 49.1001 46.5818 49.3922 46.3257 49.527C45.9537 49.7709 45.3969 49.5685 45.2621 49.1471C45.1597 48.8824 45.2756 48.6086 45.35 48.3543C46.2574 45.221 47.1727 42.0901 48.0771 38.9568C48.182 38.6524 47.9954 38.2469 47.649 38.2304C42.1587 37.5127 36.6677 36.7979 31.1774 36.0814C30.6347 36.0064 30.0895 35.9387 29.5418 35.9222C29.54 38.0524 29.5437 40.1831 29.54 42.3133C29.5473 42.6591 29.2711 42.9823 28.9283 43.0286C28.5039 43.1134 28.0715 42.7493 28.0788 42.3176C28.0764 40.1844 28.0776 38.0505 28.0782 35.9167C26.7854 35.9832 25.509 36.2113 24.2247 36.3613C19.5064 36.9778 14.7881 37.5926 10.0692 38.2079C9.80455 38.225 9.56489 38.414 9.48561 38.6671C9.41121 38.8549 9.50634 39.0488 9.55452 39.2306C10.4943 42.3791 11.4261 45.5302 12.3659 48.6793C12.5037 49.0806 12.2189 49.5612 11.7969 49.6209C11.4285 49.6923 11.0352 49.4416 10.9559 49.0733C9.98994 45.8271 9.02458 42.581 8.06043 39.3342C7.7982 38.4347 8.28912 37.4297 9.10446 37.0035C9.35145 36.8687 9.62343 36.7815 9.90335 36.7534C14.6363 36.1363 19.3698 35.5185 24.1027 34.9014Z" />
<path d="M22.6062 39.051C22.8849 38.962 23.2026 39.0224 23.4362 39.1974C23.796 39.4535 24.0033 39.8694 24.1113 40.2884C24.2747 40.9757 24.2076 41.7404 23.8332 42.3496C23.6362 42.657 23.3294 42.9332 22.9507 42.9637C22.5696 42.9991 22.2141 42.7686 22 42.4673C21.4737 41.7227 21.431 40.6964 21.786 39.87C21.9512 39.5145 22.2208 39.176 22.6062 39.051Z" />
<path d="M34.4961 39.0442C34.776 38.9625 35.0913 39.0296 35.3206 39.2083C35.6585 39.4638 35.8615 39.8578 35.9701 40.259C36.1103 40.803 36.0914 41.3897 35.9079 41.9208C35.7768 42.2947 35.5401 42.6465 35.1938 42.8502C34.8827 43.0295 34.4742 42.996 34.1881 42.7825C33.7899 42.4959 33.5716 42.0202 33.4801 41.55C33.3545 40.8859 33.4411 40.1602 33.8143 39.5864C33.9826 39.3473 34.2052 39.1217 34.4961 39.0442Z" />
<path d="M19.1386 49.737C21.9658 49.5553 24.8229 49.8608 27.5482 50.6347C28.9057 51.0292 30.2461 51.4793 31.6048 51.8708C36.4951 53.2429 41.8299 53.0142 46.5659 51.1652C47.377 50.8408 48.1874 50.5145 48.9991 50.1925C49.3961 50.0267 49.8895 50.3017 49.9645 50.7231C50.0529 51.0817 49.8163 51.4689 49.4687 51.5781C48.2533 52.0452 47.0629 52.5819 45.8237 52.9862C41.3726 54.4413 36.5152 54.6022 31.9713 53.4808C30.1943 53.0362 28.4733 52.3965 26.7054 51.922C22.0121 50.6767 16.9347 50.9481 12.3993 52.6825C11.2528 53.1313 10.1161 53.6052 8.97206 54.0607C8.73911 54.1498 8.50249 54.2931 8.2427 54.2376C7.86582 54.1766 7.58164 53.7857 7.64628 53.4076C7.678 53.1557 7.85668 52.9319 8.09146 52.8392C9.20746 52.3873 10.3247 51.9373 11.4407 51.4848C13.8928 50.5005 16.5017 49.9077 19.1386 49.737Z" />
</svg>
