<svg  viewBox="0 0 73 80"  xmlns="http://www.w3.org/2000/svg">
<path d="M44.7874 0.908586C44.7168 0.482417 45.0467 0.0241582 45.4909 0.00618721C45.8618 -0.046442 46.229 0.24366 46.279 0.610781C46.4189 1.34887 46.5447 2.08953 46.677 2.82891C50.4663 1.97786 54.244 1.07546 58.0295 0.205151C58.2849 0.148671 58.5955 0.101177 58.8073 0.295006C59.0666 0.492686 59.0885 0.841836 59.1578 1.13451C59.2707 1.79173 59.4248 2.44253 59.5262 3.10232C59.5865 3.45276 59.3914 3.83143 59.0589 3.96621C57.3029 4.75822 55.5264 5.50658 53.7729 6.30629C53.8486 6.73374 53.9269 7.16119 54.0014 7.58993C53.5149 7.72471 53.0233 7.84665 52.5239 7.91597C52.3879 7.25361 52.2248 6.59511 52.1491 5.92248C52.0862 5.53225 52.3968 5.22418 52.7319 5.0894C54.4584 4.32435 56.1951 3.57727 57.9178 2.80067C57.8613 2.48618 57.7945 2.17425 57.7085 1.86618C48.5408 3.96621 39.3846 6.12016 30.2194 8.2356C29.9357 8.29978 29.6533 8.3768 29.3748 8.46408C29.4351 8.77216 29.4967 9.07895 29.5596 9.38702C31.4029 9.32797 33.2462 9.24325 35.0908 9.18036C35.4169 9.15083 35.8071 9.23812 35.9329 9.58085C36.1396 10.265 36.2243 10.98 36.3616 11.6796C35.8828 11.8118 35.3976 11.9184 34.9175 12.0442C34.7802 11.6193 34.7173 11.1751 34.6056 10.7438C32.7957 10.8131 30.9857 10.8812 29.1758 10.9582C28.9473 10.9492 28.688 10.998 28.4942 10.8491C28.1951 10.663 28.1656 10.2843 28.0988 9.97364C27.9846 9.30487 27.8254 8.64508 27.7369 7.97245C27.6521 7.54628 27.9987 7.14964 28.4082 7.08289C32.1359 6.21387 35.8661 5.35639 39.5913 4.48352L39.649 4.38211C39.5669 3.64659 39.3628 2.9316 39.2832 2.19608C39.2254 1.71086 39.7106 1.25003 40.1933 1.34631C40.4898 1.39123 40.7234 1.64154 40.7722 1.93421C40.9031 2.5003 40.9609 3.0805 41.1047 3.64402C42.4409 3.35135 43.7657 3.00348 45.0955 2.68386C44.9979 2.09082 44.8606 1.50548 44.7874 0.908586Z" />
<path d="M65.4309 7.12252C65.8122 6.98774 66.2897 7.22265 66.3397 7.64368C66.7608 10.0685 67.1536 12.4984 67.5695 14.9245C67.9687 16.4315 68.1664 17.9808 68.4603 19.5096C67.9764 19.6444 67.4886 19.7599 67.0021 19.8845C66.739 18.8999 66.6607 17.8768 66.4193 16.8872C64.2063 17.4468 61.9831 17.9706 59.7778 18.5559L59.7085 18.6419C59.7611 19.2272 59.9254 19.7972 59.9832 20.3838C59.5172 20.4839 59.0628 20.6328 58.5917 20.7111L58.5044 20.6457C58.3311 19.9628 58.2926 19.2529 58.0949 18.5764C55.9615 19.0103 53.8345 19.4673 51.7037 19.914C51.7563 20.2888 51.8167 20.6623 51.8821 21.0359C51.3866 21.154 50.8976 21.3067 50.3892 21.3542C50.3302 20.9999 50.2635 20.6469 50.1993 20.2927C48.0196 20.7355 45.8708 21.3221 43.6951 21.7842C43.7028 22.1013 43.749 22.4158 43.8042 22.7277C43.3279 22.8625 42.8453 22.969 42.3639 23.082C42.2625 22.7123 42.1688 22.3401 42.0045 21.9935C39.8891 22.4954 37.7685 22.9716 35.6608 23.5005C35.7481 24.028 35.8418 24.5556 35.9368 25.0832C35.4541 25.2501 34.9561 25.372 34.4516 25.4503C34.3579 24.933 34.2513 24.417 34.1807 23.8946C33.9843 23.8355 33.7828 23.7315 33.5774 23.8111C31.512 24.3169 29.4544 24.8521 27.3864 25.3463C27.5174 26.3591 27.7561 27.354 27.8896 28.3655C27.4108 28.4977 26.9269 28.6119 26.4468 28.7364C26.1785 27.6235 26.0348 26.4836 25.8217 25.3592C25.728 25.3412 25.5393 25.3078 25.4456 25.2899C24.986 22.7136 24.5688 20.1284 24.1247 17.5482C24.0836 17.2171 23.9694 16.8474 24.144 16.5367C24.3006 16.2453 24.6305 16.1362 24.9308 16.0592C27.6868 15.3519 30.4338 14.6049 33.1923 13.9014C33.5505 13.7974 33.8521 14.1864 34.2103 14.0503C36.5234 13.4457 38.8352 12.8334 41.1483 12.2276C41.5745 12.0453 41.9493 12.51 42.3716 12.3328C44.1033 11.8784 45.831 11.4137 47.5652 10.9696C48.2417 10.8412 48.8399 10.4703 49.5241 10.3714C51.9899 9.86437 54.4494 9.3291 56.9153 8.82848C57.2529 8.7245 57.5442 8.96326 57.8177 9.12115C60.3554 8.45366 62.8919 7.7836 65.4309 7.12252ZM63.1384 9.30728C61.4196 9.75655 59.7008 10.2045 57.9845 10.6628C58.2977 12.6987 58.6507 14.7268 59.0038 16.7562C59.2784 16.8217 59.539 17.0361 59.8317 16.9488C61.9099 16.4379 63.983 15.9013 66.0663 15.4084C66.033 14.8603 65.9187 14.3225 65.8289 13.7833C65.5375 12.1416 65.2795 10.4946 64.9906 8.85287C64.3617 8.95556 63.7519 9.14682 63.1384 9.30728ZM50.3649 11.7462C50.3636 12.2738 50.4894 12.7898 50.5715 13.3084C50.8488 15.0002 51.1556 16.6882 51.4239 18.3813C53.4559 18.0065 55.4763 17.5598 57.4955 17.1182C57.1515 14.9168 56.7574 12.7243 56.3915 10.5267C54.3711 10.8669 52.3815 11.3804 50.3649 11.7462ZM42.5257 13.8757C42.2446 13.9001 42.3716 14.2082 42.3883 14.3815C42.7298 16.348 43.0571 18.3159 43.3742 20.285C45.5563 19.8023 47.7257 19.2657 49.9015 18.76C49.8681 18.1092 49.7141 17.4738 49.6165 16.8307C49.3431 15.2955 49.1172 13.7512 48.8232 12.2186C46.7232 12.768 44.6244 13.3225 42.5257 13.8757ZM34.2475 15.6459C34.5761 17.7562 34.974 19.8549 35.2936 21.9665C37.4887 21.5147 39.6619 20.9602 41.8428 20.4454C41.5334 18.4262 41.1791 16.4148 40.8441 14.4008C40.6952 14.3879 40.5476 14.3764 40.4012 14.3635C40.2755 14.2724 40.1689 14.0324 39.9815 14.1184C38.0727 14.6344 36.1486 15.0991 34.2475 15.6459ZM25.6805 17.4687C26.0104 19.6213 26.3929 21.765 26.7587 23.9112C29.1091 23.3747 31.4402 22.7521 33.7841 22.1809C33.4683 20.1386 33.0896 18.1066 32.761 16.0669C32.6044 16.0823 32.4491 16.1003 32.2938 16.1195C32.2399 16.0015 32.1872 15.8846 32.1333 15.7665C29.9781 16.3159 27.8229 16.873 25.6805 17.4687Z" />
<path d="M49.2032 23.3053C55.2388 22.8304 61.2745 22.367 67.3089 21.8972C67.8801 21.8471 68.4834 22.0166 68.8903 22.435C69.4308 22.9254 69.6361 23.6892 69.5514 24.399C69.0624 30.2639 68.5771 36.1276 68.0804 41.9913C68.1214 42.5625 67.4745 42.9976 66.9636 42.7358C66.6388 42.5843 66.4964 42.2056 66.5477 41.8655C67.0355 36.0005 67.5258 30.1356 68.0149 24.2706C68.0996 23.892 67.9019 23.3631 67.436 23.4388C61.6172 23.874 55.7998 24.3438 49.9811 24.7867C49.4753 24.8277 48.9618 24.8431 48.4766 24.9985C48.931 27.155 49.3996 29.3089 49.8347 31.468C49.9746 31.9827 49.4779 32.4962 48.9606 32.3871C48.5768 32.337 48.3444 31.9802 48.2982 31.622C47.8643 29.5143 47.4035 27.4117 46.9812 25.3014C46.6115 25.3592 46.2495 25.4606 45.8965 25.5838C40.3512 27.5285 34.802 29.4668 29.2567 31.4128C29.1206 32.1907 28.8934 32.9686 28.8947 33.7593C29.2426 34.1187 29.6071 34.4679 30.0025 34.7747C30.5917 35.0198 31.4196 34.645 31.8728 35.1931C32.0923 35.8542 32.1885 36.5564 32.3015 37.2431C32.3939 37.8259 31.4915 38.1712 31.1732 37.6744C30.9665 37.1853 30.9408 36.6436 30.8138 36.1327C30.6122 36.1225 30.412 36.1122 30.2117 36.1007C30.0384 36.6398 29.9126 37.1918 29.7907 37.7437C30.0988 38.0967 30.367 38.4972 30.7393 38.7886C31.2605 38.8271 31.7932 38.9054 32.313 38.8374C32.9048 38.4433 33.3489 37.858 33.9587 37.4883C34.4696 37.2649 34.9959 37.8888 34.7006 38.3599C34.3463 38.7873 33.8752 39.098 33.476 39.4805C33.2052 39.7 32.9741 39.9927 32.6417 40.1197C32.014 40.1736 31.385 40.0543 30.7547 40.0774C30.6559 40.2481 30.5545 40.4175 30.4505 40.5857C31.3452 41.6177 32.236 42.6536 33.1538 43.6651C33.476 43.9411 33.8817 44.3981 34.3476 44.1966C35.6595 43.7203 37.0201 43.3917 38.3872 43.1196C38.6093 42.3879 38.617 41.5869 39.0059 40.913C40.4552 38.0723 41.889 35.2239 43.3138 32.3717C43.8645 31.314 44.3446 30.219 44.9415 29.187C45.4318 29.4347 45.9286 29.6696 46.41 29.9353C44.5756 33.69 42.6425 37.3971 40.7876 41.1428C40.4834 41.6755 40.2652 42.2544 40.1972 42.868C43.2894 42.5984 46.4318 42.8372 49.4227 43.6831C51.7807 44.3557 54.09 45.2504 56.534 45.5791C60.7598 46.2119 65.1614 45.7061 69.1073 44.0567C69.7979 43.7948 70.4679 43.4777 71.1714 43.2505C71.6489 43.1106 72.1623 43.5458 72.1033 44.0425C72.1059 44.4084 71.8004 44.6651 71.4769 44.7665C70.0803 45.3031 68.7158 45.9282 67.2755 46.339C62.5312 47.76 57.3722 47.724 52.6382 46.2761C51.4251 45.9089 50.2185 45.5174 49.0004 45.1619C46.0146 44.3391 42.862 44.0823 39.789 44.4918C38.0792 51.8933 36.3283 59.2845 34.612 66.6834C34.5145 67.003 34.707 67.3406 34.9638 67.5254C40.2267 71.2197 45.5101 74.8897 50.7641 78.5942C50.6049 79.1167 50.1659 79.5416 49.8591 79.9998C44.8003 76.4891 39.78 72.9218 34.7109 69.4278C34.259 70.2005 33.5402 70.7628 32.7392 71.1389C32.7225 71.7358 32.7174 72.3327 32.7443 72.9295C33.0563 72.6703 33.381 72.3609 33.8085 72.3327C34.2603 72.3031 34.7199 72.2903 35.1704 72.3493C35.5876 72.4161 35.9059 72.7229 36.1563 73.0425C37.0458 73.1247 38.1331 72.8166 38.8198 73.5598C39.2832 73.986 39.3063 74.6496 39.2781 75.2362C39.2755 75.7856 39.2729 76.335 39.2781 76.8857C33.7417 78.8843 27.7048 79.6314 21.8771 78.6533C19.6923 78.272 17.5255 77.7201 15.4653 76.8896C15.4666 76.122 15.4512 75.3556 15.4679 74.5893C15.4807 73.7934 16.1944 73.1028 16.9787 73.0669C17.5717 73.0361 18.1661 73.0682 18.7591 73.0489C19.0197 72.6908 19.3573 72.3378 19.8181 72.271C20.6589 72.1709 21.6845 72.1324 22.2301 72.9116C22.1787 71.954 22.2724 70.99 22.1838 70.0375C21.5395 69.293 20.7436 68.5665 20.5459 67.5614C20.3791 67.0697 20.0273 66.5062 20.3367 65.9979C20.7616 65.3535 21.5472 65.1147 22.2044 64.781C22.2262 63.4049 22.2262 62.0289 22.2044 60.6528C21.6884 60.3101 21.2044 59.9173 20.6679 59.6067C19.9426 59.4205 19.1711 59.5001 18.4497 59.2819C17.0069 58.9199 15.7233 57.789 15.3664 56.3205C15.2907 56.0754 15.274 55.7737 15.0211 55.6364C14.3395 55.1537 13.6566 54.6711 12.966 54.2025C12.9262 54.3502 12.8852 54.4965 12.8441 54.6441C10.703 55.3732 8.30771 55.4502 6.19356 54.5838C6.23207 54.2141 6.07931 53.6634 6.52089 53.4863C7.04975 53.4298 7.58374 53.4824 8.11517 53.449C8.10361 52.5556 8.13827 51.6635 8.09334 50.7714C5.93555 49.2926 3.80727 47.7715 1.65718 46.2825C1.1065 45.882 0.522441 45.5264 0 45.09C0.308073 44.6369 0.608445 44.1786 0.94861 43.7486C2.72517 44.9424 4.45936 46.2003 6.21923 47.4185C6.53372 47.1156 6.87645 46.751 7.35397 46.7818C8.51309 46.7651 9.67222 46.7716 10.8313 46.778C11.4167 46.7549 11.9918 47.199 12.0508 47.7933C12.0752 48.2272 12.124 48.706 11.8903 49.0962C11.744 49.3799 11.4282 49.4941 11.1856 49.6739C11.0688 50.0025 11.1471 50.3722 11.1214 50.7175C13.052 49.3375 14.9197 47.8678 16.8285 46.4571C20.3097 43.8577 23.7717 41.2301 27.2606 38.641C27.6059 39.0671 27.9089 39.5254 28.2375 39.9644C27.7561 40.4085 27.2029 40.7641 26.6881 41.1659C21.9669 44.7293 17.211 48.2464 12.5078 51.8304C13.4166 52.4298 14.292 53.0806 15.197 53.6865C15.2163 52.6583 15.4974 51.6057 16.1893 50.8214C16.9479 49.91 18.1032 49.3324 19.2944 49.3247C23.4906 49.3221 27.6881 49.326 31.8856 49.3234C33.2655 49.3119 34.6172 50.0512 35.363 51.2091C35.7442 51.7521 35.9137 52.4003 36.0382 53.0421C36.4579 51.5557 36.7442 50.032 37.1241 48.5353C37.3911 47.2863 37.7364 46.054 37.9649 44.7973C35.5761 45.2119 33.3579 46.2324 31.1244 47.1323C30.7355 47.2799 30.2952 47.552 29.8844 47.3209C29.3581 47.0539 29.3697 46.1747 29.9306 45.9539C30.7932 45.5778 31.6738 45.2453 32.5505 44.9013C31.5403 43.7319 30.5095 42.5805 29.498 41.4136C29.2914 41.189 29.1527 40.8925 29.1797 40.5818C29.1874 40.1813 29.4672 39.8656 29.6649 39.5408C29.3016 39.0286 28.7035 38.6346 28.5892 37.9812C28.5006 37.1751 28.9987 36.4267 28.991 35.6334C28.525 35.0776 27.7407 34.6874 27.6547 33.8941C27.6483 32.8569 28.1066 31.8569 27.9923 30.8159C27.9435 30.5335 28.1001 30.2447 28.3402 30.0996C33.6313 28.2499 38.9225 26.3925 44.2137 24.5415C45.8233 23.9407 47.4921 23.4825 49.2032 23.3053ZM18.9632 51.0486C18.2161 51.1744 17.5448 51.6725 17.2085 52.3515C16.8876 52.9523 16.944 53.6557 16.9376 54.3142C16.9466 55.0061 16.867 55.7519 17.2239 56.3796C17.6796 57.2204 18.6243 57.694 19.5562 57.7595C22.9245 58.0676 26.3197 58.3551 29.6996 58.0368C30.5557 57.9623 31.4004 57.7942 32.2566 57.7236C33.3169 57.6093 34.2334 56.7095 34.3656 55.6518C34.4208 55.2076 34.3913 54.7596 34.399 54.3142C34.3913 53.7417 34.4503 53.1474 34.2398 52.6018C33.9022 51.6404 32.901 50.9755 31.8856 51.0088C28.0321 51.0114 24.1786 51.0101 20.3251 51.0088C19.8707 51.0153 19.4138 50.9793 18.9632 51.0486ZM11.1574 52.9613C11.1535 53.0871 11.1471 53.3412 11.1433 53.467C11.3589 53.4606 11.5746 53.4516 11.7902 53.4401C11.6144 53.2372 11.3961 53.0806 11.1574 52.9613ZM32.7533 59.3474C32.693 61.2202 32.7508 63.0943 32.7251 64.9684C32.7405 65.2829 32.6224 65.754 33.055 65.8272C33.6904 63.3202 34.2552 60.7927 34.8341 58.2717C34.2115 58.7517 33.5364 59.1869 32.7533 59.3474ZM23.9078 59.8108C23.8924 61.9159 23.9103 64.0237 23.8988 66.1301C23.9091 66.3227 23.8821 66.5293 23.9668 66.7116C24.4828 66.9388 25.0348 67.071 25.5906 67.1596C25.6112 67.3971 25.6304 67.6358 25.6484 67.8759C26.3518 67.8707 27.0604 67.899 27.7548 67.7693C27.8306 67.9824 27.905 68.1968 27.9782 68.4124C28.656 68.2597 29.3222 68.0427 29.9473 67.7359C30.0769 67.8861 30.2027 68.0389 30.3324 68.1903C30.6032 67.9734 31.1064 67.8463 31.0422 67.4112C31.0333 64.8041 31.0564 62.1983 31.0294 59.5912C28.6688 59.8968 26.2825 59.9122 23.9078 59.8108ZM25.2325 69.7538C25.5277 69.7513 25.8204 69.7025 26.1092 69.6383C25.8756 69.4291 25.4263 69.5369 25.2325 69.7538ZM23.9103 71.1568C23.8962 71.9168 23.9001 72.6767 23.9065 73.4366C25.7177 74.3236 27.8396 74.2787 29.7509 73.7639C30.1784 73.6304 30.6572 73.5726 31.0268 73.3095C31.0692 72.8012 31.0397 72.289 31.0256 71.7807C29.9922 71.9219 28.9923 72.4097 27.9307 72.212C27.2889 72.0669 26.6188 72.1812 25.9821 72.0053C25.2351 71.85 24.6728 71.2737 23.9103 71.1568ZM17.1918 74.8268C17.1815 75.1348 17.1828 75.4429 17.1956 75.7523C18.8156 76.3055 20.4805 76.7291 22.1697 77C27.33 77.8677 32.6583 77.2862 37.6337 75.7394C37.635 75.4352 37.6376 75.1323 37.6414 74.8293C37.2024 74.8139 36.7621 74.8139 36.3244 74.828C36.3167 75.0437 36.3141 75.2606 36.3129 75.4776C35.0613 75.5097 33.8072 75.4943 32.5557 75.4866C32.5505 75.2632 32.5454 75.0398 32.539 74.8178C31.8997 74.7549 31.3336 75.0861 30.7393 75.2529C29.2233 75.7253 27.6175 75.9538 26.0322 75.7805C24.9283 75.6714 23.8898 75.2683 22.8796 74.837C22.3315 74.6137 22.2801 75.5353 21.7436 75.4147C20.7179 75.4121 19.6923 75.4224 18.668 75.4044C18.6603 75.2106 18.6526 75.018 18.6449 74.8255C18.1596 74.8152 17.6757 74.8139 17.1918 74.8268Z" />
<path d="M54.2671 27.1474C55.0745 26.7328 55.9346 27.4516 56.1669 28.2128C56.5096 29.1409 56.3312 30.4771 55.3415 30.9264C54.4276 31.2358 53.624 30.3513 53.4751 29.517C53.2697 28.6813 53.4661 27.6018 54.2671 27.1474Z" />
</svg>
