<svg   viewBox="0 0 54 43"  xmlns="http://www.w3.org/2000/svg">
<path fill-rule="evenodd" clip-rule="evenodd" d="M35.3303 23.1293C35.3311 23.1294 35.3318 23.1295 35.3325 23.1296L51.633 25.2557C52.9944 25.3734 53.664 26.6532 53.3782 27.7965C53.3759 27.8057 53.3734 27.8148 53.3708 27.8239L50.5966 37.3723C50.481 37.77 50.0649 37.9988 49.6671 37.8832C49.2693 37.7677 49.0406 37.3515 49.1561 36.9538L51.9257 27.4213C51.9709 27.2282 51.9321 27.0613 51.86 26.9502C51.7928 26.8465 51.6808 26.7637 51.4963 26.7495C51.4831 26.7485 51.4699 26.7471 51.4568 26.7454L35.1342 24.6164L35.1299 24.6158C33.7792 24.4316 32.4266 24.4311 31.0056 24.6164L14.6987 26.7434C14.3361 26.8101 14.1493 27.1675 14.2113 27.4114L17.0469 36.9493C17.1649 37.3463 16.9387 37.7639 16.5417 37.8819C16.1447 38 15.7271 37.7738 15.6091 37.3768L12.7704 27.8284L12.7657 27.812C12.4458 26.6389 13.2869 25.4579 14.4627 25.2619C14.4715 25.2605 14.4802 25.2592 14.489 25.258L30.8116 23.129C32.3576 22.9273 33.843 22.9267 35.3303 23.1293Z" />
<path fill-rule="evenodd" clip-rule="evenodd" d="M18.1585 4.25977C18.1585 3.84555 18.4943 3.50977 18.9085 3.50977H47.2956C47.7099 3.50977 48.0456 3.84555 48.0456 4.25977V6.84041C48.0456 7.19194 47.8015 7.4963 47.4583 7.57255L42.2392 8.73236V10.1711H40.7392V8.13073C40.7392 7.77921 40.9833 7.47485 41.3265 7.39859L46.5456 6.23878V5.00977H19.6585V6.23878L24.8777 7.39859C25.2208 7.47485 25.465 7.77921 25.465 8.13073V10.1711H23.965V8.73236L18.7458 7.57255C18.4027 7.4963 18.1585 7.19194 18.1585 6.84041V4.25977Z" />
<path fill-rule="evenodd" clip-rule="evenodd" d="M30.5215 0.929199C30.9357 0.929199 31.2715 1.26499 31.2715 1.6792V3.50985H34.9328V1.6792C34.9328 1.26499 35.2686 0.929199 35.6828 0.929199C36.097 0.929199 36.4328 1.26499 36.4328 1.6792V4.25985C36.4328 4.67406 36.097 5.00984 35.6828 5.00984H30.5215C30.1073 5.00984 29.7715 4.67406 29.7715 4.25985V1.6792C29.7715 1.26499 30.1073 0.929199 30.5215 0.929199Z" />
<path fill-rule="evenodd" clip-rule="evenodd" d="M33.1021 23.5098C33.5164 23.5098 33.8521 23.8456 33.8521 24.2598V30.7114C33.8521 31.1256 33.5164 31.4614 33.1021 31.4614C32.6879 31.4614 32.3521 31.1256 32.3521 30.7114V24.2598C32.3521 23.8456 32.6879 23.5098 33.1021 23.5098Z" />
<path d="M38.9086 31.3563C39.6212 31.3563 40.1989 30.4898 40.1989 29.4208C40.1989 28.3519 39.6212 27.4854 38.9086 27.4854C38.196 27.4854 37.6183 28.3519 37.6183 29.4208C37.6183 30.4898 38.196 31.3563 38.9086 31.3563Z" />
<path d="M27.2957 31.3563C28.0083 31.3563 28.586 30.4898 28.586 29.4208C28.586 28.3519 28.0083 27.4854 27.2957 27.4854C26.583 27.4854 26.0053 28.3519 26.0053 29.4208C26.0053 30.4898 26.583 31.3563 27.2957 31.3563Z" />
<path fill-rule="evenodd" clip-rule="evenodd" d="M32.1037 40.4593C26.9167 38.8344 21.4198 39.0843 16.4204 41.1466L16.4155 41.1486L13.3832 42.3744C12.9992 42.5296 12.562 42.3442 12.4068 41.9602C12.2516 41.5761 12.437 41.139 12.821 40.9837L15.8509 39.7589C21.173 37.5642 27.0295 37.2982 32.551 39.0275C32.5514 39.0276 32.5518 39.0278 32.5521 39.0279L35.2582 39.8655C35.2584 39.8655 35.258 39.8654 35.2582 39.8655C40.1323 41.365 45.4431 41.2401 50.2501 39.4314L52.8236 38.4021C53.2082 38.2482 53.6447 38.4353 53.7985 38.8199C53.9523 39.2045 53.7653 39.6409 53.3807 39.7948L50.8 40.827L50.7858 40.8325C45.6595 42.7633 40.0049 42.8954 34.817 41.2991L32.1062 40.46L32.1037 40.4593Z" />
<path fill-rule="evenodd" clip-rule="evenodd" d="M36.2231 18.9937H45.4651V20.4937H36.2231V18.9937Z" />
<path fill-rule="evenodd" clip-rule="evenodd" d="M43.9651 19.7437C43.9651 19.3294 44.3008 18.9937 44.7151 18.9937H52.457C52.8712 18.9937 53.207 19.3294 53.207 19.7437V23.7195H51.707V20.4937H45.4651V22.4291H43.9651V19.7437Z" />
<path fill-rule="evenodd" clip-rule="evenodd" d="M28.4812 18.9937H36.9731C37.3873 18.9937 37.7231 19.3294 37.7231 19.7437V21.784H36.2231V20.4937H28.4812V18.9937Z" />
<path fill-rule="evenodd" clip-rule="evenodd" d="M36.2231 12.002C36.2231 11.5877 36.5589 11.252 36.9731 11.252H44.7151C45.1293 11.252 45.4651 11.5877 45.4651 12.002C45.4651 12.4162 45.1293 12.752 44.7151 12.752H36.9731C36.5589 12.752 36.2231 12.4162 36.2231 12.002Z" />
<path fill-rule="evenodd" clip-rule="evenodd" d="M43.9651 12.002C43.9651 11.5877 44.3008 11.252 44.7151 11.252H52.457C52.8712 11.252 53.207 11.5877 53.207 12.002V20.4939H51.707V12.752H45.4651V20.4939H43.9651V12.002Z" />
<path fill-rule="evenodd" clip-rule="evenodd" d="M28.4812 11.252H36.9731C37.3873 11.252 37.7231 11.5877 37.7231 12.002V20.4939H36.2231V12.752H28.4812V11.252Z" />
<path d="M15.9207 7.05538C15.7379 6.78235 15.4237 6.64121 15.1101 6.76334C14.8065 6.83482 14.5944 7.10864 14.5545 7.44287L14.2628 18.6223L7.81065 17.582C7.50676 17.5219 7.21341 17.6743 7.06199 17.9075C6.91057 18.1407 6.92138 18.485 7.08387 18.7277L10.9624 23.9955L7.40188 25.8961C7.16921 26.0079 7.01778 26.2411 7.01831 26.5044C7.01883 26.7676 7.13068 27.0003 7.33353 27.172L10.7201 29.474C10.9736 29.6557 11.2976 29.6146 11.5402 29.4521C11.6313 29.3912 11.6919 29.3506 11.7626 29.2593C11.9848 28.9348 11.8927 28.4692 11.5682 28.2471L9.17537 26.6419L12.4122 24.914C12.6145 24.8225 12.7559 24.64 12.796 24.4374C12.8361 24.2348 12.7749 24.0121 12.6734 23.8604L9.33299 19.3308L14.8431 20.2109C15.0457 20.251 15.2684 20.1898 15.4301 20.0376C15.5918 19.8854 15.6826 19.6928 15.6923 19.5105L15.9465 9.85004L21.2281 18.0009C21.35 18.1829 21.5629 18.304 21.7654 18.3441C21.9984 18.3639 22.2007 18.2724 22.3624 18.1202L25.9195 14.5083L26.2394 17.5454C26.2909 17.9503 26.656 18.2331 27.0306 18.202C27.4355 18.1506 27.7183 17.7855 27.6872 17.4109L27.1718 12.8351C27.1509 12.5415 26.9581 12.3191 26.6846 12.2386C26.411 12.1582 26.1377 12.2094 25.9153 12.4022L21.9034 16.4503L15.9207 7.05538Z" />
</svg>
