<svg   viewBox="0 0 46 45"  xmlns="http://www.w3.org/2000/svg">
<path d="M31.7106 0.0796022C33.5034 -0.104648 35.4404 -0.0246445 37.0272 0.922062C38.2963 1.70876 39.0964 3.08215 39.4746 4.49676C39.6018 4.8592 39.3 5.30649 38.9121 5.30043C38.6127 5.34285 38.3339 5.11739 38.2648 4.83253C37.9302 3.66036 37.2902 2.47364 36.1762 1.88331C34.9762 1.26147 33.5798 1.21662 32.2573 1.29177C31.0669 1.37784 29.7954 1.72816 28.9941 2.67244C28.4159 3.31368 28.1226 4.13432 27.8571 4.94041C27.7153 5.37437 27.0752 5.43619 26.8037 5.09193C26.6704 4.91617 26.6158 4.68585 26.6983 4.47494C27.0304 3.27852 27.6304 2.11363 28.5953 1.30511C29.4681 0.574168 30.5942 0.215365 31.7106 0.0796022Z" />
<path d="M16.9003 5.08231C16.9184 4.60714 17.5063 4.28591 17.9221 4.50774C18.1391 4.61805 18.3415 4.82533 18.333 5.08594C18.3561 5.70173 18.3318 6.31872 18.3403 6.93451C19.5234 6.93935 20.7065 6.92845 21.8883 6.94178C21.9296 6.28236 21.858 5.6193 21.9283 4.9623C22.052 4.45561 22.7635 4.25803 23.1284 4.63623C23.3684 4.8326 23.3551 5.16352 23.3587 5.44353C23.349 6.17326 23.3648 6.90299 23.3527 7.63272C23.3587 7.96364 23.1405 8.30305 22.8035 8.36972C22.4387 8.41214 22.0702 8.38548 21.7041 8.39032C16.8312 8.39154 11.9582 8.3879 7.08531 8.39275C7.08652 8.77943 7.06228 9.16611 7.09379 9.5528C7.20167 9.65098 7.37744 9.64007 7.51199 9.68856C9.04781 10.0219 10.5812 10.3686 12.117 10.7068C12.4334 10.7638 12.7134 11.0401 12.7098 11.3735C12.7365 12.0511 12.7098 12.7287 12.7183 13.4075C12.2358 13.4051 11.7534 13.4051 11.2709 13.4075C11.2612 12.9408 11.2624 12.4741 11.2661 12.0074C9.61147 11.6389 7.95564 11.2729 6.30103 10.9032C5.98344 10.8522 5.6707 10.6231 5.64161 10.2825C5.60282 9.56249 5.64161 8.84125 5.62464 8.12122C5.6307 7.79515 5.57615 7.40725 5.84041 7.15755C6.0186 6.95511 6.29861 6.92845 6.55195 6.93329C9.99694 6.93693 13.4407 6.93572 16.8845 6.93451C16.8978 6.31751 16.8615 5.6993 16.9003 5.08231Z" />
<path d="M36.6065 6.39883C35.9847 6.27762 36.0029 5.3006 36.6199 5.1806C37.3399 5.12605 38.0599 5.29818 38.7424 5.51395C39.5327 5.7879 40.414 6.16004 40.7691 6.98068C41.1255 7.88617 40.7207 8.84621 40.2479 9.62321C40.4661 10.2863 40.4916 10.999 40.3049 11.673C40.6879 11.9882 41.0031 12.4136 41.0661 12.9191C41.2613 14.0695 40.8116 15.4683 39.6649 15.9495C39.1836 17.4478 38.2939 18.8018 37.1193 19.8491C37.2672 20.5861 37.7993 21.2661 38.563 21.4164C39.8564 21.6504 41.1522 21.8674 42.448 22.0892C44.1257 22.4019 45.3815 24.0117 45.4154 25.6966C45.4178 27.0312 45.419 28.3658 45.4154 29.7004C45.4445 30.0616 45.1014 30.4059 44.7378 30.3477C44.4093 30.3453 44.1438 30.0228 44.1632 29.7028C44.1475 28.367 44.1741 27.0312 44.1523 25.6966C44.1232 24.5535 43.2323 23.4735 42.0892 23.3062C40.9401 23.1147 39.7933 22.911 38.6454 22.7159C37.3496 23.5232 36.1762 24.6081 34.6659 24.9972C33.0706 25.4324 31.2972 25.1669 29.9045 24.2747C29.1396 23.7729 28.3892 23.2492 27.6268 22.7438C26.6376 22.8444 25.6546 23.0747 24.6654 23.2201C24.6364 23.2662 24.5782 23.3595 24.5491 23.4056C22.0665 23.4201 19.5816 23.3959 17.0979 23.4056C17.0979 23.825 17.0979 24.2456 17.0966 24.665C16.6118 24.6638 16.1281 24.6638 15.6457 24.665C15.6433 24.2456 15.6433 23.825 15.6433 23.4056C13.6226 23.4056 11.6031 23.4056 9.58239 23.4056C9.58118 24.0323 9.5836 24.659 9.58118 25.2857C9.09631 25.2845 8.61265 25.2845 8.129 25.2857C8.12657 24.659 8.129 24.0323 8.12657 23.4056C6.11194 23.4068 4.09731 23.4044 2.08269 23.4068C2.08026 24.4517 2.08269 25.4966 2.08147 26.5427C1.5966 26.5427 1.11174 26.5427 0.626867 26.5415C0.62808 22.7825 0.625655 19.0236 0.628079 15.2647C0.600199 14.9519 0.775964 14.6416 1.05476 14.501C1.42448 14.4113 1.80995 14.461 2.18572 14.4501C9.65634 14.4501 17.1282 14.4525 24.5988 14.4489C24.5976 14.9337 24.5976 15.4186 24.5976 15.9035C22.0981 15.9095 19.5986 15.9047 17.0991 15.9059C17.0966 17.9205 17.0979 19.9352 17.0979 21.951C19.281 21.9522 21.4629 21.9498 23.646 21.951C24.9624 22.0201 26.2376 21.6286 27.531 21.4516C28.3335 21.3582 28.942 20.6964 29.119 19.9327C27.9019 18.8745 26.9758 17.489 26.4825 15.9532C25.4752 15.5241 24.9746 14.381 25.0352 13.3337C25.0206 12.6997 25.303 12.0766 25.794 11.6754C25.6109 10.9905 25.6219 10.2584 25.8728 9.59048C25.4558 8.85591 25.0691 7.98799 25.3394 7.1322C25.5746 6.29943 26.417 5.87033 27.1759 5.61092C27.5153 5.5188 27.885 5.2606 28.2341 5.44849C28.6486 5.62183 28.7032 6.26065 28.3359 6.51278C27.7831 6.81461 27.0716 6.84976 26.6255 7.33099C26.3528 7.78435 26.6461 8.29467 26.8243 8.72257C28.7783 7.92981 30.856 7.36251 32.9749 7.32251C35.1616 7.37221 37.2999 7.95162 39.3388 8.71166C39.5182 8.26437 39.8649 7.65949 39.4406 7.24372C38.6188 6.66309 37.5933 6.46429 36.6065 6.39883ZM27.771 9.702C27.525 9.80867 27.2462 9.87292 27.0462 10.0572C26.9383 10.3287 26.9177 10.6281 26.9358 10.9166C26.9613 11.0584 26.9152 11.3021 27.1456 11.2596C27.7989 11.296 28.3395 11.6827 28.8826 12.0039C28.8377 12.5882 28.9638 13.3276 29.5675 13.5834C30.1578 13.7652 30.8221 13.7107 31.3724 13.4246C32.4379 12.9082 33.7313 12.93 34.7956 13.4391C35.3507 13.707 36.0271 13.7822 36.6078 13.5567C37.2017 13.2815 37.266 12.5421 37.266 11.9675C37.8502 11.6548 38.4297 11.2754 39.117 11.2572C39.2115 10.8233 39.1727 10.3796 39.0273 9.96262C37.1775 9.21471 35.2162 8.69953 33.2197 8.59044C31.3506 8.56741 29.5105 9.05228 27.771 9.702ZM26.3892 12.8997C26.1782 13.4694 26.3019 14.1689 26.7116 14.6246C26.9564 14.8307 27.3031 14.7846 27.6001 14.8355C27.6074 15.1434 27.6268 15.4574 27.7444 15.7471C28.3456 17.5399 29.6911 19.02 31.3227 19.9461C32.3094 20.6273 33.6828 20.6564 34.695 20.0152C36.0405 19.2745 37.2126 18.1921 37.9278 16.8223C38.2345 16.1992 38.5775 15.5471 38.5303 14.8307C38.8394 14.7798 39.2188 14.8489 39.4527 14.5955C39.8443 14.1713 39.9267 13.5203 39.7788 12.9797C39.5594 12.4803 38.8891 12.4391 38.4927 12.7482C38.3593 13.6488 37.7763 14.5264 36.8805 14.8089C36.0211 15.0513 35.0683 14.9834 34.2658 14.5834C33.5046 14.2149 32.5749 14.2137 31.8221 14.6052C31.0487 14.9859 30.1372 15.038 29.3081 14.8259C28.3759 14.5713 27.7625 13.6585 27.6365 12.7324C27.2546 12.4367 26.6534 12.4645 26.3892 12.8997ZM2.0839 15.9071C2.07905 17.9217 2.08269 19.9376 2.08147 21.9522C4.09732 21.9498 6.11194 21.9522 8.12779 21.951C8.12779 19.9352 8.129 17.9205 8.12657 15.9059C6.11316 15.9071 4.09853 15.9035 2.0839 15.9071ZM9.5836 15.9047C9.58118 17.9205 9.58239 19.9352 9.58239 21.951C11.6031 21.951 13.6226 21.951 15.6433 21.951C15.6433 19.9352 15.6445 17.9205 15.642 15.9059C13.6226 15.9059 11.6031 15.9071 9.5836 15.9047ZM30.1942 20.7328C29.9554 21.3146 29.5456 21.8055 29.0499 22.1874C29.5481 22.5134 30.0378 22.8516 30.5324 23.1814C31.7166 23.9632 33.2622 24.1499 34.6053 23.7014C35.575 23.3959 36.3447 22.7025 37.1957 22.1765C36.6793 21.7861 36.2805 21.2637 36.038 20.6637C35.1168 21.3207 34.0283 21.8201 32.8694 21.7352C31.8851 21.7255 30.9954 21.2625 30.1942 20.7328Z" />
<path d="M27.9298 9.97331C27.9808 9.95513 28.0838 9.91755 28.1347 9.89937C29.1517 9.86179 30.1724 9.99513 31.17 10.1891C31.8209 10.2994 32.427 10.6279 33.0973 10.6206C33.6646 10.623 34.1846 10.3661 34.7313 10.2485C35.7423 10.017 36.7811 9.89937 37.8187 9.88361C38.1969 9.82907 38.5545 10.1757 38.5206 10.5527C38.4988 10.8897 38.1751 11.1625 37.8406 11.1431C36.7811 11.1734 35.7156 11.2752 34.6925 11.5613C33.8222 11.8849 32.8513 12.0086 31.9567 11.7104C30.7251 11.2825 29.416 11.1831 28.125 11.1237C27.5904 11.0388 27.4498 10.2254 27.9298 9.97331Z" />
<path d="M17.9282 25.9715C19.3852 25.7691 20.8677 25.7715 22.3248 25.9654C27.6583 26.6685 32.9967 27.34 38.3266 28.0649C39.3885 28.2819 40.1643 29.4698 39.8358 30.5268C38.9279 33.6021 38.0103 36.6738 37.0963 39.7466C37.0017 40.1478 36.5302 40.4206 36.1423 40.2618C35.7508 40.1357 35.5568 39.6569 35.7144 39.286C36.6126 36.2701 37.5121 33.2542 38.403 30.2371C38.5751 29.8529 38.2248 29.4456 37.8321 29.4529C33.8743 28.9377 29.9166 28.4213 25.9601 27.9049C24.2594 27.7061 22.5684 27.414 20.8605 27.2891C20.8483 29.265 20.8605 31.242 20.8544 33.2179C20.8823 33.5512 20.6944 33.9015 20.3659 34.0046C19.9307 34.184 19.3768 33.8276 19.4034 33.3476C19.3937 31.3281 19.4095 29.3086 19.3974 27.2891C18.9464 27.3194 18.4979 27.3619 18.0519 27.4225C12.7995 28.111 7.54717 28.7898 2.29604 29.4795C1.89966 29.4686 1.76632 29.9377 1.90451 30.2468C2.77728 33.2748 3.6658 36.2992 4.53977 39.3272C4.69372 39.7248 4.43068 40.2109 4.01005 40.286C3.63428 40.3818 3.23305 40.126 3.14941 39.7515C2.25483 36.6604 1.3457 33.573 0.460815 30.4796C0.161409 29.4407 0.852346 28.1946 1.96148 28.0576C7.28171 27.3546 12.6068 26.6685 17.9282 25.9715Z" />
<path d="M14.1232 30.27C14.7172 29.9851 15.3257 30.487 15.5317 31.0264C15.9257 31.9452 15.8057 33.2326 14.9293 33.8314C14.2662 34.2156 13.5704 33.578 13.385 32.9586C13.0831 32.047 13.2165 30.7888 14.1232 30.27Z" />
<path d="M25.6073 30.201C26.2315 30.1004 26.6982 30.6774 26.8691 31.2131C27.1479 32.0786 27.0279 33.1962 26.2631 33.7805C25.8424 34.1102 25.2254 33.9054 24.9406 33.4969C24.4266 32.7902 24.3721 31.795 24.7248 31.0059C24.8872 30.6337 25.1951 30.2858 25.6073 30.201Z" />
<path d="M26.3673 40.3322C29.8996 40.1164 33.4791 40.7128 36.7532 42.0559C37.7508 42.4681 38.7606 42.8535 39.7558 43.2717C40.157 43.4026 40.3764 43.9081 40.1631 44.2815C39.9909 44.6463 39.5182 44.7809 39.1667 44.6003C37.9484 44.1118 36.7399 43.6026 35.5144 43.1323C31.7506 41.7347 27.6025 41.3722 23.6569 42.1323C21.5987 42.5056 19.6434 43.2766 17.6312 43.8257C13.3462 44.9821 8.73872 44.93 4.48764 43.6463C3.15304 43.2596 1.8851 42.685 0.591717 42.1844C0.274128 42.0814 -0.0228546 41.8111 0.00138887 41.4523C-0.0131572 40.9807 0.498379 40.5843 0.945671 40.7674C1.8851 41.1104 2.80151 41.5165 3.73851 41.8668C8.03324 43.4269 12.8056 43.616 17.2154 42.4317C18.6785 42.0244 20.115 41.525 21.578 41.1165C23.1417 40.6934 24.7491 40.4268 26.3673 40.3322Z" />
</svg>
