<svg viewBox="0 0 86 54"  xmlns="http://www.w3.org/2000/svg">
<path fill-rule="evenodd" clip-rule="evenodd" d="M62.3308 26.9397C62.3315 26.9397 62.3322 26.9396 62.333 26.9396L79.3469 25.6182C80.7352 25.449 81.6766 26.5891 81.631 27.7971C81.6306 27.8085 81.6299 27.8199 81.6289 27.8313L80.1703 45.2883C80.1358 45.7011 79.7732 46.0078 79.3605 45.9733C78.9477 45.9388 78.641 45.5762 78.6755 45.1634L80.1325 27.7261C80.1369 27.5139 80.0593 27.3455 79.9568 27.2425C79.8601 27.1453 79.7199 27.082 79.5205 27.1082C79.5073 27.1099 79.4942 27.1113 79.481 27.1123L62.4447 28.4354L62.4404 28.4357C61.0263 28.5373 59.6497 28.8261 58.2434 29.3186L42.1314 34.9622C41.7624 35.113 41.6402 35.534 41.7636 35.7846L46.6814 44.8688C46.8786 45.2331 46.7432 45.6882 46.3789 45.8854C46.0147 46.0826 45.5595 45.9472 45.3623 45.5829L40.4394 36.4893L40.4314 36.4742C39.8643 35.3672 40.4576 34.0055 41.5958 33.5609C41.604 33.5577 41.6124 33.5546 41.6207 33.5517L57.7476 27.903C59.2728 27.3687 60.7792 27.0514 62.3308 26.9397Z" />
<path fill-rule="evenodd" clip-rule="evenodd" d="M40.8894 12.106C40.8122 11.7004 41.0752 11.296 41.4768 11.2027L70.5494 4.45262C70.951 4.35936 71.3392 4.61256 71.4164 5.01815L71.85 7.29592C71.9171 7.64874 71.7263 8.00939 71.3956 8.15484L66.2359 10.4237L66.4767 11.6888L65.0222 12.0265L64.6656 10.1532C64.5985 9.8004 64.7892 9.43976 65.12 9.29431L70.2797 7.02544L70.1017 6.09024L42.4836 12.5026L42.6617 13.4378L48.2118 13.2201C48.5676 13.2061 48.8737 13.4514 48.9409 13.8042L49.2975 15.6775L47.843 16.0152L47.6022 14.7501L42.052 14.9679C41.6962 14.9818 41.3901 14.7366 41.3229 14.3837L40.8894 12.106Z" />
<path fill-rule="evenodd" clip-rule="evenodd" d="M52.729 5.6127C53.1301 5.51503 53.5151 5.76548 53.5889 6.1721L53.8945 7.85598L57.7971 6.90569L57.4914 5.22181C57.4176 4.81519 57.683 4.40638 58.0841 4.30871C58.4852 4.21104 58.8701 4.46149 58.9439 4.86811L59.3832 7.28824C59.457 7.69486 59.1917 8.10366 58.7906 8.20134L53.4355 9.50533C53.0344 9.603 52.6494 9.35255 52.5756 8.94593L52.1364 6.5258C52.0626 6.11918 52.3279 5.71037 52.729 5.6127Z" />
<path fill-rule="evenodd" clip-rule="evenodd" d="M60.1524 27.8018C60.5577 27.7165 60.9554 27.9761 61.0406 28.3814L62.4185 34.9354C62.5037 35.3407 62.2442 35.7384 61.8388 35.8236C61.4335 35.9089 61.0358 35.6493 60.9506 35.244L59.5727 28.69C59.4875 28.2847 59.747 27.887 60.1524 27.8018Z" />
<path d="M67.648 34.4384C68.4122 34.2499 68.8792 33.2463 68.6912 32.1967C68.5032 31.1472 67.7312 30.4492 66.967 30.6377C66.2028 30.8262 65.7358 31.8298 65.9238 32.8794C66.1118 33.9289 66.8838 34.6269 67.648 34.4384Z" />
<path d="M55.8509 36.9189C56.6151 36.7304 57.0821 35.7267 56.8941 34.6772C56.706 33.6276 55.9341 32.9296 55.1699 33.1181C54.4057 33.3067 53.9386 34.3103 54.1267 35.3598C54.3147 36.4094 55.0867 37.1074 55.8509 36.9189Z" />
<path fill-rule="evenodd" clip-rule="evenodd" d="M62.3862 22.541L71.7188 20.579L72.0274 22.0469L62.6948 24.0089L62.3862 22.541Z" />
<path fill-rule="evenodd" clip-rule="evenodd" d="M70.4052 21.6212C70.32 21.2158 70.5795 20.8181 70.9849 20.7329L78.8497 19.0796C79.255 18.9944 79.6527 19.2539 79.7379 19.6593L80.5812 23.6702L79.1133 23.9788L78.4243 20.7018L72.0274 22.0465L72.4408 24.0127L70.9729 24.3213L70.4052 21.6212Z" />
<path fill-rule="evenodd" clip-rule="evenodd" d="M54.5214 24.1943L63.1202 22.3868C63.5255 22.3016 63.9232 22.5612 64.0085 22.9665L64.4384 25.0113L62.9705 25.3198L62.6949 24.009L54.8301 25.6622L54.5214 24.1943Z" />
<path fill-rule="evenodd" clip-rule="evenodd" d="M46.6566 25.8477L55.2553 24.0402C55.6607 23.955 56.0584 24.2145 56.1436 24.6198L56.5735 26.6646L55.1056 26.9731L54.83 25.6623L46.9652 27.3156L46.6566 25.8477Z" />
<path fill-rule="evenodd" clip-rule="evenodd" d="M60.8871 15.4107C60.8019 15.0054 61.0615 14.6077 61.4668 14.5225L69.3316 12.8691C69.7369 12.7838 70.1346 13.0434 70.2198 13.4487C70.305 13.8541 70.0455 14.2518 69.6402 14.337L61.7754 15.9904C61.37 16.0756 60.9724 15.8161 60.8871 15.4107Z" />
<path fill-rule="evenodd" clip-rule="evenodd" d="M68.7519 13.7569C68.6667 13.3516 68.9262 12.9539 69.3316 12.8687L77.1963 11.2153C77.6017 11.13 77.9994 11.3896 78.0846 11.7949L79.8923 20.3936L78.4244 20.7022L76.771 12.8375L70.3741 14.1823L72.0275 22.047L70.5596 22.3556L68.7519 13.7569Z" />
<path fill-rule="evenodd" clip-rule="evenodd" d="M52.8681 16.3301L61.4668 14.5224C61.8722 14.4372 62.2699 14.6967 62.3551 15.102L64.1628 23.7008L62.6949 24.0094L61.0415 16.1446L53.1767 17.798L52.8681 16.3301Z" />
<path fill-rule="evenodd" clip-rule="evenodd" d="M45.0032 17.9834L53.602 16.1757C54.0073 16.0905 54.405 16.35 54.4902 16.7554L56.2979 25.3541L54.83 25.6627L53.1766 17.7979L45.3118 19.4513L45.0032 17.9834Z" />
<path fill-rule="evenodd" clip-rule="evenodd" d="M62.3529 48.4915C57.1659 46.8667 51.6691 47.1165 46.6696 49.1788L46.6647 49.1808L43.6324 50.4066C43.2484 50.5619 42.8112 50.3764 42.656 49.9924C42.5008 49.6084 42.6862 49.1712 43.0702 49.016L46.1001 47.7911C51.4222 45.5964 57.2787 45.3304 62.8002 47.0597C62.8006 47.0599 62.801 47.06 62.8013 47.0601L65.5074 47.8977C65.5076 47.8977 65.5072 47.8976 65.5074 47.8977C70.3815 49.3973 75.6923 49.2723 80.4993 47.4637L83.0728 46.4343C83.4574 46.2805 83.8939 46.4675 84.0477 46.8521C84.2015 47.2367 84.0145 47.6732 83.6299 47.827L81.0492 48.8593L81.035 48.8648C75.9087 50.7955 70.2541 50.9276 65.0663 49.3314L62.3554 48.4923L62.3529 48.4915Z" />
<g >
<path d="M43.6762 48.8848C43.607 49.2253 43.33 49.4296 42.9839 49.4296C42.9146 49.4296 42.8454 49.4296 42.8454 49.4296C36.407 47.7953 31.5608 44.3906 28.8608 39.4879C28.5146 38.8751 28.2377 38.2622 27.9608 37.5813C27.8223 37.2408 27.9608 36.8323 28.3762 36.6961C28.7223 36.5599 29.1377 36.6961 29.2762 37.1046C29.4839 37.7175 29.7608 38.2622 30.107 38.8751C32.5993 43.4373 37.1685 46.5696 43.2608 48.0677C43.5377 48.1358 43.8146 48.5443 43.6762 48.8848Z" />
<path d="M45.8915 46.0253C36.8223 43.4377 36.0608 42.9611 31.9069 37.9221C29.8992 34.3132 29.7608 30.0914 31.4223 26.891C30.5223 26.6186 29.83 25.9377 29.5531 24.9844C29.4146 24.6439 29.6223 24.2354 29.9685 24.0992C30.3146 23.963 30.73 24.1673 30.8685 24.5077C31.2146 25.4611 31.8377 25.5972 32.2531 25.6653C33.0146 25.7334 33.7762 25.2568 34.0531 24.6439C34.1915 24.3716 34.4685 24.2354 34.7454 24.2354C35.0223 24.2354 35.2992 24.4397 35.3685 24.7801C35.6454 26.0739 36.8915 26.9591 38.2762 26.9591C39.8685 26.9591 41.0454 25.9377 41.53 24.1673C41.9454 22.6692 41.4608 20.9669 40.2839 19.5369C38.3454 17.0175 34.8146 15.6556 30.6608 15.7918C21.5915 16.0642 15.0146 22.7373 11.83 26.0058C11.5531 26.2782 11.2762 26.5506 11.0685 26.7548L0.891541 36.7646V34.8579L10.0992 25.8015C10.3069 25.5972 10.5838 25.3249 10.8608 25.0525C13.8377 21.9202 20.9685 14.7023 30.5915 14.4299C35.23 14.2937 39.1762 15.7918 41.3915 18.5155C42.8454 20.286 43.3992 22.4649 42.8454 24.3716C42.0838 27.1634 40.0069 28.1848 38.2069 28.1848C38.2069 28.1848 38.2069 28.1848 38.1377 28.1848C36.5454 28.1848 35.1608 27.3677 34.3992 26.142C33.9838 26.4825 33.43 26.7548 32.8762 26.891C31.0762 29.819 31.1454 33.8365 33.0146 37.2412C35.1608 40.9863 40.63 43.7101 45.8915 44.9358" />
</g>
<defs>
<clipPath >
<rect   fill="white" transform="translate(0.891541 14.4297)"/>
</clipPath>
</defs>
</svg>
