<svg  viewBox="0 0 84 54"  xmlns="http://www.w3.org/2000/svg">
<path fill-rule="evenodd" clip-rule="evenodd" d="M60.4271 27.2415C60.4278 27.2414 60.4285 27.2414 60.4293 27.2413L77.4432 25.92C78.8315 25.7508 79.7729 26.8909 79.7273 28.0989C79.7269 28.1103 79.7262 28.1217 79.7252 28.133L78.2666 45.5901C78.2321 46.0029 77.8695 46.3095 77.4568 46.275C77.044 46.2405 76.7373 45.878 76.7718 45.4652L78.2288 28.0279C78.2332 27.8157 78.1556 27.6473 78.0531 27.5443C77.9564 27.4471 77.8162 27.3838 77.6168 27.4099C77.6036 27.4117 77.5905 27.413 77.5773 27.4141L60.541 28.7372L60.5367 28.7375C59.1226 28.839 57.746 29.1278 56.3397 29.6204L40.2277 35.2639C39.8587 35.4147 39.7365 35.8358 39.8599 36.0864L44.7777 45.1706C44.9749 45.5348 44.8395 45.99 44.4752 46.1872C44.111 46.3844 43.6558 46.249 43.4586 45.8847L38.5357 36.7911L38.5277 36.776C37.9606 35.6689 38.5539 34.3072 39.6921 33.8627C39.7003 33.8595 39.7087 33.8564 39.717 33.8535L55.8439 28.2047C57.3691 27.6705 58.8755 27.3531 60.4271 27.2415Z" />
<path fill-rule="evenodd" clip-rule="evenodd" d="M38.9856 12.4077C38.9084 12.0021 39.1714 11.5977 39.573 11.5045L68.6456 4.75431C69.0473 4.66105 69.4354 4.91425 69.5126 5.31984L69.9462 7.59758C70.0134 7.9504 69.8226 8.31105 69.4918 8.45649L64.3321 10.7254L64.5729 11.9904L63.1184 12.3281L62.7618 10.4549C62.6947 10.1021 62.8855 9.74141 63.2162 9.59597L68.3759 7.32709L68.1979 6.39193L40.5799 12.8044L40.7579 13.7396L46.308 13.5218C46.6638 13.5078 46.9699 13.7531 47.0371 14.1059L47.3937 15.9792L45.9392 16.3169L45.6984 15.0518L40.1482 15.2696C39.7924 15.2836 39.4863 15.0383 39.4192 14.6855L38.9856 12.4077Z" />
<path fill-rule="evenodd" clip-rule="evenodd" d="M50.8252 5.91446C51.2263 5.81679 51.6113 6.06724 51.6851 6.47386L51.9907 8.15772L55.8932 7.2074L55.5876 5.52354C55.5138 5.11692 55.7792 4.70812 56.1803 4.61044C56.5814 4.51277 56.9663 4.76322 57.0401 5.16984L57.4794 7.58995C57.5532 7.99657 57.2879 8.40538 56.8868 8.50305L51.5317 9.80706C51.1306 9.90474 50.7456 9.65428 50.6718 9.24766L50.2326 6.82756C50.1588 6.42094 50.4241 6.01213 50.8252 5.91446Z" />
<path fill-rule="evenodd" clip-rule="evenodd" d="M58.2486 28.103C58.654 28.0178 59.0516 28.2773 59.1369 28.6827L60.5147 35.2367C60.5999 35.642 60.3404 36.0397 59.9351 36.1249C59.5297 36.2101 59.132 35.9506 59.0468 35.5452L57.669 28.9913C57.5837 28.5859 57.8433 28.1882 58.2486 28.103Z" />
<path d="M65.7441 34.7397C66.5083 34.5512 66.9753 33.5476 66.7873 32.498C66.5993 31.4485 65.8273 30.7505 65.0632 30.939C64.299 31.1275 63.832 32.1311 64.02 33.1807C64.2081 34.2302 64.98 34.9282 65.7441 34.7397Z" />
<path d="M53.947 37.2202C54.7112 37.0317 55.1782 36.028 54.9901 34.9785C54.8021 33.9289 54.0302 33.2309 53.266 33.4194C52.5019 33.6079 52.0348 34.6116 52.2229 35.6611C52.4109 36.7107 53.1828 37.4087 53.947 37.2202Z" />
<path fill-rule="evenodd" clip-rule="evenodd" d="M60.4899 22.8462L69.8097 20.887L70.1162 22.3449L60.7964 24.3041L60.4899 22.8462Z" />
<path fill-rule="evenodd" clip-rule="evenodd" d="M68.5104 22.2976C68.4383 21.8908 68.7043 21.4802 69.1047 21.3804L77.1389 19.379C77.5393 19.2793 77.9223 19.5282 77.9945 19.935L78.6448 23.6003L77.1948 23.9616L76.6752 21.0328L70.0911 22.673L70.4028 24.4303L68.9529 24.7915L68.5104 22.2976Z" />
<path fill-rule="evenodd" clip-rule="evenodd" d="M52.6422 24.7285L61.3033 22.6879C61.7043 22.5934 62.0909 22.8456 62.167 23.2512L62.51 25.0798L61.0581 25.4219L60.8528 24.3276L52.9177 26.1971L52.6422 24.7285Z" />
<path fill-rule="evenodd" clip-rule="evenodd" d="M44.7775 26.3823L53.4385 24.3414C53.8394 24.2469 54.2261 24.4991 54.3022 24.9046L54.6451 26.7334L53.1932 27.0756L52.988 25.9811L45.053 27.8509L44.7775 26.3823Z" />
<path fill-rule="evenodd" clip-rule="evenodd" d="M37.0515 28.9114C36.9793 28.5046 37.2454 28.0939 37.6458 27.9942L45.6798 25.9928C46.0802 25.893 46.4633 26.1419 46.5354 26.5488L46.9779 29.0426L45.5279 29.4038L45.2162 27.6466L38.6321 29.2868L39.1517 32.2156L37.7017 32.5768L37.0515 28.9114Z" />
<path fill-rule="evenodd" clip-rule="evenodd" d="M58.9913 15.7104C58.9068 15.3084 59.1634 14.9141 59.5644 14.8297L67.4291 13.1759C67.8301 13.0916 68.2237 13.3492 68.3082 13.7513C68.3927 14.1533 68.1361 14.5476 67.7351 14.6319L59.8704 16.2857C59.4694 16.3701 59.0758 16.1125 58.9913 15.7104Z" />
<path fill-rule="evenodd" clip-rule="evenodd" d="M66.859 14.6161C66.7904 14.2084 67.0585 13.7929 67.4579 13.688L75.7407 11.5123C76.1401 11.4073 76.5195 11.6528 76.5881 12.0605L77.9476 20.141L76.5014 20.5209L75.266 13.1786L68.4294 14.9744L69.6648 22.3168L68.2186 22.6967L66.859 14.6161Z" />
<path fill-rule="evenodd" clip-rule="evenodd" d="M51.0053 17.1846L60.0111 14.8188C60.4105 14.7139 60.7899 14.9593 60.8584 15.367L62.218 23.4479L60.7718 23.8278L59.5364 16.4851L51.2537 18.661L51.0053 17.1846Z" />
<path fill-rule="evenodd" clip-rule="evenodd" d="M43.1404 18.8384L52.1464 16.4727C52.5457 16.3678 52.9251 16.6133 52.9937 17.021L54.3532 25.1015L52.907 25.4814L51.6717 18.139L43.3888 20.3148L43.1404 18.8384Z" />
<path fill-rule="evenodd" clip-rule="evenodd" d="M35.3999 21.2299C35.3313 20.8222 35.5994 20.4067 35.9988 20.3018L44.2816 18.126C44.681 18.0211 45.0603 18.2666 45.1289 18.6743L46.4885 26.7548L45.0423 27.1347L43.8069 19.7924L36.9703 21.5882L38.2057 28.9305L36.7595 29.3104L35.3999 21.2299Z" />
<path fill-rule="evenodd" clip-rule="evenodd" d="M60.4492 48.7928C55.2622 47.1679 49.7653 47.4178 44.7658 49.4801L44.7609 49.4821L41.7287 50.7079C41.3447 50.8631 40.9075 50.6777 40.7523 50.2937C40.597 49.9096 40.7825 49.4725 41.1665 49.3172L44.1963 48.0924C49.5184 45.8977 55.375 45.6317 60.8965 47.361C60.8968 47.3611 60.8972 47.3613 60.8976 47.3614L63.6036 48.199C63.6038 48.199 63.6034 48.1989 63.6036 48.199C68.4777 49.6985 73.7885 49.5736 78.5956 47.7649L81.169 46.7356C81.5536 46.5817 81.9901 46.7688 82.144 47.1534C82.2978 47.538 82.1107 47.9744 81.7261 48.1283L79.1455 49.1605L79.1313 49.166C74.0049 51.0968 68.3504 51.2289 63.1625 49.6326L60.4516 48.7935L60.4492 48.7928Z" />
<path d="M12.2564 21.665C15.1981 22.7032 15.9768 24.3471 15.9768 24.4336C16.1498 24.7797 16.4094 24.9527 16.7555 24.9527C16.842 24.9527 16.9285 24.9527 17.1015 24.8662C17.5341 24.6932 17.7937 24.174 17.6207 23.7414C17.6207 23.6549 16.6689 21.3189 12.8621 19.9346C12.4295 19.7615 11.9103 20.0211 11.7373 20.4537C11.5643 20.9728 11.8238 21.4919 12.2564 21.665Z" />
<path d="M18.8319 23.8287C18.9184 24.2613 19.2645 24.6073 19.6971 24.6073H19.7836C20.2162 24.5208 20.5623 24.0882 20.5623 23.6556C20.5623 23.3961 19.8702 17.5127 16.9285 14.398C16.5824 14.0519 16.0633 14.0519 15.7172 14.3115C15.3711 14.6576 15.3711 15.1767 15.6307 15.5228C18.2263 18.2914 18.8319 23.8287 18.8319 23.8287Z" />
<path d="M25.4075 23.8283C25.2344 24.2609 25.494 24.78 25.9266 24.953C26.0131 24.953 26.0996 25.0395 26.2727 25.0395C26.6188 25.0395 26.9648 24.8665 27.0514 24.5204C27.0514 24.5204 27.7435 22.79 30.7717 21.7518C31.2043 21.5788 31.4639 21.0596 31.2908 20.627C31.1178 20.1944 30.5987 19.9349 30.1661 20.1079C26.3592 21.4057 25.4075 23.7417 25.4075 23.8283Z" />
<path d="M23.2444 24.607H23.331C23.7636 24.607 24.1096 24.2609 24.1962 23.8283C24.1962 23.7418 24.8018 18.291 27.3974 15.5224C27.7435 15.1763 27.657 14.6572 27.3109 14.3111C26.9648 13.9651 26.4457 14.0516 26.0996 14.3977C23.2444 17.5989 22.5523 23.4822 22.4658 23.6553C22.3792 24.0879 22.7253 24.5205 23.2444 24.607Z" />
<path fill-rule="evenodd" clip-rule="evenodd" d="M42.6541 50.4071C34.7502 42.0199 27.3262 28.3553 27.2435 28.1903C27.0704 27.9305 26.8109 27.7577 26.5514 27.7577C26.2917 27.7577 25.9457 27.8441 25.7727 28.1039L23.8693 30.6127L22.2253 28.5365C21.9658 28.1903 21.4467 28.1039 21.1006 28.3632L19.2837 29.4017L15.3903 27.7577C15.1307 27.6713 14.8712 27.6713 14.6981 27.7577C14.4386 27.8441 14.3521 28.017 14.2655 28.2767C11.4958 37.2245 3.24707 47.1053 0.331787 50.4071H2.65186C4.35486 48.4086 6.87634 45.3363 9.33386 41.6874C9.33386 41.7738 9.42041 41.9467 9.42041 42.0336C9.67993 42.639 10.1991 43.0717 10.8048 43.2445C12.7947 43.8505 13.7465 42.4662 14.4386 41.4276C14.7847 40.9086 15.1307 40.3895 15.6499 40.0433C15.6918 40.0013 15.7336 39.9799 15.7656 39.9686C15.7998 39.9569 15.8229 39.9569 15.8229 39.9569C16.0825 40.1298 16.4286 40.9086 16.6881 41.4276C16.8003 41.6293 16.9125 41.8427 17.0291 42.0648C17.3624 42.6996 17.7328 43.4047 18.2455 44.1097C19.1971 45.4076 20.2354 45.7538 20.9276 45.7538H21.1871C22.3984 45.6674 23.6097 44.6288 24.4749 42.8119C24.6479 42.3793 24.4749 41.8602 24.0422 41.6874C23.6097 41.5145 23.0906 41.6874 22.9175 42.12C22.3119 43.3314 21.6198 44.1097 21.014 44.1097C20.495 44.1097 19.9758 43.6771 19.7163 43.1581C19.2405 42.4784 18.8716 41.7987 18.5255 41.161C18.431 40.9872 18.3383 40.8163 18.2455 40.6493C17.6398 39.4379 17.1207 38.4862 16.1689 38.2264C15.6499 38.14 15.1307 38.3129 14.5251 38.7455C13.8329 39.265 13.4004 39.9569 12.9678 40.5624C12.1891 41.6874 12.016 41.8602 11.2373 41.6874C11.0643 41.601 10.9778 41.5145 10.8912 41.4276C10.5452 40.7357 10.9778 39.1781 11.4104 38.2264C13.0543 35.5443 14.4386 32.6029 15.4768 29.8344L18.9376 31.2186C19.1971 31.3051 19.4568 31.3051 19.7163 31.1317L21.2737 30.1801L23.1771 32.516C23.3501 32.6893 23.6097 32.8622 23.8693 32.8622C24.1288 32.8622 24.3883 32.6893 24.5614 32.516L26.3783 30.1801C27.157 31.6512 28.6278 34.2465 30.6178 37.2748C31.7426 39.9569 31.656 41.601 31.3099 42.2064C31.2234 42.3793 30.9639 42.5526 30.5312 42.5526C29.4065 42.5526 28.2817 40.9086 27.4165 39.6971L27.3872 39.6561C26.5376 38.4667 25.9349 37.6229 24.994 37.7938C24.1288 37.9672 23.9558 38.9188 23.8693 39.1781C23.7827 39.6107 24.0422 40.1298 24.4749 40.2167C24.8209 40.3031 25.167 40.1298 25.3401 39.8705C25.5132 40.1298 25.7727 40.3895 25.9457 40.6493C26.984 42.12 28.4548 44.1962 30.4447 44.1962C31.3965 44.1962 32.1752 43.764 32.6942 43.0717C33.0404 42.5526 33.2134 41.9467 33.2134 41.1683C35.3473 44.3295 37.7699 47.5629 40.3495 50.4071H42.6541Z" />
</svg>
