<svg   viewBox="0 0 52 53"  xmlns="http://www.w3.org/2000/svg">
<path d="M37.647 1.22508C38.2648 0.620493 39.0634 0.202597 39.9178 0.062413C41.127 -0.150189 42.4192 0.187317 43.3673 0.968628C44.3439 0.66102 45.4116 0.643082 46.3929 0.939395C47.5117 1.26561 48.5109 1.98912 49.1667 2.95313C49.7912 3.85138 50.1081 4.95558 50.0722 6.04782C50.8907 6.63181 51.5013 7.50347 51.7531 8.47746C52.0321 9.51721 51.8993 10.6593 51.3824 11.604C51.6933 12.38 51.779 13.2504 51.5671 14.0636C51.3053 15.1239 50.5672 16.0574 49.5919 16.5497C48.6823 17.0234 47.5841 17.1124 46.6075 16.8041C45.5551 16.4839 44.6555 15.7013 44.1838 14.7087C43.6868 13.6915 43.6636 12.4505 44.1406 11.4213C44.3107 11.0592 44.8748 11.0121 45.0953 11.3496C45.2667 11.5562 45.2096 11.8379 45.1053 12.0605C44.8289 12.7826 44.8894 13.6191 45.2495 14.3008C45.6494 15.0914 46.4414 15.6641 47.3144 15.8089C48.1256 15.9537 48.9979 15.7159 49.6178 15.1711C50.427 14.4761 50.7552 13.2889 50.4157 12.2777C50.3419 11.9748 50.0609 11.6864 50.2111 11.3615C50.3978 11.0327 50.5884 10.6998 50.6695 10.3258C51.0077 9.03886 50.4124 7.58719 49.2816 6.89224C49.0544 6.77797 48.871 6.54411 48.9168 6.27636C48.9919 5.52495 48.8584 4.75095 48.5122 4.07726C48.0485 3.12919 47.1868 2.38708 46.1829 2.06353C45.3126 1.77319 44.3426 1.79778 43.4889 2.13395C43.2769 2.23494 43.0185 2.18976 42.853 2.02499C42.3461 1.54465 41.6824 1.22574 40.9855 1.15532C40.0414 1.04902 39.0448 1.39117 38.3977 2.09276C38.2662 2.22497 38.1293 2.38708 37.9287 2.39771C37.6416 2.39173 37.3586 2.31666 37.0703 2.34589C36.287 2.38309 35.5302 2.77508 35.0539 3.39893C34.541 4.04405 34.3643 4.93033 34.5589 5.72759C34.7383 6.49229 35.2499 7.16929 35.9355 7.55198C36.8935 8.11537 38.1904 8.03432 39.0554 7.32874C39.2568 7.14338 39.579 7.11481 39.7989 7.28622C40.0826 7.48288 40.0932 7.94462 39.8308 8.16321C39.086 8.78507 38.1021 9.11194 37.1321 9.0548C36.1122 9.00697 35.123 8.53924 34.428 7.79248C33.7065 7.03907 33.3112 5.98869 33.3497 4.94627C33.3703 4.02677 33.7457 3.12521 34.3689 2.4502C35.1854 1.55063 36.4418 1.09353 37.647 1.22508Z" />
<path d="M44.209 2.66944C45.1 2.53457 46.0288 2.78039 46.7589 3.30193C47.6166 3.90319 48.2073 4.89378 48.2618 5.94616C48.2863 6.25643 48.0119 6.54411 47.7023 6.5368C47.3834 6.55673 47.121 6.26174 47.1223 5.95281C47.0253 4.7051 45.8122 3.68461 44.5691 3.77563C44.3293 3.7836 44.0695 3.89057 43.8456 3.76101C43.5546 3.60356 43.4589 3.17702 43.6755 2.92057C43.7991 2.75116 44.0104 2.69335 44.209 2.66944Z" />
<path d="M36.8151 2.76777C37.3334 2.68339 37.8861 2.80963 38.3047 3.13119C38.4774 3.27337 38.5684 3.52184 38.498 3.73976C38.4163 4.04272 38.0502 4.2314 37.7579 4.10916C37.5779 4.0281 37.4184 3.88393 37.2104 3.8826C36.3826 3.82812 35.6757 4.76224 35.9342 5.54555C36.0265 5.85249 36.4258 5.9847 36.4152 6.33682C36.4444 6.7401 35.972 7.05901 35.6113 6.86899C35.0598 6.55142 34.7635 5.90033 34.7449 5.27979C34.7024 4.08922 35.6319 2.94583 36.8151 2.76777Z" />
<path d="M42.3301 4.89512C42.663 4.80012 43.0304 5.06388 43.0364 5.41268C43.1134 6.69427 44.3618 7.75395 45.6374 7.63769C45.8912 7.60978 46.1875 7.51478 46.4015 7.71077C46.7469 7.96921 46.6307 8.58177 46.2128 8.69272C45.4129 8.88274 44.5452 8.7585 43.823 8.36784C42.7474 7.81773 41.9734 6.69427 41.9049 5.48044C41.8843 5.21801 42.0704 4.9516 42.3301 4.89512Z" />
<path d="M35.6325 9.50127C35.691 9.21758 35.9767 8.99169 36.2697 9.04152C36.5853 9.0754 36.8278 9.41556 36.7447 9.7245C36.1242 12.0545 35.4585 14.3738 34.8492 16.7058C34.9177 17.3596 35.0313 18.0087 35.115 18.6604C36.093 18.5335 37.0742 18.4319 38.0489 18.283C37.9851 18.2664 37.8589 18.2339 37.7958 18.2179C39.5856 17.131 41.3874 16.0627 43.1819 14.9837C43.4091 14.8349 43.6868 14.6642 43.9632 14.801C44.3565 14.9592 44.4137 15.5651 44.0482 15.7863C42.3295 16.83 40.5948 17.8492 38.878 18.8963C38.8156 19.1614 38.6136 19.3534 38.4601 19.5666C38.0708 20.0842 37.6722 20.5951 37.2888 21.1166C38.7192 21.7265 40.139 22.3617 41.5674 22.9762C41.7462 23.0493 41.9402 23.1377 42.0299 23.3217C42.2046 23.6346 41.9927 24.0831 41.6345 24.1329C40.3317 24.313 39.0242 24.4658 37.7213 24.6472C39.4952 25.9905 41.2818 27.3173 43.0557 28.6607C43.4417 28.9616 43.4184 29.6167 43.0218 29.8984C42.7354 30.1223 42.3036 30.1137 42.0272 29.8785C35.2405 24.7814 28.4539 19.6842 21.6693 14.5844C16.2844 18.6206 10.9116 22.6713 5.5248 26.7047C5.51284 34.8766 5.52281 43.0498 5.51949 51.2224C16.2911 51.2224 27.062 51.2224 37.8336 51.2224C37.8343 43.9879 37.8316 36.7542 37.8343 29.5197C37.819 29.1051 38.1838 28.7198 38.5997 28.7171C39.0395 28.6853 39.4474 29.0865 39.4281 29.5264C39.4288 37.0146 39.4275 44.5028 39.4288 51.9917C39.4541 52.4395 39.0521 52.8388 38.605 52.8156C27.4188 52.8195 16.2333 52.8149 5.04778 52.8182C4.76143 52.8222 4.43389 52.8368 4.21199 52.6209C3.99673 52.4588 3.917 52.1817 3.92564 51.922C3.92497 43.9182 3.92497 35.9137 3.92497 27.9093C3.03869 28.579 2.14908 29.2453 1.26014 29.9124C0.969143 30.1363 0.532645 30.101 0.261578 29.8619C-0.116455 29.5443 -0.0785848 28.8826 0.335324 28.6128C7.28076 23.3981 14.2229 18.1794 21.1683 12.9653C21.4447 12.7355 21.8686 12.7328 22.1509 12.9547C24.362 14.6163 26.575 16.2753 28.7854 17.9389C28.6658 16.9084 28.5509 15.8773 28.4306 14.8469C28.4047 14.6502 28.3782 14.4283 28.5097 14.2609C28.705 13.9719 29.1734 13.9373 29.3953 14.2144C30.2936 15.2581 31.1832 16.3098 32.0768 17.3582C32.591 16.6978 33.1059 16.0374 33.6215 15.3784C33.7331 15.2123 33.9078 15.1093 34.1058 15.0801C34.6147 13.2205 35.123 11.3609 35.6325 9.50127ZM29.7494 16.3769C29.8159 16.9968 29.8983 17.6153 29.9574 18.2365C29.98 18.408 29.8797 18.5561 29.7906 18.6916C32.0622 20.3964 34.3297 22.1072 36.6052 23.808C36.7228 23.7071 36.8483 23.5994 37.0111 23.5895C37.809 23.4838 38.6076 23.3862 39.4049 23.2772C38.4515 22.852 37.4915 22.4414 36.5361 22.0209C36.3707 21.9451 36.1939 21.8893 36.0431 21.7877C35.8152 21.6089 35.7621 21.2555 35.9342 21.0203C36.2943 20.534 36.669 20.0576 37.0291 19.5713C36.2438 19.657 35.4611 19.7693 34.6758 19.8583C34.3881 19.8935 34.1058 19.6643 34.0699 19.3799C33.9616 18.6099 33.852 17.8399 33.743 17.0699C33.3351 17.5808 32.9425 18.1037 32.5332 18.6132C32.3345 18.8777 31.8961 18.8943 31.6835 18.6392C31.0317 17.8911 30.3966 17.129 29.7494 16.3769Z" />
<path d="M37.5539 9.63214C37.9665 9.4521 38.4502 9.89258 38.3013 10.3198C37.8403 11.802 37.3845 13.2856 36.9174 14.7658C36.8517 15.0169 36.5939 15.189 36.3381 15.1698C36.0909 15.1591 35.8664 14.9638 35.8205 14.7213C35.7774 14.5286 35.8657 14.3413 35.9175 14.1599C36.3447 12.7979 36.7653 11.4339 37.1898 10.0713C37.2417 9.88129 37.3586 9.69659 37.5539 9.63214Z" />
<path d="M40.4108 11.0161C40.6984 10.8918 41.0712 11.0533 41.1648 11.3556C41.2379 11.5469 41.1795 11.7615 41.0572 11.9183C40.0075 13.3035 38.9544 14.6868 37.9067 16.0727C37.7838 16.2314 37.6675 16.4261 37.4583 16.4766C37.1746 16.5683 36.8404 16.3929 36.7587 16.1059C36.6929 15.9218 36.746 15.7172 36.8636 15.5671C37.9027 14.1958 38.9445 12.8265 39.9822 11.4539C40.1071 11.2938 40.2188 11.1038 40.4108 11.0161Z" />
<path d="M48.7886 11.4957C49.0437 11.3516 49.3587 11.4658 49.5434 11.6718C50.2516 12.3103 50.318 13.4317 49.8868 14.2449C49.4138 15.2143 48.2352 15.8601 47.1722 15.5219C46.8898 15.4162 46.5649 15.2847 46.4267 14.997C46.2786 14.6801 46.4985 14.2695 46.8446 14.2164C47.1689 14.1353 47.3874 14.4761 47.701 14.4722C48.5494 14.5227 49.2783 13.5274 48.9361 12.7375C48.8444 12.4956 48.5455 12.3933 48.5023 12.1269C48.4365 11.8804 48.568 11.6153 48.7886 11.4957Z" />
<path d="M42.8045 13.6762C43.0736 13.5301 43.4384 13.6563 43.5659 13.9333C43.7015 14.1891 43.5925 14.5266 43.3447 14.6695C42.0418 15.5179 40.7357 16.361 39.4295 17.2028C39.1186 17.3934 38.6734 17.1928 38.5997 16.8407C38.5326 16.5929 38.6688 16.3298 38.8847 16.2049C40.1922 15.3638 41.4917 14.5087 42.8045 13.6762Z" />
<path d="M21.1617 18.2113C21.4414 17.9827 21.8745 17.9708 22.1576 18.2007C24.8118 20.1991 27.4673 22.1969 30.1242 24.1934C30.4776 24.4392 30.564 24.988 30.2836 25.3215C30.0365 25.6749 29.4883 25.7414 29.1601 25.4637C26.6621 23.5848 24.1627 21.7086 21.6673 19.8257C19.1798 21.7073 16.6884 23.5835 14.2003 25.4637C13.8355 25.7713 13.2183 25.649 13.0044 25.2218C12.8131 24.891 12.9101 24.4365 13.215 24.2093C15.8632 22.2089 18.5134 20.2111 21.1617 18.2113Z" />
<path d="M15.0367 44.3048C15.038 39.8841 15.0327 35.4626 15.0394 31.0418C19.4595 31.0418 23.8796 31.0412 28.2997 31.0418C28.2997 35.4626 28.2997 39.8834 28.2997 44.3048C23.879 44.3048 19.4582 44.3042 15.0367 44.3048ZM16.6319 42.7103C19.9897 42.709 23.3475 42.7103 26.7052 42.7097C26.7052 39.3519 26.7052 35.9941 26.7052 32.6363C23.3475 32.637 19.9903 32.635 16.6326 32.6377C16.6306 35.9948 16.6319 39.3526 16.6319 42.7103Z" />
<path d="M18.5679 34.3478C18.8895 34.1126 19.3725 34.1804 19.6276 34.482C19.7572 34.6388 19.8243 34.8408 19.8203 35.0447C19.8216 36.5369 19.8196 38.0291 19.821 39.5213C21.0607 39.52 22.3004 39.522 23.5402 39.5206C23.5415 38.0265 23.5408 36.5329 23.5402 35.0394C23.5309 34.7856 23.6411 34.5298 23.8464 34.377C24.1016 34.1691 24.4862 34.1478 24.762 34.3285C25.0084 34.4714 25.142 34.763 25.136 35.0427C25.1347 37.0664 25.1367 39.0908 25.1353 41.1152C22.8319 41.1165 20.5292 41.1145 18.2258 41.1158C18.2245 39.1127 18.2278 37.1096 18.2245 35.1065C18.2012 34.8155 18.3181 34.5099 18.5679 34.3478Z" />
</svg>
