<svg  viewBox="0 0 79 61"  xmlns="http://www.w3.org/2000/svg">
<path fill-rule="evenodd" clip-rule="evenodd" d="M57.1037 57.4593C51.9167 55.8344 46.4198 56.0843 41.4204 58.1466L41.4155 58.1486L38.3832 59.3744C37.9992 59.5296 37.562 59.3442 37.4068 58.9602C37.2516 58.5761 37.437 58.139 37.821 57.9837L40.8509 56.7589C46.173 54.5642 52.0295 54.2982 57.551 56.0275C57.5514 56.0276 57.5518 56.0278 57.5521 56.0279L60.2582 56.8655C60.2584 56.8655 60.258 56.8654 60.2582 56.8655C65.1323 58.365 70.4431 58.2401 75.2501 56.4314L77.8236 55.4021C78.2082 55.2482 78.6447 55.4353 78.7985 55.8199C78.9523 56.2045 78.7653 56.6409 78.3807 56.7948L75.8 57.827L75.7858 57.8325C70.6595 59.7633 65.0049 59.8954 59.817 58.2991L57.1062 57.46L57.1037 57.4593Z" />
<path fill-rule="evenodd" clip-rule="evenodd" d="M20.0016 58.8113C14.8146 57.1865 9.31767 57.4364 4.31821 59.4986L4.31331 59.5007L1.28105 60.7264C0.897025 60.8817 0.459865 60.6962 0.304622 60.3122C0.149379 59.9282 0.334841 59.491 0.718862 59.3358L3.74868 58.111C9.07079 55.9163 14.9273 55.6502 20.4488 57.3796C20.4492 57.3797 20.4496 57.3798 20.45 57.3799L23.156 58.2175C23.1562 58.2176 23.1558 58.2174 23.156 58.2175C28.0301 59.7171 33.3409 59.5921 38.148 57.7835L40.7214 56.7541C41.106 56.6003 41.5425 56.7873 41.6963 57.1719C41.8502 57.5565 41.6631 57.993 41.2785 58.1468L38.6979 59.1791L38.6837 59.1846C33.5573 61.1153 27.9028 61.2474 22.7149 59.6512L20.004 58.8121L20.0016 58.8113Z" />
<path fill-rule="evenodd" clip-rule="evenodd" d="M59.5572 40.1382C59.5579 40.1383 59.5586 40.1384 59.5594 40.1385L76.3658 42.3306C77.7533 42.4502 78.4368 43.7541 78.145 44.9214C78.1427 44.9306 78.1403 44.9397 78.1376 44.9488L75.2774 54.7932C75.1619 55.191 74.7457 55.4197 74.348 55.3042C73.9502 55.1886 73.7214 54.7724 73.837 54.3747L76.6926 44.5461C76.7407 44.341 76.6999 44.1621 76.6219 44.0419C76.5486 43.9289 76.4267 43.8396 76.2291 43.8244C76.2159 43.8234 76.2028 43.8221 76.1896 43.8203L59.361 41.6253L59.3567 41.6247C57.962 41.4345 56.5654 41.434 55.0985 41.6253L38.2854 43.8183C37.8988 43.8891 37.6962 44.2705 37.764 44.5361L40.6877 54.3702C40.8057 54.7672 40.5795 55.1848 40.1825 55.3028C39.7855 55.4209 39.3679 55.1947 39.2499 54.7977L36.3232 44.9533L36.3185 44.9369C35.9926 43.7418 36.8497 42.5368 38.0495 42.3368C38.0583 42.3354 38.0671 42.3341 38.0758 42.3329L54.9044 40.1379C56.4965 39.9302 58.0259 39.9296 59.5572 40.1382Z" />
<path fill-rule="evenodd" clip-rule="evenodd" d="M41.8794 20.6606C41.8794 20.2464 42.2152 19.9106 42.6294 19.9106H71.8966C72.3108 19.9106 72.6466 20.2464 72.6466 20.6606V23.3213C72.6466 23.6728 72.4024 23.9772 72.0593 24.0534L66.6601 25.2532V26.7319H65.1601V24.6516C65.1601 24.3001 65.4042 23.9957 65.7474 23.9195L71.1466 22.7197V21.4106H43.3794V22.7197L48.7786 23.9195C49.1217 23.9957 49.3659 24.3001 49.3659 24.6516V26.7319H47.8659V25.2532L42.4667 24.0534C42.1236 23.9772 41.8794 23.6728 41.8794 23.3213V20.6606Z" />
<path fill-rule="evenodd" clip-rule="evenodd" d="M54.6024 17.25C55.0166 17.25 55.3524 17.5858 55.3524 18V19.9106H59.1737V18C59.1737 17.5858 59.5094 17.25 59.9237 17.25C60.3379 17.25 60.6737 17.5858 60.6737 18V20.6606C60.6737 21.0749 60.3379 21.4106 59.9237 21.4106H54.6024C54.1881 21.4106 53.8524 21.0749 53.8524 20.6606V18C53.8524 17.5858 54.1881 17.25 54.6024 17.25Z" />
<path fill-rule="evenodd" clip-rule="evenodd" d="M57.263 40.5308C57.6772 40.5308 58.013 40.8665 58.013 41.2808V47.9324C58.013 48.3466 57.6772 48.6824 57.263 48.6824C56.8488 48.6824 56.513 48.3466 56.513 47.9324V41.2808C56.513 40.8665 56.8488 40.5308 57.263 40.5308Z" />
<path d="M63.2494 48.5974C63.9841 48.5974 64.5797 47.704 64.5797 46.6019C64.5797 45.4999 63.9841 44.6064 63.2494 44.6064C62.5147 44.6064 61.9191 45.4999 61.9191 46.6019C61.9191 47.704 62.5147 48.5974 63.2494 48.5974Z" />
<path d="M51.2765 48.5979C52.0112 48.5979 52.6068 47.7045 52.6068 46.6024C52.6068 45.5003 52.0112 44.6069 51.2765 44.6069C50.5418 44.6069 49.9462 45.5003 49.9462 46.6024C49.9462 47.7045 50.5418 48.5979 51.2765 48.5979Z" />
<path fill-rule="evenodd" clip-rule="evenodd" d="M60.504 35.8745H69.9859V37.3745H60.504V35.8745Z" />
<path fill-rule="evenodd" clip-rule="evenodd" d="M68.4859 36.6245C68.4859 36.2103 68.8217 35.8745 69.2359 35.8745H77.2178C77.6321 35.8745 77.9678 36.2103 77.9678 36.6245V40.7003H76.4678V37.3745H69.9859V39.37H68.4859V36.6245Z" />
<path fill-rule="evenodd" clip-rule="evenodd" d="M52.522 35.8745H61.254C61.6682 35.8745 62.004 36.2103 62.004 36.6245V38.7048H60.504V37.3745H52.522V35.8745Z" />
<path fill-rule="evenodd" clip-rule="evenodd" d="M44.5401 35.8745H53.272C53.6863 35.8745 54.022 36.2103 54.022 36.6245V38.7048H52.522V37.3745H44.5401V35.8745Z" />
<path fill-rule="evenodd" clip-rule="evenodd" d="M36.5581 36.6245C36.5581 36.2103 36.8939 35.8745 37.3081 35.8745H45.2901C45.7043 35.8745 46.0401 36.2103 46.0401 36.6245V39.37H44.5401V37.3745H38.0581V40.7003H36.5581V36.6245Z" />
<path fill-rule="evenodd" clip-rule="evenodd" d="M60.504 28.6426C60.504 28.2284 60.8398 27.8926 61.254 27.8926H69.2359C69.6501 27.8926 69.9859 28.2284 69.9859 28.6426C69.9859 29.0568 69.6501 29.3926 69.2359 29.3926H61.254C60.8398 29.3926 60.504 29.0568 60.504 28.6426Z" />
<path fill-rule="evenodd" clip-rule="evenodd" d="M68.4859 28.6426C68.4859 28.2284 68.8217 27.8926 69.2359 27.8926H77.2178C77.6321 27.8926 77.9678 28.2284 77.9678 28.6426V37.3745H76.4678V29.3926H69.9859V37.3745H68.4859V28.6426Z" />
<path fill-rule="evenodd" clip-rule="evenodd" d="M52.522 27.8926H61.254C61.6682 27.8926 62.004 28.2284 62.004 28.6426V37.3745H60.504V29.3926H52.522V27.8926Z" />
<path fill-rule="evenodd" clip-rule="evenodd" d="M44.5401 27.8926H53.272C53.6863 27.8926 54.022 28.2284 54.022 28.6426V37.3745H52.522V29.3926H44.5401V27.8926Z" />
<path fill-rule="evenodd" clip-rule="evenodd" d="M36.5581 28.6426C36.5581 28.2284 36.8939 27.8926 37.3081 27.8926H45.2901C45.7043 27.8926 46.0401 28.2284 46.0401 28.6426V37.3745H44.5401V29.3926H38.0581V37.3745H36.5581V28.6426Z" />
<path fill-rule="evenodd" clip-rule="evenodd" d="M28.9044 29.1379C30.4972 28.9301 32.0273 28.9296 33.5594 29.1385C33.9698 29.1944 34.2571 29.5725 34.2012 29.9829C34.1452 30.3933 33.7671 30.6807 33.3567 30.6247C31.962 30.4345 30.5654 30.434 29.0985 30.6253L12.2854 32.8183C11.9014 32.8886 11.6989 33.2655 11.7627 33.5309L18.2146 53.7722C18.3404 54.1669 18.1224 54.5888 17.7278 54.7146C17.3331 54.8404 16.9112 54.6224 16.7854 54.2278L10.3275 33.9673C10.3243 33.9572 10.3213 33.9471 10.3185 33.9369C9.99257 32.7418 10.8497 31.5368 12.0495 31.3368C12.0583 31.3354 12.0671 31.3341 12.0758 31.3329L28.9044 29.1379Z" />
<path fill-rule="evenodd" clip-rule="evenodd" d="M31.263 29.5308C31.6772 29.5308 32.013 29.8665 32.013 30.2808V36.9324C32.013 37.3466 31.6772 37.6824 31.263 37.6824C30.8488 37.6824 30.513 37.3466 30.513 36.9324V30.2808C30.513 29.8665 30.8488 29.5308 31.263 29.5308Z" />
<path d="M25.2765 37.5979C26.0112 37.5979 26.6068 36.7045 26.6068 35.6024C26.6068 34.5003 26.0112 33.6069 25.2765 33.6069C24.5418 33.6069 23.9462 34.5003 23.9462 35.6024C23.9462 36.7045 24.5418 37.5979 25.2765 37.5979Z" />
<path fill-rule="evenodd" clip-rule="evenodd" d="M26.522 24.8745H35.254C35.6682 24.8745 36.004 25.2103 36.004 25.6245V27.7048H34.504V26.3745H26.522V24.8745Z" />
<path fill-rule="evenodd" clip-rule="evenodd" d="M18.5401 24.8745H27.272C27.6863 24.8745 28.022 25.2103 28.022 25.6245V27.7048H26.522V26.3745H18.5401V24.8745Z" />
<path fill-rule="evenodd" clip-rule="evenodd" d="M10.5581 25.6245C10.5581 25.2103 10.8939 24.8745 11.3081 24.8745H19.2901C19.7043 24.8745 20.0401 25.2103 20.0401 25.6245V28.37H18.5401V26.3745H12.0581V29.7003H10.5581V25.6245Z" />
<path fill-rule="evenodd" clip-rule="evenodd" d="M26.522 16.8926H35.254C35.6682 16.8926 36.004 17.2284 36.004 17.6426V26.3745H34.504V18.3926H26.522V16.8926Z" />
<path fill-rule="evenodd" clip-rule="evenodd" d="M18.5401 16.8926H27.272C27.6863 16.8926 28.022 17.2284 28.022 17.6426V26.3745H26.522V18.3926H18.5401V16.8926Z" />
<path fill-rule="evenodd" clip-rule="evenodd" d="M10.5581 17.6426C10.5581 17.2284 10.8939 16.8926 11.3081 16.8926H19.2901C19.7043 16.8926 20.0401 17.2284 20.0401 17.6426V26.3745H18.5401V18.3926H12.0581V26.3745H10.5581V17.6426Z" />
<path d="M35.1312 1.77027C35.145 1.48063 35.3182 1.23085 35.611 1.18034C35.873 1.0961 36.1581 1.2065 36.3404 1.44101L41.652 9.75897L46.0556 6.03429C46.2579 5.85043 46.5491 5.8321 46.7698 5.93941C46.9904 6.04673 47.139 6.31188 47.1267 6.56934L46.5938 12.3177L50.1508 12.1329C50.3776 12.1115 50.5983 12.2188 50.7178 12.4181C50.8373 12.6173 50.8587 12.8442 50.7836 13.0664L49.2719 16.3487C49.163 16.6015 48.8994 16.718 48.6419 16.7057C48.5454 16.701 48.481 16.698 48.386 16.6612C48.0704 16.517 47.9279 16.1232 48.072 15.8075L49.1498 13.5043L45.9162 13.6723C45.7216 13.6952 45.5316 13.6216 45.409 13.4868C45.2864 13.3519 45.2313 13.1557 45.239 12.9948L45.7012 8.04948L41.9367 11.2241C41.8019 11.3467 41.6057 11.4018 41.4141 11.3604C41.2226 11.319 41.0663 11.2147 40.9759 11.0814L36.3844 3.89457L36.1038 12.4612C36.0945 12.6543 35.9888 12.8428 35.8539 12.9654C35.6868 13.0864 35.4922 13.1094 35.3006 13.068L30.9669 11.9576L32.1081 14.3991C32.2537 14.7286 32.1065 15.1086 31.8091 15.2557C31.4796 15.4012 31.0996 15.254 30.9525 14.9567L29.2583 11.263C29.1403 11.0316 29.1848 10.7757 29.355 10.5903C29.5251 10.4049 29.755 10.3191 30.0109 10.3636L34.8871 11.5967L35.1312 1.77027Z" />
</svg>
