<svg   viewBox="0 0 49 42"  xmlns="http://www.w3.org/2000/svg">
<path fill-rule="evenodd" clip-rule="evenodd" d="M38.3364 5.45938C38.3364 4.54576 39.0765 3.80569 39.9901 3.80569H43.153C44.0666 3.80569 44.8067 4.54576 44.8067 5.45938V33.6163C44.8067 34.0305 44.4709 34.3663 44.0567 34.3663H39.0626C38.6484 34.3663 38.3126 34.0305 38.3126 33.6163C38.3126 33.5514 38.3209 33.4883 38.3364 33.4282V5.45938ZM39.8364 32.8663H43.3067V5.45938C43.3067 5.37419 43.2382 5.30569 43.153 5.30569H39.9901C39.9049 5.30569 39.8364 5.37419 39.8364 5.45938V32.8663Z" />
<path fill-rule="evenodd" clip-rule="evenodd" d="M39.0627 32.8663C39.4769 32.8663 39.8127 33.2021 39.8127 33.6163V35.2729L40.9171 37.908H42.2023L43.3067 35.2729V33.6163C43.3067 33.2021 43.6425 32.8663 44.0567 32.8663C44.4709 32.8663 44.8067 33.2021 44.8067 33.6163V35.4237C44.8067 35.5233 44.7869 35.6218 44.7484 35.7136L43.3929 38.9479C43.2761 39.2266 43.0034 39.408 42.7012 39.408H40.4182C40.116 39.408 39.8433 39.2266 39.7265 38.9479L38.3709 35.7136C38.3325 35.6218 38.3127 35.5232 38.3127 35.4237V33.6163C38.3127 33.2021 38.6484 32.8663 39.0627 32.8663Z" />
<path fill-rule="evenodd" clip-rule="evenodd" d="M41.5597 37.908C41.9739 37.908 42.3097 38.2437 42.3097 38.658V41.0361C42.3097 41.4503 41.9739 41.7861 41.5597 41.7861C41.1455 41.7861 40.8097 41.4503 40.8097 41.0361V38.658C40.8097 38.2437 41.1455 37.908 41.5597 37.908Z" />
<path fill-rule="evenodd" clip-rule="evenodd" d="M43.3067 8.62228C43.3067 8.20807 43.6425 7.87228 44.0567 7.87228H45.222C46.7777 7.87228 48.0409 9.13554 48.0409 10.6912V19.4903C48.0409 19.9045 47.7052 20.2403 47.2909 20.2403C46.8767 20.2403 46.5409 19.9045 46.5409 19.4903V10.6912C46.5409 9.96396 45.9493 9.37228 45.222 9.37228H44.0567C43.6425 9.37228 43.3067 9.0365 43.3067 8.62228Z" />
<path fill-rule="evenodd" clip-rule="evenodd" d="M38.3127 12.9742C38.3127 12.56 38.6484 12.2242 39.0627 12.2242H44.0567C44.4709 12.2242 44.8067 12.56 44.8067 12.9742C44.8067 13.3885 44.4709 13.7242 44.0567 13.7242H39.0627C38.6484 13.7242 38.3127 13.3885 38.3127 12.9742Z" />
<path fill-rule="evenodd" clip-rule="evenodd" d="M30.7978 4.10385C30.7978 3.68964 31.1336 3.35385 31.5478 3.35385H35.5082V33.8066C35.5082 38.216 31.9382 41.7861 27.5287 41.7861H2.87863V37.8494C2.87863 37.4352 3.21442 37.0994 3.62863 37.0994C4.04285 37.0994 4.37863 37.4352 4.37863 37.8494V40.2861H27.5287C31.1098 40.2861 34.0082 37.3876 34.0082 33.8066V4.85385H31.5478C31.1336 4.85385 30.7978 4.51806 30.7978 4.10385Z" />
<path fill-rule="evenodd" clip-rule="evenodd" d="M0.262695 0.286072H32.2978V31.3096C32.2978 32.8177 31.0583 34.0572 29.5501 34.0572H27.7793V35.828C27.7793 37.3361 26.5399 38.5756 25.0317 38.5756H0.262695V0.286072ZM1.7627 1.78607V37.0756H25.0317C25.7114 37.0756 26.2793 36.5077 26.2793 35.828V32.5572H29.5501C30.2299 32.5572 30.7978 31.9893 30.7978 31.3096V1.78607H1.7627Z" />
<path d="M8.8584 17.9626H6.51465C6.30745 17.9626 6.10873 18.0449 5.96222 18.1914C5.81571 18.3379 5.7334 18.5366 5.7334 18.7438C5.7334 18.951 5.81571 19.1497 5.96222 19.2962C6.10873 19.4427 6.30745 19.5251 6.51465 19.5251H8.8584C9.0656 19.5251 9.26431 19.4427 9.41083 19.2962C9.55734 19.1497 9.63965 18.951 9.63965 18.7438C9.63965 18.5366 9.55734 18.3379 9.41083 18.1914C9.26431 18.0449 9.0656 17.9626 8.8584 17.9626Z" />
<path d="M11.9834 17.9626C11.7762 17.9626 11.5775 18.0449 11.431 18.1914C11.2845 18.3379 11.2021 18.5366 11.2021 18.7438C11.2021 18.951 11.2845 19.1497 11.431 19.2962C11.5775 19.4427 11.7762 19.5251 11.9834 19.5251H12.7646C12.9718 19.5251 13.1706 19.4427 13.3171 19.2962C13.4636 19.1497 13.5459 18.951 13.5459 18.7438C13.5459 18.5366 13.4636 18.3379 13.3171 18.1914C13.1706 18.0449 12.9718 17.9626 12.7646 17.9626H11.9834Z" />
<path d="M15.1084 18.7438C15.1084 18.951 15.1907 19.1497 15.3372 19.2962C15.4837 19.4427 15.6824 19.5251 15.8896 19.5251H22.9209C23.1281 19.5251 23.3268 19.4427 23.4733 19.2962C23.6198 19.1497 23.7021 18.951 23.7021 18.7438C23.7021 18.5366 23.6198 18.3379 23.4733 18.1914C23.3268 18.0449 23.1281 17.9626 22.9209 17.9626H15.8896C15.6824 17.9626 15.4837 18.0449 15.3372 18.1914C15.1907 18.3379 15.1084 18.5366 15.1084 18.7438Z" />
<path d="M20.8896 22.0251L19.3848 23.1536C18.5247 22.0766 17.2886 21.3653 15.9253 21.1626C14.562 20.9599 13.1725 21.2808 12.0362 22.0609C10.8999 22.841 10.1011 24.0224 9.80035 25.3675C9.49964 26.7126 9.71934 28.1217 10.4153 29.3114C11.1112 30.5011 12.2318 31.3832 13.5516 31.7803C14.8715 32.1775 16.2928 32.0602 17.5297 31.452C18.7665 30.8439 19.7273 29.79 20.2188 28.5023C20.7103 27.2146 20.696 25.7886 20.1789 24.511L21.8271 23.2751C21.9929 23.1507 22.1025 22.9657 22.1318 22.7605C22.1611 22.5554 22.1077 22.3471 21.9834 22.1813C21.8591 22.0156 21.674 21.906 21.4689 21.8767C21.2637 21.8474 21.0554 21.9007 20.8896 22.0251ZM15.1084 30.4626C14.449 30.463 13.8002 30.2964 13.2225 29.9785C12.6448 29.6606 12.157 29.2016 11.8046 28.6443C11.4521 28.087 11.2464 27.4495 11.2068 26.7913C11.1671 26.1331 11.2947 25.4756 11.5777 24.88C11.8606 24.2844 12.2898 23.7701 12.8251 23.3851C13.3604 23.0001 13.9845 22.7568 14.6392 22.678C15.2938 22.5993 15.9578 22.6875 16.5692 22.9345C17.1806 23.1815 17.7195 23.5792 18.1357 24.0907L15.1816 26.306L14.0983 25.2226C13.9518 25.0761 13.7531 24.9938 13.5459 24.9938C13.3387 24.9938 13.1399 25.0761 12.9934 25.2226C12.8469 25.3691 12.7646 25.5679 12.7646 25.7751C12.7646 25.9823 12.8469 26.181 12.9934 26.3275L14.5559 27.89C14.6889 28.023 14.8654 28.1035 15.053 28.1169C15.2406 28.1302 15.4267 28.0754 15.5771 27.9626L18.867 25.4952C19.0314 26.076 19.0589 26.687 18.9473 27.2803C18.8357 27.8736 18.5881 28.4328 18.2239 28.9142C17.8596 29.3956 17.3887 29.786 16.8481 30.0546C16.3075 30.3233 15.712 30.4629 15.1084 30.4626Z" />
<path d="M23.7021 25.7751C23.4949 25.7751 23.2962 25.8574 23.1497 26.0039C23.0032 26.1504 22.9209 26.3491 22.9209 26.5563C22.9209 26.7635 23.0032 26.9622 23.1497 27.1087C23.2962 27.2552 23.4949 27.3376 23.7021 27.3376H26.0459C26.2531 27.3376 26.4518 27.2552 26.5983 27.1087C26.7448 26.9622 26.8271 26.7635 26.8271 26.5563C26.8271 26.3491 26.7448 26.1504 26.5983 26.0039C26.4518 25.8574 26.2531 25.7751 26.0459 25.7751H23.7021Z" />
<path d="M22.9209 29.6813C22.9209 29.8885 23.0032 30.0872 23.1497 30.2337C23.2962 30.3802 23.4949 30.4626 23.7021 30.4626H27.6084C27.8156 30.4626 28.0143 30.3802 28.1608 30.2337C28.3073 30.0872 28.3896 29.8885 28.3896 29.6813C28.3896 29.4741 28.3073 29.2754 28.1608 29.1289C28.0143 28.9824 27.8156 28.9001 27.6084 28.9001H23.7021C23.4949 28.9001 23.2962 28.9824 23.1497 29.1289C23.0032 29.2754 22.9209 29.4741 22.9209 29.6813Z" />
<path d="M23.501 9.47424L20.7246 8.7801L19.3228 5.97648C19.2579 5.84672 19.1581 5.7376 19.0347 5.66132C18.9113 5.58505 18.7691 5.54465 18.624 5.54465H10.8115C10.6664 5.54465 10.5242 5.58505 10.4008 5.66132C10.2774 5.7376 10.1777 5.84672 10.1128 5.97648L8.69502 8.81203L6.6582 9.49094C6.50264 9.54279 6.36734 9.64228 6.27147 9.77531C6.1756 9.90834 6.12401 10.0682 6.12402 10.2321V13.3571C6.12402 13.5643 6.20633 13.7631 6.35285 13.9096C6.49936 14.0561 6.69807 14.1384 6.90527 14.1384H8.60215C8.76385 14.5951 9.06311 14.9905 9.45877 15.2702C9.85442 15.5498 10.327 15.7 10.8115 15.7C11.296 15.7 11.7686 15.5498 12.1643 15.2702C12.5599 14.9905 12.8592 14.5951 13.0209 14.1384H17.1959C17.3576 14.5951 17.6569 14.9905 18.0525 15.2702C18.4482 15.5498 18.9208 15.7 19.4053 15.7C19.8898 15.7 20.3624 15.5498 20.758 15.2702C21.1537 14.9905 21.453 14.5951 21.6146 14.1384H23.3115C23.5187 14.1384 23.7174 14.0561 23.864 13.9096C24.0105 13.7631 24.0928 13.5643 24.0928 13.3571V10.2321C24.0928 10.0579 24.0345 9.88869 23.9273 9.75136C23.8201 9.61403 23.67 9.51649 23.501 9.47424ZM18.9225 8.66965H15.499V7.10715H18.1412L18.9225 8.66965ZM11.2943 7.10715H13.9365V8.66965H10.5131L11.2943 7.10715ZM10.8115 14.1384C10.657 14.1384 10.506 14.0926 10.3775 14.0067C10.249 13.9209 10.1489 13.7989 10.0897 13.6561C10.0306 13.5134 10.0151 13.3563 10.0453 13.2047C10.0754 13.0532 10.1498 12.914 10.2591 12.8047C10.3684 12.6955 10.5076 12.6211 10.6591 12.5909C10.8107 12.5608 10.9677 12.5762 11.1105 12.6354C11.2532 12.6945 11.3753 12.7946 11.4611 12.9231C11.547 13.0516 11.5928 13.2026 11.5928 13.3571C11.5925 13.5643 11.5102 13.7629 11.3637 13.9093C11.2172 14.0558 11.0187 14.1382 10.8115 14.1384ZM19.4053 14.1384C19.2508 14.1384 19.0997 14.0926 18.9712 14.0067C18.8428 13.9209 18.7426 13.7989 18.6835 13.6561C18.6244 13.5134 18.6089 13.3563 18.639 13.2047C18.6692 13.0532 18.7436 12.914 18.8528 12.8047C18.9621 12.6955 19.1013 12.6211 19.2529 12.5909C19.4044 12.5608 19.5615 12.5762 19.7042 12.6354C19.847 12.6945 19.969 12.7946 20.0549 12.9231C20.1407 13.0516 20.1865 13.2026 20.1865 13.3571C20.1863 13.5643 20.1039 13.7629 19.9574 13.9093C19.811 14.0558 19.6124 14.1382 19.4053 14.1384ZM22.5303 12.5759H21.6146C21.453 12.1192 21.1537 11.7238 20.758 11.4441C20.3624 11.1645 19.8898 11.0143 19.4053 11.0143C18.9208 11.0143 18.4482 11.1645 18.0525 11.4441C17.6569 11.7238 17.3576 12.1192 17.1959 12.5759H13.0209C12.8592 12.1192 12.5599 11.7238 12.1643 11.4441C11.7686 11.1645 11.296 11.0143 10.8115 11.0143C10.327 11.0143 9.85442 11.1645 9.45877 11.4441C9.06311 11.7238 8.76385 12.1192 8.60215 12.5759H7.68652V10.7952L9.37598 10.2321H20.0905L22.5303 10.8421V12.5759Z" />
</svg>
