<svg  viewBox="0 0 76 50"  xmlns="http://www.w3.org/2000/svg">
<path fill-rule="evenodd" clip-rule="evenodd" d="M51.4803 23.2527C51.481 23.2527 51.4817 23.2526 51.4824 23.2526L68.4964 21.9312C69.8847 21.762 70.8261 22.9021 70.7805 24.1101C70.78 24.1215 70.7794 24.1329 70.7784 24.1443L69.3198 41.6013C69.2853 42.0141 68.9227 42.3208 68.5099 42.2863C68.0972 42.2518 67.7905 41.8892 67.825 41.4764L69.282 24.0391C69.2863 23.8269 69.2087 23.6585 69.1063 23.5555C69.0096 23.4583 68.8694 23.395 68.6699 23.4212C68.6568 23.4229 68.6436 23.4243 68.6305 23.4253L51.5942 24.7484L51.5899 24.7487C50.1758 24.8503 48.7991 25.1391 47.3929 25.6316L31.2809 31.2752C30.9119 31.426 30.7897 31.847 30.9131 32.0976L35.8309 41.1818C36.0281 41.5461 35.8927 42.0012 35.5284 42.1984C35.1641 42.3956 34.709 42.2602 34.5118 41.8959L29.5889 32.8023L29.5809 32.7872C29.0137 31.6802 29.6071 30.3185 30.7453 29.8739C30.7535 29.8707 30.7618 29.8676 30.7702 29.8647L46.8971 24.216C48.4223 23.6817 49.9287 23.3643 51.4803 23.2527Z" />
<path fill-rule="evenodd" clip-rule="evenodd" d="M30.0387 8.41846C29.9615 8.01288 30.2245 7.60848 30.6262 7.51523L59.6988 0.765119C60.1004 0.671864 60.4886 0.92506 60.5658 1.33065L60.9994 3.60843C61.0665 3.96125 60.8757 4.32189 60.545 4.46734L55.3853 6.73621L55.6261 8.00129L54.1716 8.339L53.815 6.46573C53.7478 6.11291 53.9386 5.75226 54.2694 5.60681L59.4291 3.33794L59.2511 2.40274L31.633 8.81514L31.811 9.75034L37.3612 9.53259C37.717 9.51863 38.0231 9.7639 38.0902 10.1167L38.4468 11.99L36.9923 12.3277L36.7515 11.0626L31.2014 11.2804C30.8456 11.2943 30.5395 11.0491 30.4723 10.6962L30.0387 8.41846Z" />
<path fill-rule="evenodd" clip-rule="evenodd" d="M41.8784 1.92618C42.2795 1.82851 42.6645 2.07896 42.7383 2.48558L43.0439 4.16946L46.9465 3.21916L46.6408 1.53528C46.567 1.12866 46.8324 0.719857 47.2335 0.622186C47.6346 0.524515 48.0195 0.774967 48.0933 1.18159L48.5326 3.60171C48.6064 4.00833 48.3411 4.41714 47.94 4.51481L42.5849 5.81881C42.1838 5.91648 41.7988 5.66602 41.725 5.2594L41.2858 2.83928C41.212 2.43266 41.4773 2.02385 41.8784 1.92618Z" />
<path fill-rule="evenodd" clip-rule="evenodd" d="M49.3017 24.1143C49.7071 24.029 50.1047 24.2886 50.19 24.6939L51.5679 31.2479C51.6531 31.6532 51.3936 32.0509 50.9882 32.1361C50.5829 32.2213 50.1852 31.9618 50.0999 31.5565L48.7221 25.0025C48.6368 24.5972 48.8964 24.1995 49.3017 24.1143Z" />
<path d="M56.7973 30.7515C57.5614 30.563 58.0285 29.5593 57.8404 28.5098C57.6524 27.4602 56.8804 26.7622 56.1163 26.9507C55.3521 27.1392 54.8851 28.1428 55.0731 29.1924C55.2612 30.242 56.0331 30.94 56.7973 30.7515Z" />
<path d="M45.0002 33.232C45.7643 33.0435 46.2314 32.0398 46.0433 30.9903C45.8553 29.9407 45.0833 29.2427 44.3192 29.4312C43.555 29.6197 43.088 30.6233 43.276 31.6729C43.4641 32.7224 44.236 33.4204 45.0002 33.232Z" />
<path fill-rule="evenodd" clip-rule="evenodd" d="M51.5431 18.8579L60.8629 16.8987L61.1694 18.3567L51.8496 20.3158L51.5431 18.8579Z" />
<path fill-rule="evenodd" clip-rule="evenodd" d="M59.5637 18.3094C59.4915 17.9025 59.7576 17.4919 60.158 17.3921L68.1921 15.3907C68.5924 15.2909 68.9755 15.5399 69.0477 15.9467L69.698 19.612L68.248 19.9732L67.7284 17.0445L61.1443 18.6848L61.456 20.442L60.0061 20.8032L59.5637 18.3094Z" />
<path fill-rule="evenodd" clip-rule="evenodd" d="M43.6954 20.7407L52.3565 18.6998C52.7574 18.6053 53.1441 18.8575 53.2201 19.263L53.5631 21.0918L52.1112 21.4339L51.9059 20.3395L43.9709 22.2093L43.6954 20.7407Z" />
<path fill-rule="evenodd" clip-rule="evenodd" d="M35.8306 22.394L44.4917 20.3531C44.8926 20.2586 45.2793 20.5108 45.3553 20.9163L45.6983 22.7451L44.2464 23.0872L44.0411 21.9928L36.1061 23.8627L35.8306 22.394Z" />
<path fill-rule="evenodd" clip-rule="evenodd" d="M28.1046 24.9231C28.0324 24.5163 28.2985 24.1057 28.6989 24.0059L36.733 22.0044C37.1334 21.9047 37.5165 22.1536 37.5886 22.5604L38.0311 25.0543L36.5811 25.4155L36.2694 23.6583L29.6852 25.2985L30.2048 28.2272L28.7548 28.5884L28.1046 24.9231Z" />
<path fill-rule="evenodd" clip-rule="evenodd" d="M50.0443 11.7226C49.9598 11.3206 50.2164 10.9263 50.6174 10.842L58.4821 9.18868C58.8831 9.10438 59.2767 9.36197 59.3612 9.76403C59.4458 10.1661 59.1892 10.5603 58.7882 10.6446L50.9235 12.298C50.5225 12.3823 50.1289 12.1247 50.0443 11.7226Z" />
<path fill-rule="evenodd" clip-rule="evenodd" d="M57.9121 10.6288C57.8435 10.2211 58.1116 9.80558 58.511 9.70068L66.7938 7.52491C67.1932 7.42 67.5725 7.66546 67.6411 8.07316L69.0006 16.1536L67.5544 16.5335L66.3191 9.19125L59.4825 10.9871L60.7178 18.3294L59.2716 18.7093L57.9121 10.6288Z" />
<path fill-rule="evenodd" clip-rule="evenodd" d="M42.0583 13.1973L51.0643 10.8315C51.4636 10.7266 51.843 10.9721 51.9116 11.3798L53.2711 19.4603L51.8249 19.8402L50.5896 12.4979L42.3067 14.6737L42.0583 13.1973Z" />
<path fill-rule="evenodd" clip-rule="evenodd" d="M34.1936 14.8506L43.1995 12.4849C43.5989 12.38 43.9782 12.6254 44.0468 13.0331L45.4063 21.1136L43.9601 21.4935L42.7248 14.1512L34.442 16.327L34.1936 14.8506Z" />
<path fill-rule="evenodd" clip-rule="evenodd" d="M26.453 17.2426C26.3844 16.8349 26.6526 16.4194 27.0519 16.3144L35.3347 14.1387C35.7341 14.0338 36.1135 14.2792 36.1821 14.6869L37.5416 22.7674L36.0954 23.1473L34.86 15.805L28.0234 17.6009L29.2587 24.9432L27.8125 25.3231L26.453 17.2426Z" />
<path fill-rule="evenodd" clip-rule="evenodd" d="M3.8912 42.1538C3.8912 41.7396 4.22699 41.4038 4.6412 41.4038H74.9752C75.3894 41.4038 75.7252 41.7396 75.7252 42.1538C75.7252 42.568 75.3894 42.9038 74.9752 42.9038H4.6412C4.22699 42.9038 3.8912 42.568 3.8912 42.1538Z" />
<path fill-rule="evenodd" clip-rule="evenodd" d="M11.075 16.7038C11.4482 16.6403 11.8081 16.7461 12.0983 16.9519L26.2071 26.9584C26.4973 27.1642 26.7161 27.4688 26.7796 27.842C26.8431 28.2152 26.7373 28.5751 26.5315 28.8653L17.2398 41.9663C17.034 42.2565 16.7293 42.4753 16.3561 42.5388C15.9829 42.6023 15.6231 42.4965 15.3329 42.2907L1.22405 32.2842C0.933863 32.0784 0.715 31.7738 0.651513 31.4006C0.588024 31.0274 0.693849 30.6675 0.899658 30.3773L10.1914 17.2763C10.3972 16.9861 10.7018 16.7672 11.075 16.7038ZM11.3384 18.2519L2.19968 31.1372L16.0928 40.9907L25.2315 28.1054L11.3384 18.2519Z" />
<path fill-rule="evenodd" clip-rule="evenodd" d="M17.1371 20.5257C17.475 20.7653 17.5546 21.2335 17.315 21.5713L15.6046 23.9829L18.4122 25.9741L20.1225 23.5625C20.3622 23.2247 20.8303 23.145 21.1682 23.3847C21.506 23.6243 21.5857 24.0924 21.3461 24.4303L19.2018 27.4536C18.9622 27.7915 18.494 27.8711 18.1562 27.6315L14.1251 24.7725C13.7872 24.5329 13.7076 24.0647 13.9472 23.7269L16.0914 20.7036C16.3311 20.3657 16.7992 20.2861 17.1371 20.5257Z" />
<path fill-rule="evenodd" clip-rule="evenodd" d="M13.198 34.3936L16.4371 36.6908L15.5693 37.9143L12.3303 35.6171L13.198 34.3936Z" />
</svg>
