<svg  viewBox="0 0 90 53"  xmlns="http://www.w3.org/2000/svg">
<path d="M5.28258 46.3115H18.0847C18.5063 46.3115 18.8513 45.9665 18.8513 45.5449C18.8513 45.1233 18.5063 44.7783 18.0847 44.7783H5.28258C4.86096 44.7783 4.51599 45.1233 4.51599 45.5449C4.51599 45.9665 4.86096 46.3115 5.28258 46.3115Z" />
<path d="M43.8806 36.9205C43.7656 36.8822 43.6889 36.8055 43.6506 36.7672L43.4206 34.7357C43.1906 32.9342 41.3125 31.1328 39.1277 30.6728L19.1196 26.4565C18.468 26.3032 17.4331 25.9199 16.8582 25.575L7.65907 20.0938C6.04923 19.1356 3.17451 17.909 1.18137 17.5257C0.759746 17.4491 0.376455 17.7174 0.299795 18.139C0.223136 18.5606 0.491446 18.9439 0.913072 19.0206C2.71456 19.3656 5.43596 20.5155 6.89248 21.397L16.0916 26.8782C16.8199 27.2998 18.0081 27.7597 18.813 27.9514L38.821 32.1677C40.3542 32.4743 41.7341 33.7392 41.8874 34.9274L42.1174 36.9589C42.1941 37.7254 42.8073 38.2237 43.3823 38.4154C44.3405 38.722 44.8005 39.6803 44.5322 40.7918L44.1872 42.095C43.8039 43.5899 42.1557 44.8548 40.6225 44.8548H37.7478C37.3262 44.8548 36.9812 45.1997 36.9812 45.6213C36.9812 46.043 37.3262 46.3879 37.7478 46.3879H40.6225C42.884 46.3879 45.0688 44.6631 45.6437 42.4783L45.9887 41.1751C46.5636 39.2203 45.682 37.4955 43.8806 36.9205Z" />
<path d="M10.9554 28.2202C11.3387 28.2202 11.6836 27.9136 11.722 27.5303C11.7603 27.1087 11.4537 26.7254 11.032 26.6871L2.52287 25.8821C2.10125 25.8438 1.71796 26.1505 1.67963 26.5721C1.6413 26.9937 1.94793 27.377 2.36955 27.4153L10.8787 28.2202C10.9171 28.2202 10.9554 28.2202 10.9554 28.2202Z" />
<path d="M28.0503 52.4852C32.3432 52.4852 35.7929 48.9972 35.7929 44.7426C35.7929 40.4497 32.3049 37 28.0503 37C23.7574 37 20.3077 40.488 20.3077 44.7426C20.3077 49.0355 23.7957 52.4852 28.0503 52.4852ZM28.0503 38.5332C31.4617 38.5332 34.2597 41.3313 34.2597 44.7426C34.2597 48.1539 31.4617 50.952 28.0503 50.952C24.639 50.952 21.8409 48.1539 21.8409 44.7426C21.8409 41.3313 24.639 38.5332 28.0503 38.5332Z" />
<path d="M55.0345 32.6657C54.8812 32.3973 54.5746 32.244 54.3063 32.2824L49.4767 32.7423L48.3652 28.4494C48.2885 28.1428 48.0586 27.9511 47.7519 27.8745C47.4453 27.8361 47.1386 27.9511 46.9853 28.1811L45.1838 30.7875C44.9538 31.1325 45.0305 31.6308 45.3755 31.8607C45.7204 32.0907 46.2187 32.014 46.4487 31.6691L47.292 30.4425L48.1352 33.7389C48.2119 34.1222 48.5568 34.3522 48.9401 34.3138L52.6581 33.9305L50.205 37.1119C49.975 37.4185 50.0134 37.8785 50.2817 38.1468L52.2748 40.0249L51.0099 40.5999C50.6266 40.7532 50.435 41.2132 50.6266 41.5964C50.7416 41.9031 51.0483 42.0564 51.3166 42.0564C51.4316 42.0564 51.5082 42.0181 51.6232 41.9797L53.9613 40.9449C54.1913 40.8299 54.3829 40.6382 54.4213 40.3699C54.4596 40.1016 54.3829 39.8716 54.1913 39.68L51.8532 37.4952L54.9579 33.4706C55.1495 33.2789 55.1879 32.934 55.0345 32.6657Z" />
<path d="M63.9584 0.49907C64.0865 -0.0053416 64.7913 -0.160546 65.1587 0.187369C65.4122 0.359386 65.3979 0.691782 65.4742 0.956922C66.0938 3.70144 68.6145 6.0282 71.4961 6.01656C72.9576 6.02044 74.4191 6.01656 75.8806 6.01785C77.637 6.02303 79.3585 5.20174 80.4992 3.87345C81.3218 2.94482 81.8896 1.79631 82.1392 0.581845C82.2129 -0.0868235 83.3188 -0.222625 83.5374 0.41759C84.1414 2.91895 83.5257 5.66865 81.9388 7.69276C83.2244 6.74602 84.9264 6.34637 86.4836 6.7499C86.8509 6.83008 87.1148 7.16377 87.1652 7.52721C87.4239 8.88524 87.1846 10.3506 86.4332 11.5198C85.7167 12.6632 84.5604 13.5194 83.2567 13.8724C83.6628 14.2954 84.162 14.6161 84.5604 15.0481C86.86 17.2274 88.4689 20.1181 89.1247 23.217C89.9951 27.2109 89.2346 31.5424 87.0217 34.984C84.3716 39.2392 82.8027 44.1785 82.6268 49.1955C82.5997 49.9353 82.5932 50.6751 82.5984 51.4149C82.6165 51.8197 82.2505 52.1715 81.8469 52.1418C80.2884 52.1444 78.7299 52.1457 77.1714 52.1405C76.7821 52.1547 76.4795 51.7667 76.4859 51.3981C76.4808 48.285 76.4846 45.1731 76.4833 42.06C74.6662 42.3601 72.805 42.3562 70.9866 42.0639C70.984 45.1783 70.9917 48.294 70.984 51.4097C71.0085 51.8249 70.6115 52.1935 70.1989 52.1431C68.687 52.1444 67.1737 52.1418 65.6618 52.147C65.1781 52.2039 64.812 51.7227 64.8702 51.2688C65.0241 45.856 63.6596 40.398 60.8802 35.7445C60.3629 34.8702 59.8015 34.0179 59.4032 33.0802C57.9792 29.9567 57.63 26.3625 58.397 23.0191C59.2001 19.4093 61.3264 16.1177 64.2675 13.8802C63.0156 13.5284 61.8981 12.7446 61.1751 11.6608C60.315 10.3985 59.9813 8.76366 60.381 7.28018C60.4495 7.0021 60.6759 6.76412 60.9604 6.70592C62.5047 6.25583 64.2197 6.6322 65.5066 7.57635C64.0166 5.5794 63.4191 2.93577 63.9584 0.49907ZM65.4885 4.38046C65.8791 5.72943 66.6693 6.94907 67.7299 7.86736C68.0532 7.54014 68.3778 7.21421 68.7309 6.91803C67.466 6.3399 66.3641 5.45783 65.4885 4.38046ZM81.9413 4.39856C81.1149 5.47852 80.0181 6.33214 78.792 6.91415C79.1516 7.19223 79.4827 7.50651 79.7491 7.87771C80.7696 6.94649 81.6154 5.7553 81.9413 4.39856ZM68.374 9.74274C68.0933 10.4955 68.2278 11.3038 68.3623 12.0708C68.7464 14.6045 69.1358 17.1369 69.5108 19.6732C69.9363 19.5089 70.3864 19.4171 70.8443 19.4223C72.7391 19.4197 74.6351 19.4197 76.5299 19.421C76.9968 19.4132 77.4598 19.4947 77.8996 19.6525C78.3471 16.8291 78.814 14.007 79.2356 11.1797C79.4865 9.37672 77.9875 7.51557 76.1458 7.49358C74.5511 7.48582 72.9551 7.49099 71.359 7.49099C70.0127 7.50522 68.7723 8.4636 68.374 9.74274ZM61.7222 8.02644C61.5101 9.33792 62.008 10.7425 63.0156 11.6116C63.8925 12.3631 65.0992 12.7252 66.2425 12.5351C66.4417 10.9404 65.6204 9.27325 64.2119 8.49206C63.4656 8.05361 62.5745 7.92298 61.7222 8.02644ZM82.2207 9.3612C81.4473 10.2342 81.1653 11.437 81.2339 12.5804C82.6023 12.8248 84.0508 12.2157 84.9096 11.1396C85.6248 10.286 85.912 9.1258 85.7606 8.03032C84.4556 7.8596 83.073 8.3472 82.2207 9.3612ZM80.3091 13.7134C79.9922 15.8526 79.6547 17.9879 79.3184 20.122C79.2861 20.3755 79.1891 20.6613 79.3663 20.8851C79.7995 21.5731 80.022 22.4151 79.8603 23.2235C79.6223 24.672 78.2656 25.8451 76.7938 25.8555C74.7683 25.8568 72.7416 25.8542 70.7162 25.8568C69.2793 25.8619 67.9368 24.7587 67.6432 23.3541C67.4013 22.4255 67.7131 21.4529 68.233 20.6781C67.9096 18.3966 67.5423 16.1203 67.2177 13.8388C66.9836 13.91 66.7417 13.9656 66.527 14.0884C65.2427 14.8774 64.0464 15.8267 63.0531 16.9649C60.9785 19.2839 59.7123 22.2987 59.4769 25.3989C59.2312 28.4668 60.0214 31.6019 61.6756 34.1951C64.781 39.0788 66.4184 44.877 66.3421 50.6622C67.4143 50.7204 68.4904 50.6699 69.5639 50.6829C69.5742 47.4314 69.5419 44.1785 69.5884 40.927C69.6673 40.4963 70.2222 40.4187 70.5817 40.517C72.7041 40.9982 74.9326 41.0007 77.055 40.5131C77.3965 40.398 77.7056 40.605 77.9513 40.821C77.9604 44.1074 77.9526 47.3951 77.9552 50.6829C79.0106 50.6635 80.0673 50.6673 81.1226 50.6803C81.0606 44.8744 82.7005 39.0672 85.8137 34.164C87.9374 30.8414 88.5776 26.6341 87.5688 22.8238C86.6414 19.1985 84.2487 15.9716 81.0373 14.0483C80.8058 13.9112 80.5562 13.813 80.3091 13.7134ZM70.4951 20.9252C69.7191 21.0519 69.0801 21.7633 69.0375 22.5483C68.9456 23.4925 69.7604 24.4379 70.7201 24.4328C72.7054 24.4651 74.6907 24.4431 76.6761 24.4457C77.6112 24.4806 78.4376 23.6115 78.413 22.6893C78.4609 21.7477 77.6228 20.8644 76.6748 20.8967C74.6144 20.9071 72.5515 20.8501 70.4951 20.9252Z" />
<path d="M69.8626 10.0857C70.7123 9.79213 71.7095 10.5332 71.6203 11.4412C71.6203 12.2702 70.7447 12.9557 69.9402 12.7371C69.2211 12.5716 68.7115 11.771 68.9288 11.0493C69.0594 10.6044 69.4138 10.2189 69.8626 10.0857Z" />
<path d="M76.8493 10.0804C77.7417 9.79064 78.7014 10.6559 78.5811 11.5664C78.5022 12.3412 77.6835 12.94 76.9217 12.7369C76.1871 12.5817 75.6736 11.7579 75.9026 11.0323C76.0293 10.5835 76.394 10.2019 76.8493 10.0804Z" />
<path d="M70.5106 21.4692C71.2387 21.4343 72.1493 21.2429 72.7054 21.8494C73.2085 22.4004 73.0301 23.3717 72.364 23.708C71.8945 23.9447 71.3435 23.827 70.8378 23.8516C70.2739 23.8904 69.7216 23.4778 69.6001 22.9255C69.4332 22.2995 69.8885 21.6076 70.5106 21.4692Z" />
<path d="M75.428 21.4756C76.1354 21.4381 76.9865 21.2545 77.5594 21.7912C78.1777 22.3564 77.9138 23.5062 77.13 23.7765C76.6373 23.9071 76.1186 23.8528 75.6142 23.8451C74.8848 23.8489 74.2924 23.0354 74.5356 22.3448C74.6714 21.9425 74.9934 21.5545 75.428 21.4756Z" />
</svg>
