<svg  viewBox="0 0 81 52"  xmlns="http://www.w3.org/2000/svg">
<path d="M13.7458 8.81448C13.5415 8.50821 13.2759 8.2632 12.949 8.09985C12.6834 8.28361 12.2952 8.42654 12.2543 8.81448C11.8253 10.5296 11.3758 12.2243 10.9468 13.9394C9.0467 13.0614 7.2488 12.0405 5.34874 11.1421C5.08314 10.9992 4.77668 11.1829 4.49065 11.2034C4.47022 11.4892 4.30678 11.7751 4.42936 12.0609C5.06271 13.3677 5.77779 14.6336 6.452 15.9199C6.73803 16.4712 7.06492 17.0225 7.22837 17.6146C5.90037 17.88 4.63367 18.3088 3.30567 18.615C2.61103 18.8396 1.65078 18.8192 1.38518 19.6564C1.54863 19.983 1.7938 20.2281 2.10026 20.4322C3.3261 21.0448 4.47022 21.8207 5.73692 22.3719C5.94123 21.9636 6.16597 21.5552 6.37028 21.1264C5.75736 20.7793 5.124 20.4527 4.51108 20.1056C4.40893 20.0443 4.20462 19.9218 4.10247 19.8605C5.43046 19.5951 6.7176 19.1663 8.04559 18.8805C8.49507 18.7784 9.21015 18.6355 9.02627 18.0025C8.86282 17.1041 8.18861 16.3895 7.88215 15.532C7.53483 14.8582 7.14664 14.2048 6.81975 13.5106C8.22947 14.1844 9.63919 14.899 11.0285 15.6136C11.3145 15.777 11.6618 15.6545 11.9683 15.6136C12.4791 14.0414 12.7242 12.3876 13.2759 10.8154C13.4189 11.1013 13.5823 11.3871 13.7253 11.673C14.0114 12.1426 14.277 12.5918 14.563 13.0614C14.9716 12.8164 15.3598 12.5509 15.7684 12.3059C15.5232 11.8976 15.2781 11.4688 15.0329 11.04C14.6243 10.2846 14.1339 9.59036 13.7458 8.81448Z" />
<path d="M26.944 10.1824C25.5751 10.2028 24.2676 9.46775 22.9191 9.7536C22.6331 10.5703 22.5309 11.4279 22.3879 12.2854C22.2653 12.6938 22.2653 13.1225 22.2653 13.5513C23.0621 14.0414 24.0428 14.0414 24.9418 14.2659C24.7988 14.8581 24.6557 15.4502 24.5127 16.0423C23.8589 16.0219 23.1847 16.3077 22.9396 16.9407C22.7148 17.6145 22.4697 18.3087 22.4492 19.0233C22.4492 19.595 22.8783 20.0238 23.3482 20.2892C23.0009 21.453 22.4901 22.5556 22.1019 23.699C21.8976 24.2503 21.6933 24.7811 21.489 25.3324C19.8137 25.3937 18.1179 25.312 16.4426 25.3324C17.2394 24.5361 17.2598 23.3315 17.2394 22.2902C17.219 20.9426 17.4233 19.4521 16.5652 18.2883C15.278 16.3282 12.0091 16.3077 10.7424 18.2883C9.82305 19.5746 10.1091 21.2284 10.0886 22.6985C10.0478 23.6173 10.2112 24.5974 10.8242 25.3324C9.55745 25.3528 8.29074 25.3733 7.02404 25.3733C5.83906 25.3937 4.61321 25.2303 3.48952 25.7204C2.26368 26.3329 1.48732 27.6805 1.50775 29.0485C1.50775 30.6819 1.46688 32.3357 1.50775 33.9692C1.54861 35.0922 0.894823 36.1335 0.976547 37.2565C1.26258 37.624 1.56904 38.0936 2.07981 38.1753C2.83574 38.2773 3.63254 38.2569 4.38848 38.1957C4.98097 38.1344 5.51217 37.624 5.5326 37.0319C5.63475 36.0314 5.0014 35.133 5.10355 34.1121C5.38958 32.642 5.47131 31.1515 5.71647 29.6814C6.94232 29.7018 8.14773 29.661 9.37357 29.661C9.35314 33.6833 9.394 37.7056 9.35314 41.7075C9.00582 43.4226 8.47462 45.1173 8.06601 46.812C7.88213 47.7512 7.55524 48.6904 7.45308 49.6501C7.37136 50.5076 8.22945 51.1814 9.04668 51.0793C10.4155 51.0385 11.7844 51.1814 13.1328 51.0385C13.9296 50.8139 13.6232 49.8543 13.6027 49.2417C13.235 48.5271 12.6016 48.0371 11.8457 47.7716C11.9887 47.302 12.193 46.8733 12.3973 46.4241C13.0102 45.0152 13.7049 43.6472 14.2361 42.1976C14.4812 41.34 14.3382 40.4212 14.4404 39.5432C15.135 40.1558 15.3802 41.1358 15.748 41.9321C15.6458 43.0143 15.3802 44.0964 15.2372 45.1786C15.1146 45.7094 15.0942 46.2403 14.9716 46.7712C14.849 47.6696 14.6856 48.5475 14.5425 49.4459C14.3995 50.2014 15.0124 51.0181 15.8092 51.0589C16.9738 51.1406 18.1383 51.0385 19.3029 51.0998C19.7932 51.0793 20.5083 51.2223 20.7739 50.6914C20.8965 50.2218 20.7943 49.7318 20.7739 49.2621C20.3857 48.5475 19.7524 47.9758 18.9351 47.8125C19.0373 47.3429 19.1803 46.8733 19.3438 46.4241C19.405 46.2199 19.4663 46.0157 19.5276 45.8115C19.8545 44.7906 20.2223 43.7697 20.59 42.7693C20.6513 42.0342 20.7126 41.2584 20.4062 40.5641C19.6094 38.7061 18.9351 36.7868 18.1179 34.9288C17.934 34.4184 17.9953 33.8671 17.9953 33.3362C17.9953 32.1112 17.9953 30.8861 17.9953 29.661C19.405 29.6406 20.7943 29.7427 22.2041 29.6406C23.4503 29.5385 24.4923 28.7014 25.1052 27.6601C25.5751 26.0266 26.045 24.3932 26.4536 22.7394C26.7601 21.3101 27.1483 19.9421 27.516 18.5741C27.7816 17.4511 26.9031 16.4915 25.9429 16.0219C26.045 15.6544 26.1267 15.2868 26.2289 14.9193C26.2698 14.756 26.3311 14.5926 26.3719 14.4293C26.7805 14.6131 27.23 14.6335 27.6795 14.6947C28.129 14.7968 28.6193 14.9397 29.0688 14.7356C29.4161 14.3272 29.3957 13.7759 29.4774 13.2655C29.6 12.5304 29.8451 11.7954 29.7634 11.0399C29.4978 10.4682 28.7214 10.5499 28.1903 10.4682L28.1698 10.3661C27.7612 10.3457 27.373 10.3049 26.9644 10.2845L26.944 10.1824ZM25.616 11.4687C25.9633 11.53 26.3106 11.5912 26.6579 11.6525C27.1687 11.775 27.6999 11.8158 28.2107 11.8975C28.1698 12.3671 28.129 12.8163 28.0268 13.2655C26.5967 13.1838 25.2074 12.8367 23.7976 12.5917C23.8589 12.1017 23.9202 11.632 24.0428 11.1624C24.574 11.2849 25.0848 11.3666 25.616 11.4687ZM26.1063 18.0228C25.9837 19.2275 25.4321 20.3709 25.2278 21.5755C25.0439 21.5551 24.6762 21.4939 24.4923 21.4734C24.6762 20.8405 25.0031 20.2688 25.1052 19.6154C25.1665 19.2887 24.86 19.1254 24.6966 18.9008C24.4106 18.9008 24.145 18.9008 23.8589 18.9008C23.9815 18.4312 24.0837 17.9616 24.1858 17.492C24.8396 17.5532 25.8612 17.1857 26.1063 18.0228ZM15.748 19.6767C14.3587 19.6154 12.9694 19.5338 11.5801 19.6971C11.9478 18.8395 12.7855 18.1249 13.7662 18.2066C14.6856 18.2066 15.3802 18.9008 15.748 19.6767ZM15.3598 21.1263C15.9931 21.3101 15.9114 22.4331 15.2168 22.4535C14.1952 22.5352 13.1533 22.5352 12.1317 22.4739C11.3553 22.4535 11.3553 21.1263 12.1317 21.1059C13.1941 21.0243 14.2769 21.0447 15.3598 21.1263ZM24.9418 23.066C24.9009 23.1069 24.8192 23.1885 24.7783 23.2294C24.574 24.2911 24.2063 25.312 23.9611 26.3737C23.8385 26.9454 23.532 27.4967 23.0009 27.8234C22.1632 28.4155 21.0804 28.1297 20.1201 28.2113C15.3393 28.2318 10.5585 28.2113 5.77777 28.2113C5.10355 28.1909 4.4702 28.7014 4.34761 29.3752C4.14331 30.4165 4.08202 31.4782 3.89814 32.5195C3.57125 32.4991 3.26479 32.4991 2.9379 32.4787C2.95833 31.1719 2.8766 29.8856 2.97876 28.5993C3.10134 27.4355 4.28632 26.68 5.38958 26.7821C10.5586 26.7821 15.748 26.7821 20.9169 26.8025C21.5503 26.8229 22.3062 26.7413 22.6535 26.1287C23.1847 25.0466 23.5525 23.9236 23.9407 22.8006C24.288 22.8619 24.6149 22.964 24.9418 23.066ZM15.748 23.8623C15.3802 24.7199 14.5425 25.4141 13.5619 25.3324C12.6425 25.3324 11.9274 24.6382 11.5801 23.8623C12.9694 23.9236 14.3587 23.9236 15.748 23.8623ZM16.5243 29.6406C16.5243 30.1102 16.5243 30.5798 16.5243 31.0494C14.6243 31.0698 12.7038 31.0903 10.8037 31.0698C10.8037 30.5798 10.8037 30.1102 10.8037 29.6202C12.7242 29.5998 14.6243 29.6814 16.5243 29.6406ZM16.5243 32.4787C16.5243 32.9687 16.5243 33.4383 16.5243 33.9283C14.6243 33.9079 12.7038 33.9488 10.8037 33.8875C10.8037 33.4179 10.8037 32.9483 10.8037 32.4583C12.7038 32.5195 14.6243 32.4583 16.5243 32.4787ZM3.6734 33.9283C3.53039 34.9084 3.97986 35.8272 4.14331 36.7868C3.57125 36.7868 2.97876 36.7664 2.4067 36.746C2.67229 35.8272 2.97876 34.888 2.97876 33.9283C3.16263 33.9283 3.50996 33.9283 3.6734 33.9283ZM16.8103 35.4188C17.505 37.3177 18.3018 39.1961 19.0577 41.095C19.2416 41.6055 19.2416 42.1772 19.0577 42.6876C18.6695 43.8718 18.2201 45.0152 17.8932 46.2199C17.7297 47.0162 17.0759 47.8329 17.362 48.6496C17.934 49.1396 18.7717 49.1192 19.3846 49.5684C18.2405 49.6705 17.0964 49.6705 15.9318 49.6297C16.1361 48.6292 16.2587 47.6287 16.463 46.6282C16.5039 46.2199 16.5447 45.7911 16.6265 45.3828C16.7695 44.3619 16.9738 43.341 17.1372 42.3201C17.2803 41.585 16.8512 40.9317 16.5652 40.2987C16.2587 39.6453 15.9318 39.0124 15.6049 38.359C14.9307 38.1753 14.2156 38.1753 13.521 38.2569C13.235 38.2773 13.0102 38.5019 12.9898 38.7878C12.8877 39.5433 13.0102 40.3191 12.9489 41.095C12.9694 41.9117 12.4586 42.6059 12.193 43.3614C11.7435 44.464 11.1919 45.5257 10.7424 46.6282C10.5381 47.1795 10.1908 47.6696 10.0886 48.2413C10.0478 48.7925 10.6403 48.9559 11.0693 49.0988C11.4779 49.2213 11.8865 49.3642 12.2747 49.5684C11.151 49.7522 10.0069 49.6093 8.88323 49.6705C8.98539 49.1805 9.1284 48.6904 9.23056 48.2208C9.33271 47.8329 9.41443 47.445 9.49616 47.057C9.84348 45.5257 10.2725 44.0148 10.6607 42.5038C10.7629 42.1772 10.8037 41.8505 10.8037 41.5034C10.7833 39.4616 10.8037 37.4198 10.8037 35.378C12.8059 35.4393 14.8286 35.2351 16.8103 35.4188Z" />
<path d="M28.2336 3.60449C27.7717 3.76913 27.3291 3.92692 26.8672 4.09156C27.1072 4.76469 27.3403 5.4186 27.5802 6.09173C28.0229 5.93395 28.4916 5.78854 28.9342 5.63076C28.6943 4.95762 28.4543 4.28449 28.2336 3.60449Z" />
<path d="M32.6884 4.05396C32.2708 3.856 31.8271 3.64567 31.4095 3.44772C31.1053 4.0547 30.8204 4.65483 30.5616 5.26733C30.9792 5.46529 31.4036 5.68248 31.8405 5.87358C32.1254 5.27345 32.4296 4.66646 32.6884 4.05396Z" />
<path d="M34.6022 6.62329C33.9355 6.88263 33.2619 7.12273 32.5884 7.36283C32.746 7.80518 32.9298 8.2599 33.0875 8.70224C33.7542 8.44291 34.4085 8.20967 35.0889 7.9888C34.9244 7.52722 34.7667 7.08487 34.6022 6.62329Z" />
<path fill-rule="evenodd" clip-rule="evenodd" d="M40.3842 32.6936C40.3842 32.2794 40.72 31.9436 41.1342 31.9436H62.1967V33.4436H41.8842V50.6311H40.3842V32.6936Z" />
<path fill-rule="evenodd" clip-rule="evenodd" d="M45.853 37.3811C45.853 36.9669 46.1888 36.6311 46.603 36.6311H51.2592V38.1311H47.353V42.0374H45.853V37.3811Z" />
<path fill-rule="evenodd" clip-rule="evenodd" d="M54.4468 37.3811C54.4468 36.9669 54.7826 36.6311 55.1968 36.6311H59.853V38.1311H55.9468V42.0374H54.4468V37.3811Z" />
<path fill-rule="evenodd" clip-rule="evenodd" d="M45.853 45.9749C45.853 45.5606 46.1888 45.2249 46.603 45.2249H51.2592V46.7249H47.353V50.6311H45.853V45.9749Z" />
<path fill-rule="evenodd" clip-rule="evenodd" d="M54.4468 45.9749C54.4468 45.5606 54.7826 45.2249 55.1968 45.2249H59.853V46.7249H55.9468V50.6311H54.4468V45.9749Z" />
<path fill-rule="evenodd" clip-rule="evenodd" d="M45.7905 26.4749V33.4436H44.2905V26.4749H45.7905Z" />
<path fill-rule="evenodd" clip-rule="evenodd" d="M52.8218 26.4749V33.4436H51.3218V26.4749H52.8218Z" />
<path fill-rule="evenodd" clip-rule="evenodd" d="M59.853 26.4749V33.4436H58.353V26.4749H59.853Z" />
<path fill-rule="evenodd" clip-rule="evenodd" d="M66.8843 17.0999V50.6311H65.3843V17.0999H66.8843Z" />
<path fill-rule="evenodd" clip-rule="evenodd" d="M70.853 9.2561C70.853 8.84189 71.1888 8.5061 71.603 8.5061H79.4155C79.8297 8.5061 80.1655 8.84189 80.1655 9.2561V17.0686C80.1655 17.4828 79.8297 17.8186 79.4155 17.8186H73.1343V50.6936H71.6343V17.0686C71.6343 16.6544 71.9701 16.3186 72.3843 16.3186H78.6655V10.0061H72.353V11.5686H70.853V9.2561Z" />
<path fill-rule="evenodd" clip-rule="evenodd" d="M66.1343 0.693604C66.5485 0.693604 66.8843 1.02939 66.8843 1.4436V10.8186C66.8843 11.2328 66.5485 11.5686 66.1343 11.5686C65.7201 11.5686 65.3843 11.2328 65.3843 10.8186V1.4436C65.3843 1.02939 65.7201 0.693604 66.1343 0.693604Z" />
<path fill-rule="evenodd" clip-rule="evenodd" d="M35.0961 11.1118C35.2386 10.9455 35.4466 10.8499 35.6655 10.8499H62.228C62.4702 10.8499 62.6975 10.9668 62.8383 11.1639L66.7446 16.6327C66.9079 16.8613 66.9297 17.162 66.8011 17.4118C66.6726 17.6616 66.4152 17.8186 66.1343 17.8186H30.978C30.6851 17.8186 30.419 17.6481 30.2966 17.382C30.1742 17.1159 30.218 16.8029 30.4086 16.5805L35.0961 11.1118ZM36.0105 12.3499L32.6087 16.3186H64.6769L61.842 12.3499H36.0105Z" />
<path fill-rule="evenodd" clip-rule="evenodd" d="M65.7652 0.790681C65.9983 0.65897 66.2838 0.661436 66.5146 0.797153L79.7958 8.60965C80.1528 8.81967 80.272 9.27934 80.062 9.63637C79.852 9.99339 79.3923 10.1126 79.0353 9.90255L66.1268 2.30934L48.5346 12.2528C48.174 12.4566 47.7164 12.3295 47.5126 11.9689C47.3088 11.6083 47.4359 11.1507 47.7965 10.9469L65.7652 0.790681Z" />
<path fill-rule="evenodd" clip-rule="evenodd" d="M35.6655 16.3186C36.0797 16.3186 36.4155 16.6544 36.4155 17.0686V22.928C36.4155 23.3041 36.5931 23.5463 36.8177 23.6438C38.0294 24.1509 38.9762 25.481 38.6689 27.0477C38.4554 28.2958 37.429 29.3189 36.1794 29.5272L36.1731 29.5282L36.1731 29.5282C34.2095 29.8382 32.5717 28.2861 32.5717 26.4436C32.5717 26.0294 32.9075 25.6936 33.3217 25.6936C33.736 25.6936 34.0717 26.0294 34.0717 26.4436C34.0717 27.4126 34.9321 28.2035 35.9359 28.047C36.556 27.9422 37.0879 27.4094 37.1913 26.7891C37.1927 26.7811 37.1941 26.7732 37.1957 26.7653C37.3497 25.9952 36.8946 25.3008 36.2364 25.0265L36.2294 25.0236L36.2294 25.0236C35.3615 24.6516 34.9155 23.8004 34.9155 22.928V17.0686C34.9155 16.6544 35.2513 16.3186 35.6655 16.3186Z" />
</svg>
