<svg   viewBox="0 0 68 68"  xmlns="http://www.w3.org/2000/svg">
<path fill-rule="evenodd" clip-rule="evenodd" d="M57.7023 0.646317C59.7428 0.55563 61.563 2.37587 61.4723 4.41634C61.4607 4.68067 61.3939 5.08715 61.3243 5.473C61.2766 5.73737 61.2214 6.0242 61.1699 6.29183C61.1435 6.42896 61.1181 6.56105 61.0951 6.6825C61.0605 6.86577 61.0313 7.02553 61.0106 7.15227C61.0104 7.15379 61.0101 7.15531 61.0099 7.15682L61.1393 7.19294C61.0082 7.87056 60.5478 8.86775 59.9808 9.92801C59.3974 11.0193 58.6486 12.2711 57.8698 13.4946C56.3298 15.9137 54.6061 18.3254 53.7746 19.1568C53.4817 19.4497 53.0069 19.4497 52.714 19.1568C52.4211 18.8639 52.4211 18.389 52.714 18.0961C53.4118 17.3983 55.054 15.1245 56.6044 12.6891C57.3707 11.4853 58.0982 10.2678 58.6581 9.22073C59.0378 8.51045 59.3193 7.91655 59.4907 7.47249C59.4903 7.47 59.49 7.46761 59.4897 7.46533C59.4815 7.40081 59.482 7.34484 59.4828 7.31308C59.4882 7.11576 59.5579 6.7391 59.6212 6.40401C59.6461 6.27202 59.6726 6.13458 59.6995 5.99488C59.7499 5.73306 59.8018 5.4633 59.8481 5.20666C59.9216 4.79947 59.9675 4.49515 59.9738 4.35046C60.0253 3.1902 58.9295 2.0935 57.7693 2.14482C57.026 2.17863 56.137 2.28063 55.2078 2.45256C53.1588 2.84976 51.3709 3.84075 49.941 5.23619L30.3118 24.9365C25.2916 29.9567 20.7324 35.3644 16.6687 41.1949L13.5023 45.7133C13.2645 46.0525 12.7969 46.1348 12.4576 45.8971C12.1184 45.6593 12.0362 45.1916 12.2739 44.8524L15.4381 40.3373C15.4382 40.3371 15.4379 40.3374 15.4381 40.3373C19.5542 34.4316 24.171 28.956 29.2511 23.8758L48.8893 4.16655C50.5167 2.57701 52.5676 1.43574 54.9257 0.979328L54.9317 0.978202C55.9217 0.794855 56.8816 0.683622 57.7023 0.646317ZM60.9456 7.13889C60.9275 7.08589 60.8841 6.97937 60.7862 6.87526C60.6598 6.74087 60.4582 6.63126 60.2122 6.64199C60.0046 6.65105 59.8629 6.74276 59.8041 6.78645C59.7929 6.79474 59.7824 6.80312 59.7723 6.81151L60.9456 7.13889ZM32.4311 35.5046C32.7055 35.8149 32.6764 36.2889 32.3662 36.5633L17.3682 49.8279C17.058 50.1024 16.584 50.0733 16.3096 49.763C16.0351 49.4527 16.0642 48.9788 16.3745 48.7043L31.3724 35.4397C31.6827 35.1653 32.1567 35.1943 32.4311 35.5046Z" />
<path fill-rule="evenodd" clip-rule="evenodd" d="M21.5178 6.25438C21.6824 5.87428 22.124 5.69959 22.5041 5.8642L27.0209 7.82028C27.401 7.98489 27.5757 8.42647 27.4111 8.80657C27.2464 9.18667 26.8049 9.36136 26.4248 9.19675L21.908 7.24067C21.5279 7.07606 21.3532 6.63448 21.5178 6.25438Z" />
<path fill-rule="evenodd" clip-rule="evenodd" d="M30.9793 10.3775C31.1452 9.99794 31.5874 9.8248 31.9669 9.99074L40.1824 13.5828C40.562 13.7487 40.7351 14.1909 40.5692 14.5705C40.4032 14.95 39.961 15.1231 39.5815 14.9572L31.366 11.3651C30.9865 11.1992 30.8133 10.757 30.9793 10.3775Z" />
<path fill-rule="evenodd" clip-rule="evenodd" d="M8.9372 12.7441C9.23009 13.037 9.23009 13.5119 8.9372 13.8047L4.95391 17.788C4.66102 18.0809 4.18615 18.0809 3.89325 17.788C3.60036 17.4951 3.60036 17.0203 3.89325 16.7274L7.87654 12.7441C8.16943 12.4512 8.64431 12.4512 8.9372 12.7441Z" />
<path fill-rule="evenodd" clip-rule="evenodd" d="M16.6193 18.6479C16.9122 18.9408 16.9122 19.4157 16.6193 19.7086L12.636 23.6918C12.3431 23.9847 11.8682 23.9847 11.5753 23.6918C11.2824 23.3989 11.2824 22.9241 11.5753 22.6312L15.5586 18.6479C15.8515 18.355 16.3264 18.355 16.6193 18.6479Z" />
<path fill-rule="evenodd" clip-rule="evenodd" d="M28.7218 5.51972C29.6907 4.55521 31.265 4.55658 32.2323 5.52384L33.2992 6.59079C34.2679 7.55942 34.2679 9.13681 33.2992 10.1054L32.1967 11.208C31.9038 11.5008 31.4289 11.5008 31.1361 11.208C30.8432 10.9151 30.8432 10.4402 31.1361 10.1473L32.2386 9.04478C32.6214 8.66193 32.6214 8.03429 32.2386 7.65145L31.1716 6.5845C30.7888 6.20165 30.1611 6.20165 29.7783 6.5845L29.7707 6.59207L29.7707 6.59202L27.2455 9.04601C26.9485 9.33469 26.4737 9.3279 26.185 9.03086C25.8963 8.73381 25.9031 8.25898 26.2001 7.9703L28.7218 5.51972Z" />
<path fill-rule="evenodd" clip-rule="evenodd" d="M19.3641 1.2919C20.3327 0.323272 21.9101 0.323272 22.8787 1.2919L23.9457 2.35885C24.9143 3.32748 24.9143 4.90487 23.9457 5.8735L22.7365 7.08271C22.4436 7.37561 21.9687 7.37561 21.6758 7.08271C21.3829 6.78982 21.3829 6.31495 21.6758 6.02205L22.885 4.81284C23.2679 4.43 23.2679 3.80236 22.885 3.41951L21.8181 2.35256C21.4352 1.96972 20.8076 1.96972 20.4247 2.35256L17.4668 5.31049L14.4617 3.99839L14.4506 3.99311C13.7588 3.66367 13.0654 3.432 12.3324 3.26528C11.4046 3.0592 10.1857 2.87069 8.99368 2.94852C8.13281 3.00472 7.33068 3.19638 6.66369 3.5842L31.8972 22.1302C32.231 22.3755 32.3027 22.8449 32.0574 23.1787C31.8121 23.5124 31.3426 23.5841 31.0089 23.3388L4.27161 3.68765L4.8891 3.07015C6.00962 1.94963 7.50507 1.54252 8.89595 1.4517C10.2905 1.36065 11.6671 1.58084 12.6596 1.80139L12.6631 1.80217C13.4904 1.99019 14.2866 2.25472 15.0842 2.63345L17.1295 3.52647L19.3641 1.2919Z" />
<path fill-rule="evenodd" clip-rule="evenodd" d="M13.3223 44.6713C13.3226 44.6715 13.323 44.6718 12.8881 45.2828L13.3223 44.6713C13.6597 44.9115 13.7393 45.3802 13.4991 45.7177C13.2592 46.0548 12.7917 46.1338 12.4544 45.8947C12.4542 45.8945 12.4546 45.8949 12.4544 45.8947L12.4531 45.8938L12.4459 45.8888C12.4378 45.8833 12.4242 45.874 12.4052 45.8614C12.3671 45.8363 12.3076 45.798 12.2283 45.7498C12.0695 45.6535 11.8322 45.5184 11.5291 45.3712C10.9207 45.0758 10.0589 44.7373 9.04193 44.5589C7.32916 44.2585 5.15324 44.4037 2.95074 46.0464C3.06433 46.0808 3.18249 46.1189 3.30481 46.1614C4.46301 46.5636 5.98606 47.3495 7.51459 48.878C7.80748 49.1709 7.80748 49.6458 7.51459 49.9387C7.22169 50.2316 6.74682 50.2316 6.45392 49.9387C5.10168 48.5864 3.77952 47.9141 2.81272 47.5784C2.32803 47.4101 1.93071 47.3257 1.66171 47.2835C1.52726 47.2625 1.42508 47.252 1.36037 47.2468C1.32802 47.2442 1.30507 47.2429 1.29217 47.2424L1.28046 47.2419L1.283 47.2419C1.28335 47.2419 1.28435 47.242 1.29385 46.492L1.28435 47.242C0.982319 47.2381 0.712054 47.0535 0.59868 46.7735C0.485306 46.4935 0.55095 46.1729 0.765224 45.96C3.73911 43.0052 6.89621 42.6596 9.30108 43.0815C10.4892 43.2899 11.4856 43.6826 12.1843 44.0219C12.5346 44.192 12.813 44.35 13.0065 44.4675C13.1034 44.5263 13.1792 44.575 13.2324 44.6102C13.259 44.6278 13.28 44.642 13.2952 44.6524L13.3135 44.6651L13.3194 44.6692L13.3214 44.6707L13.3223 44.6713Z" />
<path fill-rule="evenodd" clip-rule="evenodd" d="M17.4898 49.3318C17.4895 49.3315 17.4893 49.3311 16.8824 49.7718L17.4898 49.3318C17.2464 48.9967 16.7769 48.9216 16.4417 49.1649C16.107 49.408 16.0323 49.8762 16.2746 50.2113C16.2748 50.2115 16.2745 50.211 16.2746 50.2113L16.2755 50.2125L16.2806 50.2197C16.2862 50.2277 16.2956 50.2413 16.3084 50.2602C16.3339 50.298 16.3728 50.3571 16.4217 50.4359C16.5195 50.5938 16.6568 50.8298 16.8069 51.1316C17.108 51.7371 17.4547 52.5957 17.6427 53.6109C17.9593 55.3208 17.8347 57.498 16.2129 59.7159C16.1775 59.6027 16.1382 59.4849 16.0946 59.363C15.6814 58.2086 14.8812 56.6931 13.3382 55.1791C13.0426 54.889 12.5677 54.8935 12.2776 55.1891C11.9875 55.4848 11.992 55.9596 12.2877 56.2497C13.6526 57.5891 14.3374 58.9049 14.6823 59.8684C14.8552 60.3515 14.9433 60.748 14.9881 61.0166C15.0104 61.1508 15.0219 61.2529 15.0277 61.3176C15.0306 61.3499 15.032 61.3728 15.0327 61.3857L15.0333 61.3974L15.0332 61.3949C15.0332 61.3946 15.0332 61.3936 15.783 61.377L15.0332 61.3936C15.0399 61.6955 15.2271 61.964 15.5081 62.0748C15.7891 62.1855 16.1092 62.1168 16.32 61.9005C19.2466 58.8988 19.5622 55.7386 19.1176 53.3378C18.898 52.1517 18.4958 51.1591 18.15 50.4637C17.9765 50.1149 17.8158 49.838 17.6966 49.6456C17.6369 49.5493 17.5874 49.474 17.5517 49.4211C17.5339 49.3946 17.5195 49.3738 17.5089 49.3587L17.496 49.3405L17.4919 49.3347L17.4904 49.3327L17.4898 49.3318Z" />
<path fill-rule="evenodd" clip-rule="evenodd" d="M11.3912 50.7626C11.6841 51.0555 11.6841 51.5304 11.3912 51.8233L7.37231 55.8421C7.07942 56.135 6.60454 56.135 6.31165 55.8421C6.01876 55.5493 6.01876 55.0744 6.31165 54.7815L10.3305 50.7626C10.6234 50.4697 11.0983 50.4697 11.3912 50.7626Z" />
<path fill-rule="evenodd" clip-rule="evenodd" d="M55.5044 27.1451C54.5451 27.4129 53.7492 27.9196 53.2818 28.6986C53.2757 28.7088 53.2693 28.7189 53.2627 28.7288C52.79 29.4379 52.6106 30.421 52.771 31.3471C53.0388 32.3064 53.5456 33.1022 54.3246 33.5696C54.3534 33.5869 54.381 33.6061 54.4072 33.6271C54.7434 33.8961 55.2633 34.0672 55.8025 34.1628C56.2956 34.1623 56.6705 34.1552 56.9496 34.0869C57.9193 33.8208 58.7244 33.3122 59.1956 32.5269C59.2017 32.5167 59.2081 32.5067 59.2147 32.4968C59.6874 31.7876 59.8668 30.8045 59.7064 29.8785C59.4385 28.9192 58.9318 28.1233 58.1528 27.6559C58.1426 27.6498 58.1326 27.6434 58.1227 27.6368C57.4135 27.164 56.4305 26.9847 55.5044 27.1451ZM58.9398 26.3788C57.8591 25.6648 56.4635 25.446 55.2045 25.6749C55.1833 25.6787 55.1622 25.6835 55.1414 25.6892C53.92 26.0223 52.733 26.7087 52.0048 27.9117C51.2908 28.9924 51.0719 30.388 51.3008 31.6469C51.3047 31.6682 51.3094 31.6893 51.3151 31.7101C51.6458 32.9225 52.3244 34.1008 53.5109 34.8304C54.1569 35.3289 54.9889 35.5482 55.6154 35.6526C55.6561 35.6594 55.6974 35.6628 55.7387 35.6628C55.7547 35.6628 55.7709 35.6628 55.7873 35.6628C56.2506 35.6629 56.8295 35.6631 57.3206 35.5404L57.336 35.5363C58.5574 35.2032 59.7443 34.5169 60.4726 33.3139C61.1866 32.2332 61.4055 30.8376 61.1766 29.5786C61.1727 29.5574 61.1679 29.5363 61.1623 29.5154C60.8292 28.294 60.1428 27.1071 58.9398 26.3788Z" />
<path fill-rule="evenodd" clip-rule="evenodd" d="M45.6387 19.2437C46.2837 17.5666 47.9919 16.7831 49.6592 17.2961C49.6756 17.3012 49.6919 17.3068 49.7079 17.313C51.3851 17.9581 52.1685 19.6663 51.6555 21.3336C51.652 21.3449 51.6482 21.3562 51.6442 21.3674L49.5821 27.085L52.4369 30.8607C52.6867 31.1911 52.6214 31.6614 52.291 31.9112C51.9606 32.1611 51.4902 32.0957 51.2404 31.7653L48.1404 27.6653C47.9875 27.463 47.9471 27.1971 48.0331 26.9585L50.2266 20.8766C50.5017 19.9577 50.0943 19.0814 49.1934 18.7224C48.2724 18.451 47.3957 18.8651 47.0418 19.7741L44.441 27.0764C44.2517 27.5813 44.3489 28.1282 44.669 28.7038L48.9412 34.4663C49.0953 34.6742 49.1313 34.9469 49.0366 35.1877L45.3365 44.5877C45.2223 44.8778 44.9406 45.067 44.6288 45.0629L37.0342 44.963C36.4 44.9647 35.7905 45.3181 35.524 45.9176C35.5198 45.927 35.5155 45.9363 35.5109 45.9455L30.9109 55.2455L30.9095 55.2484C30.7136 55.6403 30.7015 56.1299 30.8502 56.5758C30.9693 56.9332 31.287 57.2865 31.7316 57.5204C31.7821 57.5378 31.8293 57.5547 31.8702 57.5694C31.8806 57.5731 31.8907 57.5767 31.9003 57.5801C31.9651 57.6033 32.0118 57.6194 32.0542 57.6321C32.1293 57.6547 32.18 57.663 32.2387 57.663C32.2636 57.663 32.2885 57.6643 32.3133 57.6667C33.058 57.7412 33.793 57.3576 34.0423 56.7344C34.0496 56.7163 34.0575 56.6985 34.0661 56.681L37.9661 48.781C38.0943 48.5215 38.3603 48.3588 38.6497 48.3631L45.4497 48.4631C45.744 48.4674 46.0086 48.6435 46.1262 48.9134C46.2438 49.1832 46.1927 49.4969 45.9955 49.7155L42.2955 53.8155C42.2869 53.825 42.2781 53.8343 42.269 53.8433C41.9539 54.1585 41.8108 54.6143 41.8811 55.1069C41.8823 55.115 41.8833 55.123 41.8842 55.1311L42.8857 64.2451C42.9523 64.9775 43.468 65.5161 44.1436 65.6686C44.1607 65.6703 44.1749 65.6721 44.1852 65.6734C44.2192 65.6778 44.2545 65.6833 44.2853 65.6883C44.3107 65.6924 44.3342 65.6964 44.3577 65.7003C44.399 65.7072 44.44 65.714 44.4902 65.7217C44.6214 65.7419 44.7578 65.7585 44.8861 65.7622C45.8898 65.593 46.5291 64.7495 46.3962 63.8191C46.3951 63.8117 46.3942 63.8043 46.3934 63.7968L45.4934 55.7968C45.4696 55.5859 45.5364 55.3748 45.6771 55.2159L51.0771 49.1159C51.0872 49.1045 51.0976 49.0934 51.1083 49.0827C51.3319 48.8591 51.4857 48.6369 51.6529 48.3073L54.84 40.1404C54.9376 39.8902 55.1614 39.7114 55.4269 39.6714C55.6924 39.6314 55.959 39.7363 56.126 39.9466L58.826 43.3466C58.9603 43.5158 59.0152 43.7346 58.9766 43.9472L57.7776 50.5412C57.7032 50.9954 57.795 51.4578 58.0243 51.7445C58.3504 52.1521 58.6839 52.3909 59.0094 52.463H59.1387C59.1594 52.463 59.1802 52.4639 59.2009 52.4656C60.0481 52.5362 60.8905 51.9646 61.1056 51.1525L62.4981 43.4936C62.5743 42.943 62.4862 42.4816 62.1625 42.0931L62.1505 42.0783L56.8775 35.4125L56.6083 35.1433C56.3154 34.8504 56.3154 34.3756 56.6083 34.0827C56.9012 33.7898 57.3761 33.7898 57.669 34.0827L57.969 34.3827C57.9895 34.4032 58.0089 34.4249 58.0269 34.4477L63.3214 41.1407C63.9893 41.9473 64.1012 42.8783 63.9811 43.7191C63.9803 43.7245 63.9795 43.73 63.9786 43.7354C63.978 43.7393 63.9773 43.7432 63.9766 43.7472L62.5766 51.4472C62.5737 51.4632 62.5702 51.4791 62.5663 51.4949C62.175 53.0601 60.644 54.0746 59.1096 53.963H58.9387C58.8973 53.963 58.8561 53.9596 58.8154 53.9528C57.9574 53.8098 57.3093 53.2519 56.853 52.6815C56.2831 51.9692 56.1748 51.034 56.2989 50.2897L56.3007 50.2788L57.44 44.0132L55.7629 41.9014L53.0374 48.8856C53.029 48.907 53.0197 48.9279 53.0095 48.9484C52.786 49.3954 52.5462 49.7622 52.1858 50.1264L47.0212 55.9605L47.8828 63.6187C48.1402 65.4666 46.8066 67.0037 45.0447 67.2554C45.0096 67.2605 44.9741 67.263 44.9387 67.263C44.6818 67.263 44.4378 67.2313 44.2621 67.2043C44.1784 67.1914 44.0906 67.1763 44.0452 67.169C44.0282 67.1662 44.0158 67.1643 44.0068 67.163C44.0043 67.1626 44.0022 67.1623 44.0002 67.162C43.9637 67.1601 43.9274 67.1556 43.8916 67.1484C42.59 66.8881 41.5274 65.837 41.3924 64.3884L40.3944 55.3062C40.2699 54.4093 40.523 53.4777 41.1938 52.7973L43.7736 49.9386L39.1014 49.8699L35.4232 57.3207C34.8688 58.6644 33.4375 59.2725 32.199 59.1626C31.8329 59.1548 31.5221 59.0409 31.3155 58.9652C31.2729 58.9496 31.2348 58.9356 31.2015 58.9245C31.1678 58.9133 31.135 58.8997 31.1032 58.8838C30.3701 58.5172 29.7043 57.8816 29.4272 57.0502C29.176 56.2966 29.1638 55.3869 29.5671 54.5791C29.5673 54.5786 29.5676 54.5781 29.5678 54.5776L34.16 45.2933C34.6962 44.1039 35.8793 43.463 37.0387 43.463H37.0485L44.1305 43.5562L47.4884 35.0255L43.4362 29.5597C43.4185 29.5358 43.4022 29.5109 43.3875 29.4851C42.9251 28.6758 42.6309 27.6379 43.0341 26.5559L45.6321 19.2613L45.6387 19.2437Z" />
<path fill-rule="evenodd" clip-rule="evenodd" d="M41.4933 32.3475C41.7296 32.2249 42.0132 32.2367 42.2385 32.3785L44.9385 34.0785C45.289 34.2992 45.3943 34.7623 45.1736 35.1128C44.9529 35.4633 44.4898 35.5686 44.1393 35.3479L42.5224 34.3298L42.3879 36.9516C42.3753 37.1982 42.2421 37.4227 42.0318 37.552C41.8215 37.6814 41.5611 37.699 41.3353 37.599L37.6538 35.9695L39.6573 38.8888C39.7938 39.0878 39.8263 39.3402 39.7446 39.5672C39.6628 39.7942 39.4769 39.9681 39.2449 40.0343L36.1375 40.9222L36.721 41.6402C36.9822 41.9617 36.9333 42.4341 36.6118 42.6953C36.2903 42.9565 35.818 42.9076 35.5568 42.5861L34.2568 40.9861C34.0979 40.7906 34.0478 40.5283 34.1235 40.2879C34.1992 40.0475 34.3905 39.8613 34.6328 39.792L37.8308 38.8783L34.9205 34.6376C34.7307 34.361 34.7476 33.9921 34.9619 33.734C35.1762 33.476 35.5357 33.3916 35.8424 33.5274L40.9457 35.7862L41.0899 32.9748C41.1035 32.7089 41.2571 32.4702 41.4933 32.3475Z" />
<path fill-rule="evenodd" clip-rule="evenodd" d="M65.012 48.1969C65.3525 47.9611 65.8197 48.0461 66.0555 48.3866L67.8555 50.9866C67.9793 51.1654 68.0194 51.3891 67.9654 51.5997C67.9115 51.8103 67.7688 51.9871 67.5743 52.0844L65.533 53.105L66.4593 56.305C66.5316 56.5547 66.4694 56.824 66.295 57.0168C66.1205 57.2095 65.8587 57.2982 65.603 57.2511L62.4269 56.6661L61.8437 58.2698C61.7746 58.46 61.6315 58.6142 61.447 58.6973C61.2625 58.7804 61.0523 58.7855 60.864 58.7113L57.564 57.4113C57.1786 57.2595 56.9893 56.824 57.1411 56.4386C57.2929 56.0533 57.7284 55.8639 58.1138 56.0157L60.6972 57.0334L61.234 55.5572C61.3592 55.2131 61.7146 55.0096 62.0747 55.076L64.6809 55.556L63.9184 52.9221C63.8178 52.5745 63.9798 52.2046 64.3035 52.0427L66.13 51.1295L64.8222 49.2405C64.5865 48.8999 64.6714 48.4327 65.012 48.1969Z" />
</svg>
