<svg  viewBox="0 0 93 70"  xmlns="http://www.w3.org/2000/svg">
<path d="M42.4753 1.15785C42.3223 0.454334 43.0941 -0.189074 43.7607 0.0513501C44.1869 0.15517 44.4383 0.564985 44.4793 0.980263C44.885 3.76973 45.2607 6.5633 45.6691 9.3514C48.1922 9.30086 50.6606 10.3008 52.5526 11.9469C55.4541 11.5439 58.3542 11.1122 61.2584 10.7257C61.9182 10.6041 62.5166 11.2994 62.3445 11.936C62.2775 12.3526 61.906 12.6559 61.4989 12.7119C59.0823 13.0821 56.6535 13.3799 54.2383 13.7555C54.9036 14.8074 55.5197 15.8975 55.894 17.0914C67.1297 15.5109 78.3641 13.9154 89.5985 12.3308C90.1572 12.2666 90.7118 12.1231 91.2774 12.1409C91.735 12.1696 92.0382 12.5821 92.1953 12.9742C92.4781 13.6476 92.3101 14.4345 91.903 15.0178C91.3648 15.806 90.537 16.3292 89.7187 16.7854C87.7407 17.8223 85.5741 18.4315 83.4198 18.982C80.2192 19.7634 76.9694 20.3276 73.7086 20.7852C74.087 22.1007 74.1389 23.5255 73.7127 24.8369C73.1362 26.7508 71.6568 28.3668 69.799 29.1045C67.8223 29.9186 65.4672 29.6891 63.6736 28.5294C61.7038 27.2876 60.5058 24.9831 60.5768 22.6581C58.9976 22.8616 57.4199 23.0884 55.8462 23.3274C55.144 25.4366 53.7643 27.3259 51.9106 28.5635C50.061 29.8271 47.7906 30.4541 45.5544 30.3093C42.855 30.1618 40.2445 28.8572 38.4987 26.7958C38.2638 26.5226 38.0711 26.218 37.828 25.9544C37.6764 25.8341 37.4687 25.938 37.2952 25.9339C35.8827 26.1442 34.4634 26.315 33.055 26.5554C33.4512 27.8791 33.4922 29.3217 33.0632 30.644C32.4266 32.678 30.7628 34.3692 28.7246 35.0058C27.054 35.5536 25.1606 35.4074 23.6061 34.5837C21.7701 33.6671 20.4314 31.842 20.0735 29.8257C19.9874 29.3517 19.9778 28.8695 19.9396 28.39C16.4261 28.875 12.8949 29.2766 9.34589 29.3722C7.21075 29.3968 5.0401 29.3941 2.95688 28.864C1.81759 28.5594 0.518482 28.0089 0.103203 26.8027C-0.174105 26.0609 0.0991051 24.9203 1.02392 24.8492C12.0862 23.2878 23.1471 21.7237 34.2093 20.1596C34.8227 20.0735 35.4374 19.997 36.0467 19.885C36.0753 18.6419 36.339 17.4193 36.7147 16.239C34.2339 16.5396 31.7668 16.9562 29.2875 17.2595C28.6741 17.3168 28.1386 16.6898 28.2602 16.0942C28.3189 15.6503 28.7219 15.2937 29.1618 15.2555C31.9458 14.8566 34.7312 14.4714 37.5152 14.0738C37.8703 14.0793 38.0261 13.7378 38.2132 13.496C39.5123 11.6354 41.474 10.2667 43.6542 9.64784C43.2963 6.81192 42.8509 3.98967 42.4753 1.15785ZM41.6639 12.8567C39.3443 14.608 37.9523 17.5299 38.0752 20.4369C38.1053 20.8508 38.0575 21.3316 37.6873 21.5898C37.2133 21.8753 36.6327 21.8426 36.1054 21.945C24.983 23.5214 13.8552 25.0637 2.73831 26.677C3.51969 27.0499 4.39123 27.151 5.24091 27.2521C6.90476 27.4242 8.58226 27.401 10.2516 27.3382C13.8101 27.1824 17.3496 26.7412 20.8726 26.2399C21.2851 26.1552 21.74 26.2863 21.9777 26.6483C22.2701 27.0199 22.0911 27.5021 22.0324 27.9187C21.7004 29.7711 22.6498 31.7614 24.2864 32.6862C26.1565 33.8392 28.7929 33.3952 30.1972 31.7095C31.4076 30.3517 31.6985 28.2561 30.8789 26.6264C30.6958 26.2549 30.4172 25.8437 30.6043 25.4161C30.7191 25.0145 31.1111 24.7755 31.51 24.7345C33.6383 24.4353 35.7666 24.1279 37.8963 23.8315C38.2556 23.7728 38.6681 23.7632 38.955 24.0269C39.2487 24.3329 39.4263 24.7276 39.6858 25.0623C40.9453 26.7617 42.8974 27.931 44.9929 28.2261C47.5433 28.6127 50.2672 27.7111 52.0445 25.8314C53.054 24.8164 53.7315 23.5091 54.0976 22.1335C54.1946 21.6581 54.6727 21.4286 55.1153 21.3931C57.2641 21.0981 59.4115 20.7893 61.5603 20.4861C61.9811 20.3973 62.4346 20.5694 62.6545 20.9464C62.9319 21.3726 62.6969 21.8822 62.66 22.3412C62.3731 24.3383 63.578 26.4133 65.4345 27.1906C66.8087 27.8204 68.4821 27.6824 69.7621 26.886C71.0926 26.0841 71.9628 24.5774 71.9942 23.0242C72.0379 22.1253 71.7538 21.2552 71.3262 20.4751C70.9738 19.8864 71.3945 19.0558 72.0816 19.0039C76.58 18.3564 81.0976 17.672 85.4594 16.3565C86.9429 15.8524 88.5152 15.3989 89.7474 14.3894C89.5165 14.4044 89.2898 14.4263 89.0644 14.4577C77.8354 16.0396 66.6079 17.6338 55.379 19.2156C54.8257 19.3591 54.2206 18.993 54.1277 18.4233C53.3763 14.9946 50.494 12.0657 47.001 11.4838C45.1282 11.1642 43.1624 11.7092 41.6639 12.8567Z" />
<path d="M49.8574 14.4918C50.2863 14.2214 50.9093 14.3716 51.1702 14.8047C51.4844 15.2473 51.3423 15.9207 50.8806 16.2035C47.8725 18.161 43.9725 18.7389 40.545 17.6419C39.8156 17.4384 39.6284 16.3784 40.224 15.9221C40.6543 15.5123 41.2527 15.765 41.7444 15.8852C44.4888 16.5723 47.4818 16.0095 49.8574 14.4918Z" />
<path d="M66.907 19.2322C68.6351 19.015 70.3877 20.2021 70.844 21.8809C71.2907 23.3372 70.691 25.0188 69.4547 25.8958C68.0914 26.9135 66.0355 26.7987 64.8033 25.6253C63.6299 24.5857 63.2556 22.7566 63.9509 21.3468C64.4686 20.1775 65.6407 19.3592 66.907 19.2322ZM66.7704 21.2949C65.9699 21.5476 65.4399 22.4533 65.6585 23.2729C65.8511 24.1363 66.7895 24.7537 67.6584 24.5215C68.6405 24.3398 69.2498 23.1746 68.8468 22.2621C68.549 21.4575 67.5764 21.019 66.7704 21.2949Z" />
<path d="M25.9338 25.0269C27.0922 24.7892 28.3585 25.1498 29.2014 25.9845C30.1098 26.826 30.5333 28.1552 30.2765 29.3682C29.9609 31.0293 28.4036 32.3626 26.6974 32.3353C24.8519 32.4063 23.1361 30.8736 22.9845 29.0363C22.7427 27.2003 24.1169 25.3534 25.9338 25.0269ZM26.069 27.0637C25.3409 27.3246 24.8614 28.1347 24.998 28.8997C25.1224 29.7493 25.9734 30.4187 26.8327 30.3012C27.8367 30.2275 28.5853 29.1114 28.2615 28.1552C28.0238 27.2467 26.9365 26.7181 26.069 27.0637Z" />
<path d="M69.1993 37.2844C76.3205 36.1997 83.4335 35.0673 90.5561 33.9854C90.6736 34.764 90.8033 35.5413 90.9003 36.3227C83.7859 37.4182 76.6716 38.522 69.5586 39.6326C69.4151 38.8526 69.3072 38.0685 69.1993 37.2844Z" />
<path d="M9.324 37.0439C10.4168 37.1027 11.5097 37.1669 12.5998 37.2461C12.552 38.0275 12.5083 38.8089 12.4563 39.5889C11.3635 39.5452 10.272 39.4605 9.1792 39.3963C9.21472 38.6108 9.2557 37.8267 9.324 37.0439Z" />
<path d="M15.1939 39.6556C15.2267 38.8688 15.2636 38.082 15.3387 37.2979C19.1951 37.541 23.0528 37.806 26.9009 38.1585C26.8422 38.9426 26.7766 39.7253 26.7029 40.5081C22.8684 40.1939 19.0325 39.9043 15.1939 39.6556Z" />
<path d="M27.4938 43.0889C27.9037 42.8075 28.4173 42.9182 28.8831 42.899C39.3935 42.9059 49.9039 42.8977 60.4142 42.9031C60.0112 45.235 59.5468 47.5572 59.152 49.8905C62.8171 49.3796 66.4699 48.7881 70.1337 48.2676C70.7211 51.2743 71.262 54.2891 71.8358 57.2985C72.8302 57.1223 73.8179 56.901 74.8083 56.7002C74.9845 57.4638 75.117 58.237 75.2727 59.0061C73.5037 59.405 71.7196 59.7588 69.926 60.0252C69.3823 56.9925 68.8072 53.9654 68.2499 50.9355C64.2419 51.486 60.2489 52.1472 56.2423 52.71C56.6658 50.2292 57.1658 47.7622 57.6002 45.2828C48.0242 45.2637 38.4495 45.2841 28.8749 45.2732C28.6755 45.2814 28.461 45.2678 28.282 45.3702C26.4611 46.392 24.6975 47.5149 22.9148 48.6009C22.4996 47.9452 22.0898 47.2868 21.6868 46.6242C23.5678 45.3593 25.5431 44.2405 27.4938 43.0889Z" />
<path d="M28.9227 53.2123C32.0824 51.084 35.2393 48.9502 38.4099 46.8369C38.8471 47.4844 39.2979 48.1251 39.6845 48.8054C37.1901 50.5048 34.6683 52.1631 32.1849 53.8748C33.6752 56.1452 35.182 58.4046 36.66 60.6818C34.8049 61.7801 32.969 62.9126 31.1139 64.0109C30.7109 63.336 30.2956 62.6694 29.9213 61.9782C31.0606 61.2801 32.219 60.6121 33.3487 59.9004C31.9062 57.6492 30.3817 55.4526 28.9227 53.2123Z" />
<path d="M18.646 48.605C19.1637 48.6296 19.5476 48.2266 19.9792 48.0039C20.4095 48.6637 20.8344 49.3276 21.221 50.0147C20.553 50.3398 19.9902 51.0256 19.1924 50.9655C17.9165 50.9614 16.642 50.9573 15.3675 50.9669C15.3237 50.18 15.3347 49.3918 15.3565 48.605C16.4535 48.5995 17.549 48.6104 18.646 48.605Z" />
<path d="M46.195 52.6223C46.3439 52.054 46.9586 51.651 47.5392 51.7808C48.169 51.8846 48.6143 52.5826 48.449 53.1987C48.3042 53.8613 48.1061 54.5101 47.9477 55.1699C48.9626 55.3202 49.9885 55.3639 51.0035 55.5114C51.6742 55.6016 52.1619 56.3611 51.9283 57.0059C51.5404 58.3296 51.0978 59.6355 50.7194 60.9606C52.3163 61.0535 53.9159 61.1054 55.5142 61.1887C56.0511 61.1792 56.5456 61.5753 56.6535 62.1026C56.7669 62.5029 56.5865 62.899 56.398 63.2446C55.4486 65 54.588 66.8032 53.6413 68.5586C53.2944 69.2129 52.3053 69.37 51.7767 68.8468C51.3669 68.4903 51.2863 67.8523 51.5376 67.3824C52.2179 66.0724 52.9201 64.7746 53.5894 63.4605C52.0581 63.3717 50.524 63.3348 48.994 63.2419C48.3151 63.205 47.7919 62.4797 47.9955 61.8253C48.3793 60.4511 48.8506 59.1014 49.2345 57.7258C48.2441 57.6042 47.2455 57.5537 46.2579 57.4239C45.5803 57.3501 45.1309 56.6029 45.3043 55.9622C45.5844 54.8448 45.8904 53.7328 46.195 52.6223Z" />
<path d="M76.953 56.2449C78.4393 55.9567 79.9132 55.5851 81.4159 55.3911C81.5661 56.1711 81.7232 56.9511 81.8721 57.7325C80.3995 58.1246 78.8778 58.2079 77.397 58.5535C77.2426 57.7844 77.0814 57.0181 76.953 56.2449Z" />
</svg>
