<svg   viewBox="0 0 61 53"  xmlns="http://www.w3.org/2000/svg">
<path d="M16.4664 0.0947592C17.2061 -0.136251 18.0693 0.0615824 18.6137 0.617603C18.9504 0.958588 19.295 1.29159 19.6268 1.63687C20.2547 2.33543 20.3217 3.44931 19.8056 4.22959C19.6618 4.44892 19.4732 4.63385 19.2914 4.82124C20.0544 5.13949 20.8083 5.47987 21.5701 5.8018C22.1415 5.23411 22.7264 4.68116 23.3002 4.11593C23.8679 3.54455 24.7637 3.34364 25.5231 3.60783C25.9667 3.74545 26.3163 4.06493 26.6253 4.39854C26.9694 4.77148 27.4 5.08174 27.6298 5.5456C27.945 6.13849 27.9511 6.87821 27.6593 7.48093C27.5297 7.76662 27.3183 8.00254 27.1002 8.22372C28.874 9.00461 30.6495 9.78058 32.427 10.5522C34.8642 8.11006 37.2886 5.65558 39.7296 3.21708C40.5596 2.36246 41.5334 1.6424 42.611 1.13123C44.0678 0.406868 45.7045 0.157427 47.313 0.0658831C48.7641 0.00382998 50.1305 1.1128 50.4531 2.51299C50.5661 2.95658 50.5274 3.41798 50.4918 3.86833C50.3658 5.29555 50.098 6.73506 49.4523 8.0265C48.9841 9.01198 48.3378 9.91083 47.5642 10.6794C47.2865 10.951 46.7975 10.9381 46.5333 10.6542C46.2636 10.3864 46.2525 9.90837 46.5229 9.63681C47.3025 8.85838 47.9323 7.92636 48.3408 6.90217C48.8071 5.76433 48.9706 4.53002 49.0517 3.31108C49.118 2.53756 48.5411 1.80337 47.81 1.59571C47.5114 1.49802 47.195 1.55147 46.8896 1.57052C45.7837 1.67189 44.6668 1.84146 43.6389 2.28136C42.5607 2.73294 41.5819 3.41737 40.7746 4.26153C37.5639 7.46188 34.3832 10.6917 31.1736 13.8933C29.5031 15.5626 27.8381 17.2368 26.1762 18.9153C24.5984 20.4894 23.0201 22.0646 21.5247 23.7192C19.7325 25.6834 18.0177 27.7182 16.3921 29.8225C14.5471 32.1842 12.8722 34.67 11.1458 37.1184C10.9953 37.3131 10.8884 37.5619 10.658 37.6775C10.4276 37.8077 10.1278 37.7966 9.90904 37.6461C8.70361 36.8775 7.27885 36.4253 5.84364 36.4487C4.59951 36.464 3.3781 36.9003 2.36744 37.6179C3.71847 38.0786 4.93005 38.8933 5.93887 39.896C6.18278 40.127 6.24791 40.527 6.06605 40.8145C5.85101 41.1973 5.28086 41.2937 4.95524 40.9976C3.90832 39.9458 2.59783 39.0973 1.12392 38.8153C0.817951 38.7496 0.443789 38.8104 0.21708 38.548C-0.0618516 38.2857 -0.0753681 37.8009 0.196191 37.5288C0.918711 36.7958 1.75858 36.171 2.68753 35.7237C3.77746 35.1935 4.99763 34.9367 6.20859 34.9772C7.56638 35.0178 8.90022 35.4122 10.0983 36.0438C11.3903 34.2111 12.6529 32.3575 13.9861 30.5549C17.1637 26.2664 20.6934 22.2422 24.5057 18.508C18.4865 14.0794 12.4637 9.65647 6.44328 5.23042C5.30175 4.38441 4.14609 3.55622 3.01316 2.69853C3.44139 2.28321 3.8432 1.82795 4.35805 1.51399C5.47255 0.818508 6.83403 0.653852 8.12302 0.731879C9.48327 0.822808 10.846 1.10297 12.087 1.67988C12.6492 1.93116 13.2144 2.17508 13.7791 2.42022C14.3253 1.87157 14.8745 1.32538 15.4207 0.776729C15.7095 0.471993 16.0572 0.208421 16.4664 0.0947592ZM16.5893 1.6977C15.7648 2.52343 14.9372 3.34671 14.1151 4.17491C13.2341 3.79337 12.3537 3.40999 11.4751 3.02232C10.7249 2.66536 9.91396 2.45462 9.09559 2.32191C7.87173 2.13268 6.55203 2.07493 5.40435 2.61559C6.04455 3.13659 6.73266 3.59861 7.39067 4.09749C13.4461 8.54627 19.4996 12.9975 25.555 17.4463C27.4707 15.5226 29.3833 13.5953 31.3002 11.6723C29.3692 10.8281 27.4381 9.98394 25.5071 9.13916C25.0758 8.96774 24.9241 8.35766 25.2313 8.00868C25.5538 7.65787 25.9114 7.34023 26.2339 6.9888C26.4625 6.73322 26.4502 6.30192 26.2026 6.06353C25.904 5.76556 25.6054 5.46758 25.3081 5.16899C25.0605 4.90234 24.6021 4.90541 24.3453 5.15731C23.648 5.83252 22.9556 6.51327 22.2558 7.18663C22.0463 7.41334 21.6948 7.47417 21.4171 7.3433C20.1718 6.80448 18.9246 6.26997 17.6829 5.72378C17.2712 5.54806 17.1213 4.96255 17.4113 4.61788C17.7664 4.23266 18.1578 3.88184 18.5135 3.49724C18.7556 3.23367 18.72 2.79499 18.4687 2.54924C18.1726 2.25126 17.8789 1.94959 17.5741 1.6596C17.3093 1.39357 16.8381 1.42368 16.5893 1.6977Z" />
<path d="M6.4107 9.89731C6.76335 9.79287 7.17131 9.9993 7.29726 10.3446C7.40539 10.6186 7.3249 10.9473 7.11048 11.147C6.02425 12.232 4.93862 13.3182 3.853 14.4038C3.665 14.6078 3.36026 14.6871 3.09669 14.5998C2.74403 14.5015 2.51241 14.1071 2.59719 13.7508C2.62914 13.5714 2.74219 13.4227 2.86875 13.2986C3.86283 12.3057 4.85629 11.3116 5.84915 10.3182C6.01564 10.1547 6.17477 9.95814 6.4107 9.89731Z" />
<path d="M50.9698 14.4252C50.979 14.0123 51.4103 13.6879 51.8103 13.7555C52.1445 13.7985 52.4406 14.0916 52.4431 14.4369C52.4554 14.8153 52.4431 15.195 52.4474 15.5741C53.1091 15.708 53.6559 16.3212 53.6227 17.0106C53.6202 17.9125 53.6245 18.8138 53.6215 19.7151C53.6258 20.0751 53.3161 20.3872 52.9653 20.4216C52.6372 20.461 52.2981 20.2588 52.1838 19.9486C52.1303 19.7943 52.1488 19.6297 52.1463 19.4706C52.1482 18.6424 52.1482 17.8142 52.1469 16.986C52.0492 16.9866 51.9522 16.9872 51.8557 16.9878C51.8569 19.3047 51.8539 21.6215 51.8576 23.9384C51.9509 23.9378 52.0449 23.9372 52.1402 23.9372C52.1445 23.41 52.131 22.8823 52.1457 22.3557C52.158 21.9699 52.5248 21.6492 52.9069 21.675C53.2934 21.6756 53.6442 22.0215 53.6221 22.4135C53.6227 24.2769 53.6215 26.141 53.6221 28.0044C53.6239 28.5008 53.7966 28.9979 54.1277 29.3708C54.6155 29.9311 54.9332 30.6438 55.0008 31.386C55.0309 31.6963 55.0161 32.0084 55.0223 32.3199C55.7313 31.8161 56.4022 31.2588 57.0307 30.6573C57.2384 30.4773 57.4079 30.2488 57.6506 30.1124C58.0979 29.8617 58.6975 29.917 59.0834 30.2586C59.5497 30.6506 60.0179 31.0407 60.4836 31.4339C60.8534 31.7393 61.0027 32.2805 60.8319 32.7297C60.6961 33.0971 60.3705 33.3373 60.1045 33.6064C59.1448 34.5341 58.0948 35.3635 56.9889 36.11C57.1689 36.5616 57.1057 37.0543 57.1167 37.5286C57.1081 38.0718 57.1407 38.6161 57.0872 39.158C57.5818 39.314 58.069 39.4916 58.5611 39.6556C59.1596 39.835 59.522 40.5514 59.2794 41.1351C59.1436 41.4914 59.0238 41.8552 58.8794 42.2084C58.7485 42.5211 58.4573 42.7239 58.1526 42.8455C58.3449 43.5122 58.4266 44.2095 58.4149 44.9031C58.4143 47.075 58.4149 49.2468 58.4143 51.4193C58.4155 52.0085 58.0408 52.5719 57.5099 52.8207C57.2273 52.9657 56.906 53.0069 56.5926 52.9989C53.2399 52.9977 49.8866 52.9989 46.5339 52.9983C46.5333 52.5191 46.5345 52.0405 46.5333 51.5612C48.4311 51.5619 50.329 51.5637 52.2274 51.5606C51.8189 48.6859 51.4367 45.8081 51.0251 42.934C50.4586 42.7694 50.0089 42.2379 49.9849 41.6426C49.9763 41.14 49.9849 40.6368 49.9812 40.1343C47.9015 41.0853 45.6584 41.669 43.3839 41.8939C43.0368 41.932 42.6878 41.9117 42.3401 41.9166C41.3988 41.9129 40.4576 41.9227 39.5164 41.9117C37.1258 41.7132 34.7721 41.089 32.5898 40.0943C31.9244 39.7754 31.2547 39.4455 30.6827 38.9724C28.9231 39.2262 27.3613 40.3917 26.4791 41.9166C25.9347 41.9154 25.3897 41.9172 24.8454 41.916C25.7344 39.8363 27.6323 38.2438 29.8121 37.6644C29.5473 36.7619 29.6554 35.7445 30.1691 34.9476C30.6163 34.2583 31.3493 33.8349 32.0577 33.4589C33.0659 32.9521 34.127 32.5625 35.1647 32.1226C34.3629 31.0954 33.7159 29.9477 33.2428 28.7343C32.8804 27.7771 32.5676 26.7701 32.602 25.7355C32.6027 24.6707 32.602 23.6066 32.6027 22.5419C32.5209 20.7792 33.002 18.9852 34.0305 17.5438C34.6258 16.6954 35.4073 15.9913 36.2712 15.4248C38.0898 14.2046 40.3605 13.6781 42.5305 13.973C43.7569 14.1364 44.9525 14.5444 46.0141 15.1821C46.8755 15.7013 47.6797 16.3353 48.3156 17.1199C49.4602 18.5103 50.0844 20.3129 50.0672 22.1124C50.0654 22.9332 50.0678 23.7541 50.066 24.5743C50.1545 24.4342 50.2534 24.299 50.3726 24.1829C50.3757 21.5472 50.3714 18.9115 50.375 16.2757C50.3634 15.9268 50.6405 15.6411 50.9655 15.5588C50.9685 15.1809 50.9563 14.8031 50.9698 14.4252ZM40.5663 15.3695C39.2411 15.5035 37.957 15.9956 36.8739 16.7691C36.1802 17.2514 35.564 17.8523 35.1081 18.5662C34.4366 19.5953 34.0864 20.8222 34.0778 22.0485C34.0766 23.1348 34.0778 24.2204 34.0772 25.3066C34.0803 25.7355 34.0545 26.1686 34.1411 26.5925C34.3494 27.6345 34.7493 28.6298 35.2433 29.568C35.7741 30.5504 36.4248 31.4781 37.237 32.2492C38.0953 33.0885 39.1741 33.7336 40.3648 33.9504C41.6403 34.1913 42.9944 33.9375 44.1046 33.2691C45.6584 32.3457 46.7784 30.8472 47.5882 29.259C48.0594 28.2772 48.4704 27.2419 48.5853 26.1514C48.6007 24.8452 48.5872 23.5384 48.5921 22.2322C48.6296 20.5752 48.0244 18.9016 46.8792 17.695C45.2707 16.022 42.8814 15.117 40.5663 15.3695ZM51.4557 25.3742C51.4564 30.7593 51.4601 36.145 51.4539 41.5301C51.637 41.3311 51.8717 41.1904 52.0634 41.0005C52.2108 41.1867 52.3595 41.3722 52.5051 41.5609C52.8498 41.5639 53.1945 41.5639 53.5398 41.5609C53.5348 38.4773 53.5391 35.3943 53.5379 32.3113C53.5367 31.8425 53.576 31.3534 53.3788 30.9141C53.227 30.4865 52.8609 30.1947 52.6415 29.8076C52.2545 29.1791 52.1125 28.4289 52.1396 27.6978C52.1402 26.9231 52.1396 26.149 52.1402 25.3742C51.9116 25.3736 51.6837 25.3736 51.4557 25.3742ZM47.5095 32.1233C48.3316 32.4704 49.1641 32.7942 49.9818 33.153C49.9874 31.0665 49.9714 28.9794 49.9898 26.8924C49.5641 28.7914 48.6984 30.5842 47.5095 32.1233ZM55.021 34.0666C55.0192 34.5845 55.0198 35.1024 55.0204 35.6197C56.5847 34.719 58.0383 33.6199 59.3101 32.3383C58.9599 32.0587 58.6214 31.7651 58.2761 31.48C57.2875 32.455 56.1933 33.3225 55.021 34.0666ZM32.3692 34.9353C31.9299 35.1884 31.4593 35.4895 31.2805 35.9908C31.0685 36.5333 31.1029 37.1969 31.4402 37.681C31.7603 38.0294 32.183 38.2634 32.5959 38.4865C37.954 41.2254 44.6115 41.2469 49.9824 38.5301C49.9812 37.2737 49.9824 36.0166 49.9818 34.7602C48.8538 34.1839 47.6496 33.7809 46.5007 33.2513C46.3158 33.427 46.1266 33.5978 45.9244 33.7538C45.9127 34.297 45.9226 34.8401 45.9189 35.3832C45.9029 35.8096 46.118 36.2384 46.4718 36.4774C46.6469 36.5745 46.8657 36.5813 47.0217 36.7183C47.343 36.9646 47.3688 37.4967 47.0684 37.7707C45.6332 39.1273 43.693 39.9211 41.7232 40.0046C39.4906 40.1158 37.2173 39.3048 35.5947 37.7609C35.3213 37.4985 35.3201 37.0119 35.6082 36.7594C35.7864 36.5548 36.0942 36.5837 36.2927 36.4092C36.59 36.1592 36.7682 35.7696 36.751 35.3801C36.7449 34.8456 36.7578 34.3105 36.7449 33.7766C36.5698 33.5892 36.3535 33.4436 36.1827 33.2507C34.9171 33.8239 33.5863 34.2576 32.3692 34.9353ZM38.2311 34.7344C38.2298 34.9894 38.236 35.245 38.2304 35.5005C38.2102 36.1973 37.8913 36.8651 37.4115 37.3634C37.8852 37.7013 38.4111 37.9636 38.9573 38.1627C41.0278 38.9227 43.4552 38.6265 45.2683 37.3634C44.9021 37.007 44.6434 36.5462 44.5181 36.0516C44.402 35.6222 44.4444 35.1731 44.4376 34.7338C42.8906 35.5165 41.0462 35.6965 39.3849 35.1897C38.996 35.0471 38.6015 34.9212 38.2311 34.7344ZM55.021 37.2577C55.0174 37.654 55.0235 38.0496 55.0174 38.4459C55.2201 38.5227 55.4259 38.5915 55.6324 38.6591C55.636 38.0834 55.633 37.5077 55.6342 36.9321C55.4308 37.0427 55.2293 37.1569 55.021 37.2577ZM55.0204 39.9782C55.0198 40.1441 55.0198 40.31 55.0174 40.4765C55.8855 40.7757 56.7548 41.0712 57.6254 41.3649C57.6801 41.2143 57.7354 41.0651 57.7901 40.9151C56.8673 40.6018 55.9457 40.2835 55.0204 39.9782ZM55.0088 42.0069C55.0192 42.1083 55.0321 42.2115 55.0653 42.3098C55.6889 44.1855 56.3027 46.0649 56.9404 47.9357C56.9392 46.9048 56.9398 45.8745 56.9404 44.8441C56.9422 44.0454 56.8034 43.2351 56.4679 42.507C55.9924 42.3178 55.4972 42.1654 55.0088 42.0069ZM52.5309 42.9998C52.8246 45.1182 53.1171 47.2372 53.4113 49.3556C54.1578 49.1608 54.9061 48.9698 55.6532 48.7762C55.0241 46.8489 54.379 44.9271 53.7456 43.0016C53.3407 42.9967 52.9358 42.9998 52.5309 42.9998ZM53.6086 50.7902C53.6424 51.0261 53.6755 51.2627 53.7075 51.4998C54.583 51.2682 55.4609 51.0458 56.3377 50.8178C56.2639 50.5924 56.1878 50.3681 56.1147 50.1432C55.2785 50.3564 54.4441 50.5764 53.6086 50.7902Z" />
<path d="M12.753 14.7712C13.0799 14.6705 13.4534 14.8407 13.6064 15.1436C13.7465 15.4121 13.7023 15.7752 13.4811 15.9877C12.377 17.0924 11.2724 18.1977 10.1671 19.3011C9.90106 19.577 9.41754 19.5721 9.14844 19.3017C8.86152 19.0376 8.84616 18.5411 9.12816 18.2677C10.1714 17.2208 11.2189 16.1782 12.2622 15.1319C12.4059 14.9887 12.5435 14.8167 12.753 14.7712Z" />
<path d="M36.9003 22.9476C37.7506 22.8947 38.6046 22.9377 39.4568 22.9242C41.4431 22.9236 43.43 22.9248 45.4163 22.9236C46.1487 22.9236 46.8786 23.2314 47.3824 23.7635C47.9409 24.3207 48.2124 25.1477 48.0938 25.9273C47.9833 26.8047 47.3689 27.5794 46.5677 27.937C46.0541 28.1754 45.479 28.1908 44.9297 28.2848C43.6641 28.4777 42.3923 28.6743 41.1076 28.646C39.9729 28.654 38.8461 28.4992 37.7291 28.3106C37.2223 28.2166 36.6957 28.1932 36.214 27.9954C35.5505 27.7312 34.9969 27.1924 34.7364 26.5245C34.4151 25.7424 34.5153 24.8018 35.0019 24.11C35.4276 23.4716 36.1434 23.0483 36.9003 22.9476ZM36.2263 25.6073C36.2368 26.0693 36.6128 26.4699 37.0607 26.5497C37.6554 26.6456 38.2507 26.7383 38.8455 26.8323C40.1818 27.0418 41.5457 27.0726 42.89 26.9233C43.6389 26.8379 44.3805 26.6972 45.13 26.6185C44.735 26.5933 44.3387 26.6069 43.9437 26.6019C43.6838 26.6069 43.4202 26.4963 43.2592 26.2892C43.0491 26.049 43.019 25.6767 43.1732 25.4002C43.32 25.1256 43.6322 24.9585 43.9406 24.9664C44.3068 24.9683 44.6735 24.9621 45.0397 24.9695C45.4729 24.9689 45.8599 25.3658 45.8433 25.7996C45.8409 26.186 45.53 26.5251 45.1528 26.5854C45.4538 26.5651 45.777 26.5436 46.0295 26.3586C46.4092 26.1043 46.5554 25.5679 46.3551 25.1575C46.1831 24.7748 45.7653 24.5351 45.35 24.5517C42.6479 24.5548 39.9458 24.5487 37.2438 24.5548C36.6926 24.5536 36.1889 25.0488 36.2263 25.6073Z" />
<path d="M37.3249 25.0359C37.6112 24.921 37.9251 24.9806 38.2249 24.9671C38.5444 24.98 38.894 24.9093 39.1834 25.0844C39.4396 25.219 39.6018 25.504 39.5926 25.7934C39.5987 26.2272 39.2037 26.6032 38.7742 26.5995C38.4043 26.6056 38.0345 26.605 37.6646 26.5995C37.2776 26.6044 36.8936 26.315 36.8383 25.9231C36.7658 25.5593 36.9863 25.1766 37.3249 25.0359Z" />
<path d="M29.8011 26.0937C30.0677 25.8959 30.3067 25.5875 30.6717 25.5955C31.1183 25.5826 31.4999 26.0397 31.3948 26.4777C31.3542 26.753 31.122 26.9281 30.9174 27.0872C25.4623 31.5514 20.0108 36.0186 14.5563 40.4827C15.1621 41.6193 15.5559 42.8776 15.6358 44.1666C15.707 45.2682 15.5387 46.387 15.1301 47.4136C14.6908 48.5422 13.9714 49.5449 13.1254 50.4044C12.8446 50.7067 12.3064 50.6987 12.0453 50.3743C11.8057 50.1255 11.8775 49.7581 11.7989 49.4491C11.5077 48.0102 10.6844 46.7255 9.65469 45.6989C9.3733 45.415 9.38682 44.8958 9.70077 44.6415C9.9711 44.3853 10.435 44.3933 10.6979 44.6562C11.7123 45.6663 12.5386 46.8846 13 48.2455C13.7275 47.2692 14.1379 46.0577 14.1754 44.8412C14.2085 43.3759 13.7551 41.913 12.9583 40.6879C12.7764 40.3936 12.8452 39.9771 13.1131 39.759C18.6757 35.2039 24.239 30.6494 29.8011 26.0937Z" />
<path d="M8.33254 41.317C8.71776 41.1308 9.22278 41.3668 9.33829 41.7747C9.42553 42.042 9.3389 42.3467 9.1337 42.5372C8.03702 43.6332 6.94279 44.7312 5.84365 45.8254C5.585 46.1019 5.10393 46.1234 4.8293 45.8604C4.52518 45.6042 4.49077 45.0943 4.77339 44.8098C5.87683 43.7033 6.98457 42.6005 8.0874 41.4933C8.15928 41.4227 8.23915 41.3569 8.33254 41.317Z" />
</svg>
