<svg  viewBox="0 0 16 16" xmlns="http://www.w3.org/2000/svg">
    <path fill-rule="evenodd" clip-rule="evenodd"
          d="M3.50232 1.35643L5.84607 4.59717C6.12732 5.06013 6.22107 5.52309 5.84607 5.80087C5.28357 6.44902 5.09607 6.63421 4.43982 7.28235C6.12732 8.85643 7.72107 10.5231 9.40857 12.0972C10.0648 11.5416 10.2523 11.2638 10.8148 10.7083C11.0961 10.4305 11.6586 10.4305 12.0336 10.7083L15.3148 13.1157C15.5961 13.3935 15.5961 13.949 15.3148 14.2268C14.0961 15.4305 12.9711 15.9861 11.7523 15.8935C8.18982 15.8935 0.502319 8.02309 0.502319 4.78235C0.596069 3.67124 1.15857 2.56013 2.28357 1.35643C2.56482 1.07865 3.22107 0.986057 3.50232 1.35643ZM10.6273 1.26383C10.6273 0.708279 11.4711 0.708279 11.4711 1.26383V7.74532C11.4711 8.30087 10.6273 8.30087 10.6273 7.74532V1.26383ZM8.75232 2.65272C8.75232 2.09717 9.59607 2.09717 9.59607 2.65272V6.44902C9.59607 7.00458 8.75232 7.00458 8.75232 6.44902V2.65272ZM12.5023 2.65272C12.5023 2.09717 13.3461 2.09717 13.3461 2.65272V6.44902C13.3461 7.00458 12.5023 7.00458 12.5023 6.44902V2.65272Z"
          />
</svg>
