<svg   viewBox="0 0 49 48"  xmlns="http://www.w3.org/2000/svg">
<path d="M31.1745 1.16295C36.627 0.361269 42.1419 0.0267727 47.6506 0.00270379C47.9468 0.015664 48.2974 -0.0608628 48.5368 0.161312C48.7874 0.371143 48.8207 0.768589 48.6183 1.02285C47.5944 2.45094 47.0001 4.12095 46.1528 5.64902C46.0238 5.8786 45.8886 6.15323 45.6091 6.22174C45.382 6.29333 45.1616 6.17915 44.9543 6.09954C44.3988 5.88601 43.7798 5.76628 43.1929 5.91254C42.677 6.03536 42.2493 6.4328 42.0512 6.91912C41.8031 7.48196 41.8074 8.13367 42.0142 8.70824C42.087 9.00879 42.3098 9.29515 42.2191 9.61607C42.1629 9.85861 41.9259 9.98327 41.7568 10.1406C41.384 10.4542 41.0588 10.9004 41.0934 11.4114C41.0853 11.9952 41.3847 12.5648 41.8771 12.8808C42.0975 13.0468 42.4258 13.0919 42.5517 13.364C42.6653 13.5566 42.6171 13.7855 42.5733 13.9917C41.9913 16.8046 41.3816 19.6139 40.9588 22.4571C40.5385 25.2738 40.2633 28.1343 39.4005 30.8621C38.7969 32.8173 37.8151 34.6403 36.6203 36.2961C35.1564 38.3074 33.3259 40.0595 31.2189 41.3864C30.9616 41.5561 30.595 41.4907 30.4037 41.2531C30.2624 41.0951 30.2617 40.8729 30.2192 40.6773C29.9982 39.5411 29.128 38.5635 28.0326 38.1963C27.3408 37.9587 26.5786 38.0013 25.8843 38.2068C25.066 38.4549 24.3223 39.027 23.981 39.8256C23.857 40.0756 23.8514 40.3996 23.6156 40.5816C23.3626 40.7834 23.0201 40.7014 22.722 40.7236C22.058 40.7563 21.3575 40.7847 20.7613 41.1111C20.4114 41.3074 20.1516 41.6228 19.9313 41.9511C19.7942 42.1708 19.5196 42.2967 19.2653 42.2331C19.0117 42.1856 18.8741 41.9431 18.6642 41.819C18.0607 41.4487 17.267 41.3629 16.6196 41.6709C16.3184 41.8196 16.0364 42.0381 15.8858 42.3461C15.7908 42.5189 15.7482 42.7287 15.5927 42.862C15.4174 43.0299 15.1446 43.0521 14.9268 42.9614C13.1926 42.2918 11.5182 41.4561 9.97167 40.4218C8.50285 42.4244 7.0655 44.4506 5.66642 46.5026C5.4461 46.8149 5.25478 47.1524 4.9783 47.4203C4.65614 47.7338 4.23463 47.9591 3.78164 47.9936C3.22497 48.0399 2.67694 47.8295 2.2221 47.5215C1.84934 47.2561 1.4883 46.9747 1.11925 46.7038C0.797096 46.4575 0.426188 46.2403 0.230551 45.87C-0.183557 45.1411 -0.00520115 44.1975 0.490371 43.5538C2.23938 41.2401 4.0285 38.9567 5.8491 36.6985C4.33954 34.8218 3.28545 32.5901 2.75285 30.2431C2.68743 29.9333 2.54548 29.5741 2.7621 29.2908C2.97996 28.9681 3.4169 29.052 3.73597 28.9125C4.84993 28.5435 5.58002 27.2839 5.3023 26.136C5.04433 25.0603 3.98962 24.3006 2.90775 24.2463C2.58437 24.2438 2.29616 23.9624 2.29677 23.6377C2.28998 21.2876 2.60473 18.9276 3.31754 16.6849C4.00875 14.5039 5.0937 12.4432 6.5403 10.6683C8.50778 8.23427 11.1307 6.36615 14.0091 5.159C16.6616 4.04258 19.5369 3.45937 22.4147 3.45073C22.6541 3.439 22.9047 3.55996 23.0108 3.7809C23.0954 3.92408 23.083 4.09503 23.1022 4.25364C23.1485 4.80599 23.5015 5.31946 23.9977 5.5657C24.4593 5.81071 25.0215 5.79343 25.5054 5.6231C25.9306 5.47313 26.3064 5.14481 26.4403 4.7054C26.5076 4.43385 26.7557 4.22155 27.0384 4.21723C27.2482 4.2055 27.4198 4.34189 27.5969 4.43138C27.9678 4.63751 28.4097 4.62332 28.8182 4.58073C29.5866 4.4826 30.2901 3.93581 30.5345 3.19399C30.7005 2.72002 30.6197 2.21087 30.6462 1.72024C30.6586 1.43943 30.8968 1.19504 31.1745 1.16295ZM31.9009 2.32875C31.9231 2.92121 31.8157 3.5254 31.5362 4.05183C31.1079 4.88684 30.3068 5.51263 29.4008 5.74838C28.7331 5.90822 28.0153 5.92118 27.358 5.70642C26.4959 7.00984 24.5574 7.40235 23.2379 6.58339C22.5646 6.17545 22.0703 5.48794 21.8981 4.71959C20.6724 4.7523 19.4493 4.89116 18.2477 5.13555C14.6892 5.85638 11.2843 7.53071 8.70712 10.1123C6.96737 11.8347 5.63556 13.9559 4.7913 16.2517C3.98838 18.4278 3.60822 20.7476 3.56378 23.0632C4.83882 23.3304 5.97746 24.2524 6.42181 25.488C6.78531 26.4834 6.63226 27.6307 6.08732 28.5305C5.62754 29.2964 4.87832 29.8771 4.0285 30.1475C4.50371 32.1532 5.41154 34.0522 6.66559 35.687C10.3031 31.2534 14.0689 26.9204 18.0514 22.7922C21.1224 19.6059 24.3167 16.5337 27.6962 13.6738C29.5045 12.1526 31.3603 10.6819 33.3204 9.35872C33.84 9.03163 34.3263 8.60764 34.9428 8.47742C35.3792 8.37683 35.8982 8.43546 36.2166 8.77983C36.5166 9.08717 36.5462 9.5741 36.3808 9.9555C36.1926 10.3918 35.8692 10.7553 35.5168 11.067C33.3333 13.1406 31.2078 15.2747 29.1287 17.4527C22.5369 24.3709 16.4153 31.7329 10.7197 39.4053C12.0206 40.2731 13.4185 40.9871 14.8626 41.582C15.2255 41.0488 15.7538 40.6341 16.3616 40.4187C17.3145 40.0651 18.41 40.2089 19.2808 40.7162C19.6066 40.3564 19.9973 40.0496 20.4472 39.8602C21.1736 39.5424 21.979 39.4905 22.7615 39.4603C23.009 38.8567 23.3922 38.308 23.8909 37.8865C25.3066 36.6905 27.4698 36.4054 29.112 37.2978C30.113 37.8372 30.9079 38.7524 31.2899 39.8256C32.6347 38.8801 33.8437 37.7452 34.8891 36.477C36.3678 34.6632 37.5645 32.5957 38.2452 30.3486C39.0271 27.8066 39.2863 25.1485 39.6758 22.5281C40.0874 19.6633 40.6996 16.833 41.2835 13.9997C41.0662 13.8565 40.8539 13.7022 40.6743 13.5128C39.9905 12.8302 39.7079 11.7952 39.8819 10.8522C40.0016 10.2196 40.3917 9.6747 40.8632 9.25133C40.5947 8.51322 40.5083 7.6992 40.7175 6.93516C40.9422 5.97611 41.6426 5.12382 42.5789 4.78871C43.4089 4.48075 44.3316 4.56715 45.161 4.83376C45.7837 3.65624 46.2929 2.42009 46.9637 1.26786C41.9271 1.31106 36.89 1.63075 31.9009 2.32875ZM32.6612 11.3577C30.5919 12.8648 28.6189 14.5008 26.702 16.1968C23.3256 19.1887 20.1306 22.3806 17.0504 25.6743C13.7388 29.2273 10.5604 32.9043 7.49566 36.672C8.16403 37.4058 8.90461 38.0717 9.68963 38.6783C11.3251 36.4751 12.9939 34.2972 14.7003 32.1489C20.3336 25.064 26.3404 18.2673 32.8087 11.9329C33.5438 11.1923 34.3183 10.4924 35.0508 9.74999C34.2214 10.2338 33.4419 10.7991 32.6612 11.3577ZM1.62531 44.1389C1.43276 44.3814 1.25132 44.6647 1.25687 44.9862C1.25008 45.1448 1.33278 45.2948 1.46053 45.3862C1.93204 45.7392 2.40416 46.0916 2.87628 46.444C3.14474 46.6334 3.48787 46.8149 3.82175 46.7019C4.14329 46.5637 4.32165 46.2434 4.50741 45.9663C5.94599 43.8476 7.43085 41.7604 8.94164 39.6929C8.14181 39.0764 7.37531 38.4105 6.69521 37.6631C4.9678 39.7917 3.28545 41.9573 1.62531 44.1389Z" />
<path d="M9.45512 9.69258C9.70507 9.50867 10.0772 9.55681 10.287 9.78022C10.7709 10.2622 11.2523 10.7473 11.7373 11.2287C12.0268 11.4977 12.0212 11.923 12.1342 12.276C12.378 12.2599 12.623 12.2562 12.8667 12.2821C12.9871 11.926 12.9692 11.4854 13.2784 11.2237C13.7641 10.7442 14.2442 10.2585 14.7274 9.77651C14.9015 9.58643 15.1934 9.52595 15.4298 9.62716C15.8025 9.77281 15.9395 10.3011 15.6729 10.6035C15.2064 11.1034 14.696 11.5638 14.2325 12.0661C14.1418 12.2945 14.1066 12.5414 14.0424 12.7783C14.6367 13.2406 15.0169 13.9552 15.0514 14.7094C15.1409 14.802 15.228 14.8976 15.3144 14.9933C15.6161 14.8939 15.9179 14.794 16.2191 14.6915C16.3296 14.3798 16.4141 14.0589 16.5419 13.7541C16.6869 13.4134 17.1646 13.306 17.4577 13.5208C17.683 13.6751 17.7873 13.9812 17.6947 14.2397C17.5812 14.5971 17.4571 14.9507 17.3411 15.3074C17.2812 15.5012 17.1627 15.6919 16.9652 15.7672C16.5851 15.9079 16.1944 16.0215 15.8118 16.1579C15.8223 16.3887 15.8001 16.6213 15.7223 16.8404C15.7815 16.9139 15.8414 16.9885 15.9013 17.0626C16.1574 16.9996 16.4049 16.8978 16.6665 16.8614C16.8936 16.8343 17.1158 16.9521 17.238 17.1416C17.4978 17.5211 17.7496 17.9069 18.0051 18.2889C18.1724 18.5277 18.1415 18.8857 17.9231 19.0825C17.6713 19.3566 17.1788 19.3152 16.9714 19.0085C16.7887 18.7505 16.6215 18.4827 16.4444 18.2216C16.3944 18.2352 16.2938 18.2623 16.2438 18.2759C16.3111 18.8776 16.3789 19.4787 16.4437 20.0811C16.7745 19.9965 17.164 19.8003 17.4732 20.0484C17.7311 20.2959 17.8848 20.6304 18.0965 20.9167C18.2785 21.2123 18.5976 21.519 18.4618 21.8998C18.3421 22.3368 17.7225 22.4769 17.4182 22.1461C17.201 21.8745 17.0282 21.5703 16.8307 21.2845C16.7474 21.3074 16.6647 21.3308 16.582 21.3543C16.5777 22.2516 16.3475 23.2323 15.6273 23.8297C14.7725 24.5394 13.6011 24.6246 12.5359 24.6276C11.4639 24.627 10.284 24.5585 9.4113 23.8593C8.6664 23.2644 8.4251 22.267 8.42016 21.3549C8.33808 21.3321 8.25661 21.3105 8.17515 21.2889C7.98568 21.5579 7.82091 21.8443 7.6191 22.1041C7.40865 22.375 6.96553 22.4084 6.71867 22.1701C6.49835 21.9844 6.44342 21.6351 6.59524 21.3901C6.78903 21.0747 7.00627 20.7741 7.20684 20.4631C7.33089 20.286 7.43148 20.0663 7.6444 19.9805C7.94434 19.8336 8.26155 20.0157 8.55593 20.0854C8.62258 19.4781 8.69417 18.8715 8.75589 18.2642C8.70652 18.2568 8.60654 18.2414 8.55717 18.234C8.33931 18.4956 8.19181 18.8091 7.97272 19.0696C7.7487 19.3232 7.31361 19.3331 7.08094 19.0875C6.86185 18.8863 6.83161 18.5271 6.99948 18.2846C7.24387 17.9118 7.49443 17.5434 7.74006 17.1712C7.87336 16.9478 8.14738 16.812 8.40597 16.8707C8.64172 16.9207 8.87006 17.0009 9.10273 17.0638C9.16074 16.9892 9.21937 16.9151 9.278 16.8404C9.20456 16.6195 9.17926 16.3868 9.19036 16.1548C8.82624 16.0307 8.45842 15.9153 8.09492 15.7882C7.91101 15.7283 7.75611 15.5882 7.69624 15.4025C7.55985 15.0161 7.43148 14.6267 7.3062 14.2373C7.22721 14.0071 7.30065 13.7423 7.47407 13.5757C7.72586 13.3344 8.17515 13.3591 8.38992 13.6374C8.60901 13.954 8.62382 14.3706 8.81575 14.6958C9.09964 14.8125 9.39834 14.8915 9.68841 14.9927C9.77357 14.8958 9.86059 14.8007 9.95008 14.7082C9.98896 13.9559 10.3623 13.2332 10.9628 12.7771C10.8579 12.4846 10.8869 12.1143 10.6246 11.9044C10.2013 11.4836 9.77666 11.0645 9.35946 10.6381C9.09779 10.3776 9.15087 9.89686 9.45512 9.69258ZM11.6028 13.8818C12.1934 13.7682 12.8019 13.7664 13.3925 13.8818C13.1574 13.6763 12.863 13.5263 12.5458 13.522C12.1965 13.5023 11.862 13.6565 11.6028 13.8818ZM11.1844 15.3698C10.8203 15.5605 10.4969 15.8814 10.4352 16.3047C11.0289 16.5152 11.6732 16.4559 12.2922 16.4732C13.0488 16.4529 13.8307 16.5386 14.5645 16.3109C14.4979 15.7826 14.0276 15.4302 13.5635 15.2506C12.8026 14.9544 11.9095 14.9871 11.1844 15.3698ZM10.3272 17.5853C10.1994 17.7007 10.0704 17.8365 10.0562 18.0179C9.93033 19.1078 9.81184 20.1996 9.69087 21.2901C9.67236 21.8369 9.75074 22.4547 10.1642 22.8539C10.6308 23.2607 11.2825 23.3125 11.8725 23.3575C11.8737 21.4833 11.8725 19.609 11.8731 17.7353C11.3559 17.7192 10.8332 17.7069 10.3272 17.5853ZM13.1296 17.7328C13.1315 19.6071 13.1303 21.4814 13.1309 23.3557C13.7449 23.3088 14.4479 23.2607 14.9002 22.7861C15.2625 22.3861 15.3255 21.8048 15.3094 21.287C15.1891 20.1959 15.0693 19.1035 14.9447 18.013C14.9286 17.834 14.7935 17.7044 14.6738 17.5853C14.1683 17.7038 13.6468 17.7223 13.1296 17.7328Z" />
<path d="M36.2055 16.5166C37.1325 16.3148 38.1502 16.8103 38.5612 17.6657C38.9284 18.3686 38.855 19.274 38.3785 19.9078C37.8928 20.599 36.977 20.9415 36.1562 20.7471C35.389 20.5786 34.7392 19.9603 34.5429 19.1975C34.2942 18.3279 34.6744 17.3293 35.4329 16.8381C35.6674 16.685 35.9291 16.569 36.2055 16.5166ZM36.3197 17.7904C35.9124 17.9348 35.6483 18.3964 35.7495 18.821C35.8266 19.2654 36.2839 19.5906 36.7295 19.5338C37.2411 19.4931 37.6386 18.9537 37.5133 18.4513C37.4226 17.928 36.8122 17.5923 36.3197 17.7904Z" />
<path d="M34.7287 21.4482C35.012 21.2723 35.3082 20.9686 35.6729 21.1007C36.113 21.2173 36.2617 21.8419 35.9278 22.1486C35.6532 22.3615 35.3514 22.5362 35.0663 22.7337C35.0897 22.817 35.1138 22.9003 35.1385 22.9843C35.9636 22.9904 36.8468 23.1756 37.4559 23.7711C38.1082 24.4068 38.3193 25.3455 38.3835 26.2231C38.4328 27.0673 38.4347 27.9245 38.2674 28.7571C38.1409 29.3742 37.8737 29.9852 37.3948 30.4092C36.7906 30.9696 35.9334 31.1374 35.1348 31.1418C35.1119 31.2245 35.0897 31.3072 35.0681 31.3899C35.3366 31.5787 35.6211 31.7447 35.8821 31.9441C36.1376 32.1329 36.1895 32.5291 36.0013 32.7821C35.8266 33.0457 35.4384 33.145 35.1693 32.9673C34.7713 32.7112 34.3812 32.4433 33.9863 32.1823C33.7882 32.0588 33.6758 31.8151 33.7122 31.5855C33.7443 31.388 33.8128 31.1998 33.8641 31.0078C33.258 30.9412 32.6526 30.8714 32.0466 30.8073C32.0391 30.8573 32.0243 30.9578 32.0169 31.0085C32.2903 31.23 32.6156 31.3812 32.8803 31.6145C33.1617 31.8891 33.0772 32.4205 32.7248 32.5945C32.5045 32.7266 32.2206 32.6834 32.0194 32.5384C31.6633 32.2989 31.3054 32.0632 30.9499 31.8243C30.7357 31.6886 30.5969 31.4232 30.6518 31.1689C30.703 30.9295 30.7839 30.698 30.8468 30.4617C30.7734 30.4036 30.7005 30.3462 30.6283 30.2889C30.4049 30.3598 30.1716 30.3827 29.9384 30.3753C29.7983 30.7665 29.6872 31.1689 29.5354 31.5552C29.3786 31.899 28.9614 31.9249 28.6516 32.0484C28.3609 32.1286 28.0844 32.2835 27.779 32.289C27.4352 32.2724 27.1464 31.9366 27.1976 31.5929C27.2192 31.351 27.3957 31.1331 27.6278 31.0628C27.9098 30.9653 28.1955 30.877 28.4776 30.7783C28.5745 30.4765 28.6763 30.1759 28.7769 29.8754C28.6781 29.7877 28.5794 29.6995 28.4819 29.6112C27.7302 29.581 27.0186 29.1934 26.5564 28.6053C26.2651 28.7089 25.8936 28.6781 25.6813 28.9367C25.2616 29.3619 24.8376 29.784 24.4149 30.2062C24.1464 30.4857 23.6317 30.4024 23.4503 30.0654C23.296 29.8174 23.3527 29.481 23.5607 29.2823C24.0396 28.796 24.5259 28.3164 25.0073 27.8326C25.2733 27.5308 25.7072 27.5487 26.0627 27.429C26.0404 27.1858 26.0398 26.9414 26.0639 26.6989C25.7066 26.5767 25.2665 26.594 25.0018 26.2872C24.5118 25.7886 24.0112 25.301 23.5231 24.8024C23.2793 24.5487 23.3213 24.105 23.5959 23.8915C23.8366 23.6804 24.2328 23.7199 24.4507 23.9464C24.9209 24.4012 25.3696 24.8795 25.8454 25.3288C26.0731 25.4245 26.3225 25.4572 26.5601 25.522C27.0199 24.9252 27.7395 24.5419 28.4948 24.5154C28.5868 24.4259 28.6794 24.337 28.7726 24.2488C28.672 23.9482 28.572 23.6483 28.4726 23.3484C28.1739 23.2398 27.8666 23.1552 27.5704 23.0398C27.242 22.9195 27.0945 22.4893 27.2581 22.1857C27.3871 21.9098 27.7283 21.7654 28.0159 21.8684C28.4017 21.9943 28.7868 22.1221 29.1706 22.2542C29.3403 22.3072 29.4854 22.4331 29.5465 22.6029C29.6859 22.9824 29.8014 23.3706 29.9347 23.7526C30.1642 23.7458 30.3957 23.7649 30.6141 23.8415C30.6919 23.7822 30.7703 23.723 30.8487 23.6644C30.782 23.4218 30.6956 23.1848 30.6475 22.9386C30.6049 22.688 30.7394 22.4319 30.9542 22.3029C31.3251 22.0567 31.6942 21.8086 32.0651 21.563C32.3175 21.3889 32.6995 21.4235 32.8914 21.6716C33.1272 21.9197 33.0926 22.3566 32.8211 22.5646C32.5539 22.759 32.2718 22.9312 31.9984 23.1169C32.0145 23.1675 32.0459 23.2688 32.062 23.3194C32.6631 23.2546 33.2642 23.1861 33.8659 23.1194C33.7777 22.7917 33.5808 22.3949 33.8307 22.0881C34.0899 21.8259 34.4331 21.666 34.7287 21.4482ZM31.8546 24.6104C31.6559 24.6166 31.4991 24.7431 31.3683 24.8789C31.4837 25.3887 31.5016 25.9126 31.5164 26.4329C33.3907 26.4323 35.2644 26.4323 37.1387 26.4329C37.0955 25.8818 37.0498 25.2868 36.7135 24.8252C36.3345 24.3241 35.6458 24.2315 35.0601 24.2556C33.9912 24.371 32.9229 24.492 31.8546 24.6104ZM29.0182 26.0392C28.7343 26.8013 28.7732 27.6931 29.1669 28.4102C29.3589 28.762 29.6767 29.0768 30.0914 29.1268C30.3068 28.4497 30.2383 27.7258 30.2562 27.026C30.2395 26.3496 30.3 25.651 30.0926 24.9962C29.552 25.0764 29.1947 25.5578 29.0182 26.0392ZM27.6623 27.9634C27.5494 27.3734 27.5475 26.7655 27.6598 26.1755C27.1822 26.6545 27.1951 27.4814 27.6623 27.9634ZM31.3782 29.236C31.4775 29.3965 31.659 29.4977 31.8454 29.5162C32.8982 29.6322 33.9511 29.7488 35.0033 29.8673C35.5581 29.9038 36.1833 29.8291 36.6054 29.4316C37.0424 28.9675 37.0924 28.2924 37.1387 27.6894C35.2644 27.6913 33.3901 27.6894 31.5164 27.69C31.5102 28.2084 31.4701 28.7256 31.3782 29.236Z" />
</svg>
