<svg viewBox="0 0 71 34"  xmlns="http://www.w3.org/2000/svg">
<path fill-rule="evenodd" clip-rule="evenodd" d="M33.6962 30.5412C24.6796 27.7167 15.1224 28.1511 6.43173 31.736L6.42683 31.738L1.22599 33.8405C0.841971 33.9957 0.404811 33.8103 0.249568 33.4263C0.0943254 33.0422 0.279787 32.6051 0.663809 32.4498L5.86218 30.3484C14.8754 26.631 24.7922 26.1804 34.1433 29.1094C34.1437 29.1095 34.1441 29.1096 34.1446 29.1098L38.7885 30.5472C38.7887 30.5472 38.7883 30.5471 38.7885 30.5472C47.2615 33.1541 56.4941 32.9369 64.8539 29.7902L69.273 28.0226C69.6576 27.8687 70.0941 28.0558 70.2479 28.4404C70.4018 28.825 70.2147 29.2614 69.8301 29.4153L65.4039 31.1858L65.3897 31.1913C56.7106 34.4601 47.1341 34.6845 38.3474 31.9808L33.6986 30.5419L33.6962 30.5412Z" />
<path fill-rule="evenodd" clip-rule="evenodd" d="M22.8896 0.861177C23.2852 0.575535 23.7709 0.48572 24.2529 0.563506L53.5414 5.28945C54.0235 5.36724 54.4563 5.60526 54.7419 6.00082C55.0276 6.39638 55.1174 6.88209 55.0396 7.36415L55.0383 7.37197L50.5226 33.5924L49.0444 33.3378L53.5593 7.12199C53.5817 6.97861 53.5471 6.90838 53.5259 6.87898C53.5045 6.84935 53.448 6.79378 53.3025 6.7703L24.014 2.04435C23.8684 2.02087 23.7974 2.05586 23.7677 2.07725C23.7381 2.09864 23.6826 2.15509 23.6591 2.30064L23.6578 2.30846L19.1421 28.5289L17.6639 28.2743L22.1789 2.05736C22.2574 1.57703 22.4952 1.14596 22.8896 0.861177Z" />
<path fill-rule="evenodd" clip-rule="evenodd" d="M34.713 2.25131C35.1219 2.31729 35.3999 2.70228 35.3339 3.11121L34.4407 8.64689L41.328 9.75821L42.2212 4.22253C42.2872 3.81361 42.6722 3.5356 43.0811 3.60158C43.49 3.66756 43.768 4.05255 43.702 4.46148L42.6893 10.7376C42.6234 11.1465 42.2384 11.4245 41.8294 11.3585L33.4613 10.0083C33.0524 9.94228 32.7744 9.55729 32.8404 9.14837L33.8531 2.87226C33.919 2.46333 34.304 2.18533 34.713 2.25131Z" />
<path fill-rule="evenodd" clip-rule="evenodd" d="M39.6735 26.6641L45.3384 27.5781L45.0994 29.059L39.4345 28.1449L39.6735 26.6641Z" />
</svg>
