<svg viewBox="0 0 77 34"  xmlns="http://www.w3.org/2000/svg">
<path fill-rule="evenodd" clip-rule="evenodd" d="M11.6455 1.38881C12.0187 1.32532 12.3786 1.43115 12.6687 1.63696L26.7776 11.6434C27.0678 11.8492 27.2866 12.1538 27.3501 12.5271C27.4136 12.9003 27.3078 13.2601 27.102 13.5503L17.8102 26.6514C17.6044 26.9415 17.2998 27.1604 16.9266 27.2239C16.5534 27.2874 16.1935 27.1816 15.9033 26.9757L1.79453 16.9693C1.50434 16.7635 1.28548 16.4589 1.22199 16.0856C1.1585 15.7124 1.26433 15.3526 1.47014 15.0624L10.7618 1.96135C10.9677 1.67116 11.2723 1.4523 11.6455 1.38881ZM11.9089 2.93698L2.77016 15.8223L16.6632 25.6757L25.8019 12.7904L11.9089 2.93698Z" />
<path fill-rule="evenodd" clip-rule="evenodd" d="M17.7076 5.21074C18.0454 5.45036 18.1251 5.91851 17.8855 6.25637L16.1751 8.66793L18.9827 10.6592L20.693 8.2476C20.9327 7.90974 21.4008 7.8301 21.7387 8.06972C22.0765 8.30935 22.1562 8.7775 21.9166 9.11536L19.7723 12.1387C19.5327 12.4765 19.0645 12.5562 18.7267 12.3166L14.6956 9.45757C14.3577 9.21795 14.2781 8.7498 14.5177 8.41193L16.6619 5.38861C16.9016 5.05075 17.3697 4.97111 17.7076 5.21074Z" />
<path fill-rule="evenodd" clip-rule="evenodd" d="M13.7685 19.0786L17.0076 21.3759L16.1398 22.5994L12.9007 20.3021L13.7685 19.0786Z" />
<path fill-rule="evenodd" clip-rule="evenodd" d="M37.2327 25.1816C35.3412 25.1816 33.8019 26.723 33.8019 28.6315C33.8019 30.54 35.3412 32.0814 37.2327 32.0814C39.1242 32.0814 40.6634 30.54 40.6634 28.6315C40.6634 26.723 39.1242 25.1816 37.2327 25.1816ZM32.3019 28.6315C32.3019 25.901 34.5063 23.6816 37.2327 23.6816C39.9591 23.6816 42.1634 25.901 42.1634 28.6315C42.1634 31.362 39.9591 33.5814 37.2327 33.5814C34.5063 33.5814 32.3019 31.362 32.3019 28.6315Z" />
<path fill-rule="evenodd" clip-rule="evenodd" d="M63.2973 25.1816C61.4057 25.1816 59.8665 26.723 59.8665 28.6315C59.8665 30.54 61.4057 32.0814 63.2973 32.0814C65.1888 32.0814 66.728 30.54 66.728 28.6315C66.728 26.723 65.1888 25.1816 63.2973 25.1816ZM58.3665 28.6315C58.3665 25.901 60.5709 23.6816 63.2973 23.6816C66.0237 23.6816 68.228 25.901 68.228 28.6315C68.228 31.362 66.0237 33.5814 63.2973 33.5814C60.5709 33.5814 58.3665 31.362 58.3665 28.6315Z" />
<path fill-rule="evenodd" clip-rule="evenodd" d="M40.6634 28.6318C40.6634 28.2176 40.9992 27.8818 41.4134 27.8818H59.1165C59.5308 27.8818 59.8665 28.2176 59.8665 28.6318C59.8665 29.046 59.5308 29.3818 59.1165 29.3818H41.4134C40.9992 29.3818 40.6634 29.046 40.6634 28.6318Z" />
<path fill-rule="evenodd" clip-rule="evenodd" d="M69.2485 21.3975C69.2485 20.9832 69.5843 20.6475 69.9985 20.6475H75.3194C75.7336 20.6475 76.0694 20.9832 76.0694 21.3975C76.0694 21.8117 75.7336 22.1475 75.3194 22.1475H69.9985C69.5843 22.1475 69.2485 21.8117 69.2485 21.3975Z" />
<path fill-rule="evenodd" clip-rule="evenodd" d="M62.5473 7.90723H69.3584C70.4308 7.90723 71.2976 8.23924 71.9913 8.90062C72.6553 9.53369 73.1089 10.4204 73.4825 11.4317L73.4859 11.4409L73.489 11.4501C74.8708 15.5139 76.4695 20.3789 76.4695 26.3408V29.3817H67.458C67.0438 29.3817 66.708 29.0459 66.708 28.6317C66.708 28.2175 67.0438 27.8817 67.458 27.8817H74.9695V26.3408C74.9695 20.6521 73.4499 15.9949 72.0721 11.9424C71.7266 11.0095 71.371 10.3818 70.9562 9.98627C70.5697 9.61778 70.0862 9.40723 69.3584 9.40723H64.0473V21.0222H26.7006V26.0595C26.7006 27.0552 27.5083 27.8616 28.4911 27.8616H33.0719C33.4861 27.8616 33.8219 28.1974 33.8219 28.6116C33.8219 29.0258 33.4861 29.3616 33.0719 29.3616H28.4911C26.6734 29.3616 25.2006 27.8772 25.2006 26.0595V19.5222H62.5473V7.90723Z" />
</svg>
