<svg   viewBox="0 0 55 49"  xmlns="http://www.w3.org/2000/svg">
<path d="M26.7606 0.256329C30.1488 -0.713349 34.0347 1.1593 35.5047 4.33577C35.6612 4.68992 35.8625 5.07864 35.7285 5.47343C35.5296 6.11442 34.9232 6.48131 34.5187 6.97858C34.4313 7.06166 34.4477 7.18719 34.438 7.29635C34.4059 7.98464 34.2264 8.66324 33.9256 9.28179C34.4562 9.60744 34.9868 9.9337 35.5138 10.2666C35.8328 10.4631 35.9377 10.9155 35.7449 11.2351C35.5532 11.585 35.0572 11.7105 34.7249 11.4868C34.1863 11.1532 33.6478 10.8203 33.1111 10.4849C31.5053 12.2248 28.8267 12.9046 26.6018 12.0671C25.4386 11.6366 24.4362 10.7997 23.7825 9.74814C23.0645 8.60805 22.7734 7.20175 22.9978 5.87185C23.0778 5.38186 23.2221 4.9046 23.3998 4.44129C23.2397 4.25147 23.059 4.07379 22.9389 3.85426C22.8073 3.62564 22.797 3.32546 22.931 3.09623C23.8328 1.75117 25.1906 0.691137 26.7606 0.256329ZM27.7764 1.51952C26.4708 1.71297 25.2773 2.45099 24.4592 3.47828C24.6157 3.54195 24.7691 3.61473 24.9183 3.69538C27.5047 5.29696 30.0887 6.90278 32.6763 8.50253C32.9135 7.98343 32.9935 7.41278 33.005 6.84699C33.1318 6.10532 33.8091 5.66748 34.2725 5.13807C33.2233 2.67961 30.4174 1.11867 27.7764 1.51952ZM24.6527 5.24298C24.418 5.94159 24.3022 6.69295 24.4326 7.42491C24.6351 8.72934 25.4956 9.90399 26.6679 10.5062C28.3307 11.3703 30.5005 10.9804 31.8431 9.70083C29.4465 8.21448 27.0493 6.72873 24.6527 5.24298Z" />
<path d="M15.0911 9.44672C15.5259 9.31573 15.9383 9.07134 16.4034 9.07498C17.4562 9.07316 18.509 9.07437 19.5617 9.07437C19.8358 9.06952 20.1008 9.24175 20.2154 9.48977C20.472 9.96825 20.0293 10.5856 19.4974 10.5298C18.5259 10.5298 17.5544 10.531 16.5829 10.528C16.4653 10.5249 16.347 10.5407 16.2367 10.5826C13.3355 11.6208 10.4325 12.6547 7.53079 13.6929C6.59932 15.4061 5.65208 17.1101 4.71515 18.8203C5.62721 19.2939 6.54716 19.7536 7.46651 20.2144C7.92193 19.3879 8.37433 18.5595 8.83036 17.7336C8.91526 17.5607 9.06444 17.4297 9.24213 17.3576C11.0293 16.5425 12.8128 15.7202 14.6011 14.9076C15.0074 14.7038 15.5399 14.9967 15.6072 15.44C15.6697 15.756 15.4714 16.0301 15.3337 16.2945C13.8006 19.2084 12.2652 22.1211 10.7315 25.0349C10.5708 25.3594 10.3519 25.6674 10.3028 26.0355C10.1724 26.8136 10.6096 27.6214 11.29 27.9998C14.4798 29.8427 17.6678 31.6875 20.8583 33.5292C21.0335 33.6353 21.2245 33.7202 21.378 33.8591C21.5435 34.0107 21.6145 34.2442 21.5908 34.4643C21.2688 37.9646 20.9504 41.4655 20.6278 44.9664C20.5975 45.2454 20.5714 45.5316 20.6405 45.8081C20.7521 46.3515 21.1281 46.8312 21.6236 47.0774C22.1166 47.3163 22.7194 47.3478 23.2215 47.1168C23.8388 46.8579 24.2633 46.2338 24.3216 45.5728C24.5945 42.6195 24.8655 39.6668 25.1384 36.7141C25.2379 35.5819 25.3598 34.4509 25.4319 33.3169C25.4756 32.1538 25.0541 30.8955 24.0717 30.2053C22.4877 29.2363 20.8983 28.2757 19.3119 27.3109C19.1305 27.1956 18.9298 27.1029 18.7746 26.9519C18.5623 26.7311 18.532 26.3776 18.6703 26.1101C19.8395 23.6013 20.9977 21.0877 22.1681 18.5795C22.3137 18.2254 22.7533 18.0471 23.1057 18.1932C23.3761 18.3048 23.5714 18.5862 23.5593 18.8821C23.5617 21.249 23.5599 23.6159 23.5599 25.9828C23.5496 26.1799 23.6836 26.3382 23.7624 26.5074C24.076 27.1386 24.4137 27.7578 24.7224 28.3921C24.8091 28.5528 24.7849 28.7396 24.7673 28.9137C25.6145 29.4619 26.2421 30.3133 26.5708 31.2624C26.8437 32.0428 26.9377 32.8821 26.8673 33.705C26.5241 37.6826 26.1378 41.6571 25.7782 45.6341C25.7188 46.5061 25.3052 47.3503 24.6411 47.9209C24.0171 48.4697 23.1766 48.7639 22.347 48.7269C21.3822 48.6978 20.4368 48.2247 19.8479 47.4582C19.3379 46.8069 19.0784 45.9622 19.1518 45.1368C19.4665 41.6826 19.7843 38.229 20.1008 34.7748C16.9019 32.9221 13.6994 31.0756 10.5005 29.2235C9.33734 28.5316 8.62175 27.1144 8.86857 25.7669C8.95711 25.1635 9.30095 24.6493 9.5696 24.1156C9.74304 23.799 9.90131 23.4746 10.0778 23.1599C9.4095 22.8184 8.73576 22.4867 8.06445 22.1502C7.75335 22.6711 7.53321 23.266 7.0699 23.6772C6.65935 24.0598 6.1075 24.2739 5.5502 24.3084C4.50957 24.3685 3.45196 23.9015 2.80247 23.0847C2.37433 22.5571 2.15602 21.8706 2.18634 21.1932C2.21242 20.5771 2.41133 19.9779 2.70908 19.4419C1.9371 19.0537 1.16148 18.6729 0.391921 18.2806C0.044438 18.1089 -0.107775 17.6383 0.0832496 17.2994C0.254869 16.9422 0.735766 16.7954 1.0784 16.9961C1.85523 17.3873 2.62964 17.7833 3.4089 18.1696C4.40829 16.3667 5.39434 14.5565 6.39313 12.7536C6.51987 12.477 6.83218 12.3964 7.09355 12.3024C9.76002 11.3521 12.4253 10.3982 15.0911 9.44672ZM10.008 18.605C9.60053 19.3612 9.1833 20.1126 8.76851 20.8645C9.42709 21.2023 10.0881 21.5371 10.7491 21.8694C11.5878 20.2921 12.4186 18.7093 13.247 17.1265C12.1663 17.6171 11.0905 18.1186 10.008 18.605ZM3.69392 21.7008C3.871 22.3084 4.45863 22.7226 5.06263 22.8348C5.48713 22.9306 5.98319 22.7997 6.23849 22.4297C6.43255 22.1253 6.58901 21.799 6.7679 21.4861C5.84735 21.0259 4.92679 20.5656 4.00623 20.1053C3.74062 20.5838 3.54049 21.1532 3.69392 21.7008ZM20.2433 26.1726C21.0717 26.6759 21.8989 27.1817 22.7297 27.6814C22.5508 27.326 22.3549 26.9798 22.1833 26.6214C22.119 26.4976 22.1039 26.3576 22.1039 26.2211C22.1039 24.8724 22.1087 23.5237 22.102 22.175C21.4811 23.5067 20.8698 24.8433 20.2433 26.1726Z" />
<path d="M27.0183 16.3928C27.0135 16.0514 27.2761 15.7294 27.6169 15.6803C28.0208 15.5966 28.455 15.9198 28.4677 16.337C28.4859 19.0472 28.4562 21.7591 28.4822 24.4692C29.2451 26.0872 30.0814 27.6736 30.8588 29.2861C31.267 30.2115 31.6084 31.243 31.3785 32.2612C32.6563 32.8931 33.9371 33.5177 35.2093 34.1605C35.7776 32.784 36.0026 31.28 35.9698 29.7967C35.9747 29.5074 35.8764 29.1945 36.0244 28.9259C36.1627 28.6524 36.4865 28.4856 36.7891 28.5456C36.9947 28.5832 37.1699 28.7051 37.3494 28.8058C38.4883 29.488 39.4653 30.4025 40.3707 31.3661C41.0135 32.0678 41.6157 32.8112 42.1341 33.6105C41.9195 33.9719 41.7133 34.3376 41.5041 34.7021C41.2809 34.6748 41.0486 34.5929 40.9164 34.3995C39.9546 32.9689 38.7788 31.6778 37.4228 30.6111C37.3622 32.0508 37.0699 33.4807 36.5241 34.8161C36.7976 34.9307 37.1105 35.075 37.196 35.388C37.3409 35.7803 37.0711 36.2436 36.6654 36.3249C36.3664 36.4013 36.0959 36.2279 35.8419 36.0993C35.1238 37.2746 34.1451 38.2733 33.0541 39.1066C34.2385 39.4929 35.478 39.6954 36.7206 39.7567C37.1129 39.767 37.4343 40.1472 37.3937 40.5347C37.3791 40.9289 36.9874 41.246 36.5993 41.2054C35.5332 41.1557 34.4713 40.9998 33.4374 40.7336C32.632 40.5189 31.8291 40.2557 31.102 39.8428C30.6751 39.5808 30.6848 38.8852 31.1172 38.6342C32.4798 37.8525 33.6787 36.7676 34.538 35.448C33.4828 34.9204 32.4204 34.4098 31.3682 33.8773C31.1196 33.7609 30.8831 33.6178 30.6284 33.5165C30.3889 33.5978 30.1184 33.6815 29.8807 33.5456C29.4483 33.357 29.3343 32.7251 29.6714 32.3958C29.9304 32.1496 30.0329 31.7858 29.9935 31.4359C29.9061 30.4789 29.3943 29.6433 28.9916 28.7937C28.3792 27.5481 27.7594 26.3061 27.136 25.0659C27.0584 24.918 27.0104 24.7542 27.0165 24.5863C27.0183 21.8549 27.0153 19.1242 27.0183 16.3928Z" />
<path d="M8.96255 31.3969C9.34824 31.2162 9.85339 31.4667 9.94678 31.8815C10.0299 32.1659 9.87462 32.4358 9.77698 32.6941C9.36582 33.702 8.98741 34.7244 8.56231 35.7262C6.82914 38.5783 5.08263 41.4218 3.34582 44.2714C3.05716 44.7317 2.95588 45.3054 3.08808 45.8342C3.21968 46.4212 3.66601 46.9221 4.23545 47.1168C5.02077 47.4212 6.0141 47.1459 6.46225 46.4151C8.34278 43.3642 10.2166 40.309 12.096 37.2575C12.1421 37.1792 12.1857 37.1004 12.2221 37.0179C12.6405 35.9797 13.0481 34.9373 13.4635 33.8985C13.5393 33.6862 13.7078 33.5067 13.9256 33.4394C14.3034 33.2975 14.7679 33.5473 14.8582 33.9415C14.9425 34.2259 14.7879 34.4958 14.6903 34.7541C14.2791 35.762 13.9001 36.7832 13.4756 37.7851C11.6351 40.7941 9.78001 43.7954 7.93526 46.802C7.73757 47.1222 7.54836 47.4545 7.27789 47.7208C6.66055 48.3624 5.76364 48.7056 4.87826 48.6911C3.88796 48.682 2.89645 48.2265 2.28214 47.4436C1.58172 46.5589 1.39676 45.3169 1.75516 44.2538C1.90434 43.779 2.19664 43.3709 2.44952 42.9482C4.04806 40.323 5.65752 37.7038 7.25242 35.0767C7.7127 33.99 8.12507 32.8827 8.5714 31.7899C8.64418 31.6147 8.78487 31.4667 8.96255 31.3969Z" />
<path d="M44.9989 32.2072C46.3246 31.9841 47.7618 32.5887 48.4901 33.727C50.1796 36.653 51.8576 39.5857 53.5514 42.5092C54.2773 43.5814 54.2633 45.0744 53.5623 46.1551C52.9498 47.132 51.8224 47.7548 50.6714 47.7645C47.253 47.7645 43.8352 47.7645 40.4174 47.7645C39.384 47.7457 38.3713 47.2376 37.74 46.4189C37.0062 45.4941 36.8128 44.1709 37.2676 43.0787C37.401 42.7306 37.6266 42.431 37.8043 42.1066C39.3397 39.4359 40.8764 36.7658 42.4125 34.0957C42.8989 33.0926 43.9019 32.3777 44.9989 32.2072ZM45.2397 33.5396C44.6442 33.6202 44.0838 33.9701 43.7739 34.488C42.0602 37.4656 40.3519 40.4462 38.6339 43.4207C38.4519 43.7833 38.3719 44.2006 38.4283 44.6045C38.5186 45.3394 39.0335 45.9986 39.7242 46.2642C40.1148 46.4304 40.5459 46.4213 40.9619 46.4152C44.1772 46.4146 47.3925 46.4158 50.6084 46.4152C50.9443 46.4116 51.2809 46.337 51.5811 46.1836C52.3694 45.7918 52.837 44.8537 52.6727 43.9889C52.5896 43.4656 52.2439 43.0459 52.0038 42.5899C50.5429 40.0496 49.082 37.5092 47.6211 34.9689C47.4258 34.6445 47.2718 34.2812 46.9735 34.0344C46.5047 33.6239 45.8528 33.4498 45.2397 33.5396Z" />
<path d="M45.3476 36.3563C45.7655 36.2205 46.2597 36.5661 46.2391 37.0137C46.2439 38.2065 46.2385 39.4 46.2421 40.5934C46.2488 40.7754 46.2033 40.9628 46.082 41.1028C45.8576 41.3739 45.4234 41.4242 45.142 41.2126C44.9638 41.0883 44.8473 40.8772 44.8546 40.6583C44.8528 39.443 44.8528 38.2284 44.854 37.0131C44.8419 36.7135 45.0644 36.4376 45.3476 36.3563Z" />
<path d="M45.2906 43.7184C45.6769 43.5516 46.162 43.816 46.2306 44.2302C46.3136 44.6225 45.9631 45.0131 45.5714 45.0113C45.2057 45.0343 44.8509 44.7244 44.8516 44.3539C44.8418 44.0755 45.0317 43.8124 45.2906 43.7184Z" />
</svg>
