<svg   viewBox="0 0 51 50"  xmlns="http://www.w3.org/2000/svg">
<path fill-rule="evenodd" clip-rule="evenodd" d="M25.3831 0.107178C25.7973 0.107178 26.1331 0.442964 26.1331 0.857178V2.63871C26.1331 3.00376 26.3724 3.30378 26.7077 3.3783C26.7185 3.38071 26.7293 3.38335 26.74 3.38623C29.0632 4.01171 30.7806 6.07661 30.7806 8.60302C30.7806 9.01724 30.4448 9.35302 30.0306 9.35302C29.6164 9.35302 29.2806 9.01724 29.2806 8.60302C29.2806 6.79665 28.0613 5.30169 26.3638 4.8384C25.3154 4.59632 24.6331 3.66192 24.6331 2.63871V0.857178C24.6331 0.442964 24.9689 0.107178 25.3831 0.107178Z" />
<path fill-rule="evenodd" clip-rule="evenodd" d="M20.7356 7.85303C21.1498 7.85303 21.4856 8.18881 21.4856 8.60303C21.4856 10.7449 23.2412 12.5005 25.3831 12.5005C25.7973 12.5005 26.1331 12.8363 26.1331 13.2505C26.1331 13.6647 25.7973 14.0005 25.3831 14.0005C22.4128 14.0005 19.9856 11.5734 19.9856 8.60303C19.9856 8.18881 20.3214 7.85303 20.7356 7.85303Z" />
<path fill-rule="evenodd" clip-rule="evenodd" d="M24.6716 9.91489C24.8026 9.52193 25.2273 9.30956 25.6202 9.44055L44.2103 15.6372C44.6032 15.7682 44.8156 16.1929 44.6846 16.5859C44.5536 16.9789 44.1289 17.1912 43.7359 17.0602L25.1459 10.8636C24.7529 10.7326 24.5406 10.3078 24.6716 9.91489Z" />
<path fill-rule="evenodd" clip-rule="evenodd" d="M19.9023 12.2521C20.0258 12.6474 19.8055 13.0681 19.4101 13.1916L7.01678 17.0646C6.62143 17.1881 6.20077 16.9678 6.07722 16.5724C5.95367 16.1771 6.17401 15.7564 6.56937 15.6328L18.9627 11.7599C19.3581 11.6364 19.7787 11.8567 19.9023 12.2521Z" />
<path fill-rule="evenodd" clip-rule="evenodd" d="M24.6331 0.857104V0.0825195H26.1331V0.857104H24.6331Z" />
<path fill-rule="evenodd" clip-rule="evenodd" d="M0.620972 20.2217C0.620972 19.8075 0.956758 19.4717 1.37097 19.4717H49.3952C49.8094 19.4717 50.1452 19.8075 50.1452 20.2217V48.8813C50.1452 49.2955 49.8094 49.6313 49.3952 49.6313H1.37097C0.956758 49.6313 0.620972 49.2955 0.620972 48.8813V20.2217ZM2.12097 20.9717V48.1313H48.6452V20.9717H2.12097Z" />
<path fill-rule="evenodd" clip-rule="evenodd" d="M23.0839 25.6685H25.3831C25.7973 25.6685 26.1331 26.0042 26.1331 26.4185V41.9347H27.6823V43.4347H25.3831C24.9689 43.4347 24.6331 43.0989 24.6331 42.6847V27.1685H23.0839V25.6685Z" />
<path fill-rule="evenodd" clip-rule="evenodd" d="M15.3381 25.6685H17.6372C18.0515 25.6685 18.3872 26.0042 18.3872 26.4185V41.9347H19.9364V43.4347H17.6372C17.223 43.4347 16.8872 43.0989 16.8872 42.6847V27.1685H15.3381V25.6685Z" />
<path fill-rule="evenodd" clip-rule="evenodd" d="M7.59222 25.6689H9.89139C10.3056 25.6689 10.6414 26.0047 10.6414 26.4189V41.9352H12.1906V43.4352H9.89139C9.47718 43.4352 9.14139 43.0994 9.14139 42.6852V27.1689H7.59222V25.6689Z" />
<path fill-rule="evenodd" clip-rule="evenodd" d="M38.5756 25.6685H40.8748C41.289 25.6685 41.6248 26.0042 41.6248 26.4185V41.9347H43.174V43.4347H40.8748C40.4606 43.4347 40.1248 43.0989 40.1248 42.6847V27.1685H38.5756V25.6685Z" />
<path fill-rule="evenodd" clip-rule="evenodd" d="M30.8298 25.6685H33.1289C33.5432 25.6685 33.8789 26.0042 33.8789 26.4185V41.9347H35.4281V43.4347H33.1289C32.7147 43.4347 32.3789 43.0989 32.3789 42.6847V27.1685H30.8298V25.6685Z" />
<path fill-rule="evenodd" clip-rule="evenodd" d="M6.79305 16.3242C5.96793 16.3242 5.2193 17.0729 5.2193 17.898V20.2217C5.2193 20.6359 4.88351 20.9717 4.4693 20.9717C4.05509 20.9717 3.7193 20.6359 3.7193 20.2217V17.898C3.7193 16.2444 5.1395 14.8242 6.79305 14.8242C8.4466 14.8242 9.86681 16.2444 9.86681 17.898V20.2217C9.86681 20.6359 9.53102 20.9717 9.11681 20.9717C8.70259 20.9717 8.36681 20.6359 8.36681 20.2217V17.898C8.36681 17.0729 7.61817 16.3242 6.79305 16.3242Z" />
<path fill-rule="evenodd" clip-rule="evenodd" d="M43.9731 16.3242C43.148 16.3242 42.3994 17.0729 42.3994 17.898V20.2217C42.3994 20.6359 42.0636 20.9717 41.6494 20.9717C41.2351 20.9717 40.8994 20.6359 40.8994 20.2217V17.898C40.8994 16.2444 42.3196 14.8242 43.9731 14.8242C45.6267 14.8242 47.0469 16.2444 47.0469 17.898V20.2217C47.0469 20.6359 46.7111 20.9717 46.2969 20.9717C45.8826 20.9717 45.5469 20.6359 45.5469 20.2217V17.898C45.5469 17.0729 44.7982 16.3242 43.9731 16.3242Z" />
</svg>
