<svg   viewBox="0 0 41 41"  xmlns="http://www.w3.org/2000/svg">
<path fill-rule="evenodd" clip-rule="evenodd" d="M30.5691 33.3291C30.5691 32.9149 30.9049 32.5791 31.3191 32.5791H37.5767C37.9909 32.5791 38.3267 32.9149 38.3267 33.3291V39.5867C38.3267 40.0009 37.9909 40.3367 37.5767 40.3367H31.3191C30.9049 40.3367 30.5691 40.0009 30.5691 39.5867V33.3291ZM32.0691 34.0791V38.8367H36.8267V34.0791H32.0691Z" />
<path fill-rule="evenodd" clip-rule="evenodd" d="M26.1888 27.0716C26.1888 26.6574 26.5246 26.3216 26.9388 26.3216H33.1964C33.6106 26.3216 33.9464 26.6574 33.9464 27.0716V33.3291C33.9464 33.7433 33.6106 34.0791 33.1964 34.0791H26.9388C26.5246 34.0791 26.1888 33.7433 26.1888 33.3291V27.0716ZM27.6888 27.8216V32.5791H32.4464V27.8216H27.6888Z" />
<path fill-rule="evenodd" clip-rule="evenodd" d="M21.1828 33.3291C21.1828 32.9149 21.5186 32.5791 21.9328 32.5791H28.1903C28.6045 32.5791 28.9403 32.9149 28.9403 33.3291V39.5867C28.9403 40.0009 28.6045 40.3367 28.1903 40.3367H21.9328C21.5186 40.3367 21.1828 40.0009 21.1828 39.5867V33.3291ZM22.6828 34.0791V38.8367H27.4403V34.0791H22.6828Z" />
<path fill-rule="evenodd" clip-rule="evenodd" d="M20.2104 0.205985C20.4852 -0.0156018 20.8773 -0.0156018 21.1521 0.205985L40.5505 15.8499C40.798 16.0495 40.8928 16.3835 40.7869 16.6833C40.6811 16.9832 40.3977 17.1837 40.0797 17.1837H38.3267V30.3246H36.8267V16.4337C36.8267 16.0195 37.1625 15.6837 37.5767 15.6837H37.955L20.6813 1.75329L3.40756 15.6837H3.78584C4.20006 15.6837 4.53584 16.0195 4.53584 16.4337V37.2079H3.03584V17.1837H1.28282C0.964841 17.1837 0.681425 16.9832 0.575584 16.6833C0.469744 16.3835 0.564486 16.0495 0.812003 15.8499L20.2104 0.205985Z" />
<path fill-rule="evenodd" clip-rule="evenodd" d="M9.2934 16.4337C9.2934 16.0195 9.62918 15.6837 10.0434 15.6837H31.3191C31.7333 15.6837 32.0691 16.0195 32.0691 16.4337V24.067H30.5691V17.1837H10.7934V37.2079H9.2934V16.4337Z" />
<path fill-rule="evenodd" clip-rule="evenodd" d="M9.2934 20.6898H32.0691V22.1898H9.2934V20.6898Z" />
<path fill-rule="evenodd" clip-rule="evenodd" d="M9.2934 25.6958H23.9343V27.1958H9.2934V25.6958Z" />
<path fill-rule="evenodd" clip-rule="evenodd" d="M9.2934 30.7018H18.9282V32.2018H9.2934V30.7018Z" />
<path fill-rule="evenodd" clip-rule="evenodd" d="M3.03583 35.7079H18.9282V37.2079H3.03583V35.7079Z" />
</svg>
