<svg   viewBox="0 0 51 61"  xmlns="http://www.w3.org/2000/svg">
<path fill-rule="evenodd" clip-rule="evenodd" d="M12.846 56.1842C13.1136 56.1835 13.3614 56.3255 13.4961 56.5568C14.3849 58.0832 16.0449 59.1234 17.953 59.1234C19.8448 59.1234 21.5222 58.1004 22.4078 56.5604C22.5412 56.3283 22.7882 56.1849 23.0559 56.1842C23.3236 56.1835 23.5714 56.3255 23.7061 56.5568C24.5949 58.0832 26.2548 59.1234 28.1629 59.1234C30.0548 59.1234 31.7322 58.1004 32.6177 56.5604C32.7511 56.3283 32.9982 56.1849 33.2658 56.1842C33.5335 56.1835 33.7813 56.3255 33.916 56.5568C34.8048 58.0832 36.4648 59.1234 38.3729 59.1234C40.2647 59.1234 41.9421 58.1004 42.8277 56.5604C42.9611 56.3283 43.2081 56.1849 43.4758 56.1842C43.7435 56.1835 43.9913 56.3255 44.126 56.5568C45.0148 58.0832 46.6747 59.1234 48.5828 59.1234C48.997 59.1234 49.3328 59.4592 49.3328 59.8734C49.3328 60.2876 48.997 60.6234 48.5828 60.6234C46.5256 60.6234 44.6953 59.6875 43.4803 58.2375C42.2579 59.7033 40.4102 60.6234 38.3729 60.6234C36.3157 60.6234 34.4853 59.6875 33.2704 58.2375C32.048 59.7033 30.2002 60.6234 28.1629 60.6234C26.1057 60.6234 24.2754 59.6875 23.0604 58.2375C21.838 59.7033 19.9903 60.6234 17.953 60.6234C15.8958 60.6234 14.0655 59.6875 12.8505 58.2375C11.6281 59.7033 9.78032 60.6234 7.74302 60.6234C7.32881 60.6234 6.99302 60.2876 6.99302 59.8734C6.99302 59.4592 7.32881 59.1234 7.74302 59.1234C9.63486 59.1234 11.3123 58.1004 12.1978 56.5604C12.3313 56.3283 12.5783 56.1849 12.846 56.1842Z" />
<path fill-rule="evenodd" clip-rule="evenodd" d="M12.7837 51.5212C13.0514 51.522 13.2984 51.6653 13.4319 51.8974C14.3174 53.4374 15.9948 54.4605 17.8867 54.4605C19.7947 54.4605 21.4547 53.4203 22.3435 51.8938C22.4782 51.6625 22.726 51.5205 22.9937 51.5212C23.2614 51.522 23.5084 51.6653 23.6418 51.8974C24.5273 53.4374 26.2048 54.4605 28.0966 54.4605C30.0047 54.4605 31.6646 53.4203 32.5534 51.8938C32.6881 51.6625 32.9359 51.5205 33.2036 51.5212C33.4713 51.522 33.7183 51.6653 33.8517 51.8974C34.7373 53.4374 36.4147 54.4605 38.3065 54.4605C40.2146 54.4605 41.8746 53.4203 42.7634 51.8938C42.8981 51.6625 43.1459 51.5205 43.4136 51.5212C43.6812 51.522 43.9283 51.6653 44.0617 51.8974C44.9472 53.4374 46.6246 54.4605 48.5165 54.4605C48.9307 54.4605 49.2665 54.7963 49.2665 55.2105C49.2665 55.6247 48.9307 55.9605 48.5165 55.9605C46.4792 55.9605 44.6314 55.0403 43.409 53.5745C42.1941 55.0246 40.3637 55.9605 38.3065 55.9605C36.2692 55.9605 34.4215 55.0403 33.1991 53.5745C31.9841 55.0246 30.1538 55.9605 28.0966 55.9605C26.0593 55.9605 24.2115 55.0403 22.9892 53.5745C21.7742 55.0246 19.9439 55.9605 17.8867 55.9605C15.8494 55.9605 14.0016 55.0403 12.7792 53.5745C11.5642 55.0246 9.73391 55.9605 7.67671 55.9605C7.26249 55.9605 6.92671 55.6247 6.92671 55.2105C6.92671 54.7963 7.26249 54.4605 7.67671 54.4605C9.58479 54.4605 11.2447 53.4203 12.1335 51.8938C12.2682 51.6625 12.516 51.5205 12.7837 51.5212Z" />
<path fill-rule="evenodd" clip-rule="evenodd" d="M10.3652 32.8811C10.3652 32.4669 10.701 32.1311 11.1152 32.1311H32.1777V33.6311H11.8652V50.8186H10.3652V32.8811Z" />
<path fill-rule="evenodd" clip-rule="evenodd" d="M15.8339 37.5686C15.8339 37.1544 16.1697 36.8186 16.5839 36.8186H21.2402V38.3186H17.3339V42.2249H15.8339V37.5686Z" />
<path fill-rule="evenodd" clip-rule="evenodd" d="M24.4277 37.5686C24.4277 37.1544 24.7635 36.8186 25.1777 36.8186H29.8339V38.3186H25.9277V42.2249H24.4277V37.5686Z" />
<path fill-rule="evenodd" clip-rule="evenodd" d="M15.8339 46.1624C15.8339 45.7481 16.1697 45.4124 16.5839 45.4124H21.2402V46.9124H17.3339V50.8186H15.8339V46.1624Z" />
<path fill-rule="evenodd" clip-rule="evenodd" d="M24.4277 46.1624C24.4277 45.7481 24.7635 45.4124 25.1777 45.4124H29.8339V46.9124H25.9277V50.8186H24.4277V46.1624Z" />
<path fill-rule="evenodd" clip-rule="evenodd" d="M15.7714 26.6624V33.6311H14.2714V26.6624H15.7714Z" />
<path fill-rule="evenodd" clip-rule="evenodd" d="M22.8027 26.6624V33.6311H21.3027V26.6624H22.8027Z" />
<path fill-rule="evenodd" clip-rule="evenodd" d="M29.8339 26.6624V33.6311H28.3339V26.6624H29.8339Z" />
<path fill-rule="evenodd" clip-rule="evenodd" d="M36.8652 17.2874V50.8186H35.3652V17.2874H36.8652Z" />
<path fill-rule="evenodd" clip-rule="evenodd" d="M40.8339 9.4436C40.8339 9.02939 41.1697 8.6936 41.5839 8.6936H49.3964C49.8106 8.6936 50.1464 9.02939 50.1464 9.4436V17.2561C50.1464 17.6703 49.8106 18.0061 49.3964 18.0061H43.1152V50.8186H41.6152V17.2561C41.6152 16.8419 41.951 16.5061 42.3652 16.5061H48.6464V10.1936H42.3339V11.7561H40.8339V9.4436Z" />
<path fill-rule="evenodd" clip-rule="evenodd" d="M36.1152 0.881104C36.5294 0.881104 36.8652 1.21689 36.8652 1.6311V11.0061C36.8652 11.4203 36.5294 11.7561 36.1152 11.7561C35.701 11.7561 35.3652 11.4203 35.3652 11.0061V1.6311C35.3652 1.21689 35.701 0.881104 36.1152 0.881104Z" />
<path fill-rule="evenodd" clip-rule="evenodd" d="M5.07699 11.2993C5.21948 11.133 5.42749 11.0374 5.64643 11.0374H32.2089C32.4511 11.0374 32.6784 11.1543 32.8192 11.3514L36.7255 16.8202C36.8888 17.0488 36.9106 17.3495 36.7821 17.5993C36.6535 17.8491 36.3961 18.0061 36.1152 18.0061H0.958934C0.666037 18.0061 0.399939 17.8356 0.277549 17.5695C0.15516 17.3034 0.198877 16.9904 0.389492 16.768L5.07699 11.2993ZM5.99139 12.5374L2.5896 16.5061H34.6578L31.823 12.5374H5.99139Z" />
<path fill-rule="evenodd" clip-rule="evenodd" d="M35.7461 0.978181C35.9792 0.84647 36.2647 0.848936 36.4954 0.984653L49.7767 8.79715C50.1337 9.00717 50.2529 9.46684 50.0429 9.82387C49.8329 10.1809 49.3732 10.3001 49.0162 10.0901L36.1077 2.49684L18.5155 12.4403C18.1549 12.6441 17.6973 12.517 17.4935 12.1564C17.2897 11.7958 17.4168 11.3382 17.7774 11.1344L35.7461 0.978181Z" />
<path fill-rule="evenodd" clip-rule="evenodd" d="M5.64643 16.5061C6.06065 16.5061 6.39643 16.8419 6.39643 17.2561V23.1155C6.39643 23.4916 6.57409 23.7338 6.79868 23.8313C8.01032 24.3384 8.95713 25.6685 8.64982 27.2352C8.43632 28.4833 7.40994 29.5064 6.16036 29.7147L6.15404 29.7157L6.15403 29.7157C4.19045 30.0257 2.55268 28.4736 2.55268 26.6311C2.55268 26.2169 2.88847 25.8811 3.30268 25.8811C3.7169 25.8811 4.05268 26.2169 4.05268 26.6311C4.05268 27.6001 4.91305 28.391 5.91682 28.2345C6.53691 28.1297 7.06887 27.5969 7.17226 26.9766C7.17359 26.9686 7.17504 26.9607 7.17662 26.9528C7.33064 26.1827 6.87557 25.4883 6.21735 25.214L6.21036 25.2111L6.21037 25.2111C5.34243 24.8391 4.89643 23.9879 4.89643 23.1155V17.2561C4.89643 16.8419 5.23222 16.5061 5.64643 16.5061Z" />
</svg>
