<svg   viewBox="0 0 61 45"  xmlns="http://www.w3.org/2000/svg">
<path d="M16.7557 0.00742682C25.5783 -0.00203141 34.4016 0.0074267 43.2248 0.00238232C43.5035 -0.0196869 43.7854 0.112728 43.9348 0.351706C44.5483 1.27105 45.1549 2.1948 45.771 3.11162C45.8819 3.26547 45.9469 3.45022 45.9374 3.64128C45.9368 6.35326 45.9362 9.06588 45.9374 11.7779C45.9324 11.9866 45.9633 12.2092 45.8693 12.404C45.7527 12.6985 45.4223 12.8605 45.1165 12.8441C35.1752 12.8429 25.2334 12.8435 15.2922 12.8435C15.0494 12.8372 14.7858 12.8813 14.567 12.7477C14.3104 12.6102 14.1755 12.3132 14.1887 12.0295C14.1881 9.25568 14.1893 6.48253 14.1874 3.70937C14.1874 3.52399 14.2032 3.32726 14.3148 3.17215C14.9447 2.2257 15.5765 1.2805 16.2065 0.33342C16.3263 0.148669 16.535 0.0231905 16.7557 0.00742682ZM17.2103 1.49867C16.9259 1.95204 16.6138 2.38775 16.3275 2.83985C23.594 2.84174 30.861 2.84111 38.1281 2.84048C37.8261 2.39405 37.5341 1.94195 37.2359 1.49363C30.5609 1.49615 23.8853 1.48669 17.2103 1.49867ZM39.0247 1.49426C39.3192 1.94825 39.6143 2.40288 39.9264 2.84552C41.2184 2.83417 42.5104 2.84489 43.803 2.84048C43.5023 2.39153 43.2046 1.94069 42.9032 1.493C41.6106 1.49426 40.318 1.49237 39.0247 1.49426ZM15.6781 4.33047C15.6781 6.67169 15.6781 9.01292 15.6781 11.3548C23.3758 11.351 31.0735 11.3554 38.7713 11.3522C38.7725 9.01165 38.7719 6.67106 38.7719 4.3311C31.0741 4.33046 23.3764 4.33173 15.6781 4.33047ZM40.2619 4.3311C40.2619 6.67169 40.2619 9.01228 40.2619 11.3535C41.6566 11.3529 43.0514 11.3548 44.4462 11.3522C44.4474 9.01165 44.4468 6.67106 44.4468 4.3311C43.052 4.3311 41.6566 4.33046 40.2619 4.3311Z" />
<path d="M18.1536 6.88429C18.421 6.54821 18.9847 6.53875 19.2659 6.86159C19.4513 7.04886 19.4752 7.32252 19.4645 7.57159C24.6407 7.56906 29.8175 7.57032 34.9943 7.57032C34.9659 7.2582 35.051 6.90131 35.3442 6.738C35.7554 6.45236 36.4055 6.72854 36.4666 7.22983C36.4931 7.59113 36.4729 7.9537 36.4786 8.31563C36.4931 8.71855 36.128 9.0767 35.7264 9.05968C30.0703 9.06094 24.4137 9.06031 18.7577 9.05968C18.484 9.07355 18.2066 8.93168 18.0748 8.68892C17.9203 8.41904 17.9852 8.09746 17.9714 7.80174C17.9783 7.4934 17.9203 7.1302 18.1536 6.88429Z" />
<path d="M21.7566 14.9305C21.7446 14.52 22.1292 14.1606 22.5378 14.1941C22.9206 14.2067 23.2573 14.5478 23.2434 14.9349C23.2466 16.2263 23.244 17.5177 23.2447 18.809C23.4855 18.5808 23.7031 18.3267 23.9597 18.1161C24.2876 17.8645 24.8021 17.9742 25.0203 18.3191C25.1975 18.5915 25.171 18.9881 24.9383 19.2202C24.2977 19.8621 23.6564 20.5021 23.0158 21.1433C22.7541 21.4264 22.2654 21.4239 21.993 21.1578C21.4539 20.6244 20.9205 20.0859 20.3832 19.5506C20.1525 19.3179 19.8416 19.0833 19.8637 18.7163C19.8441 18.1943 20.4702 17.8008 20.9305 18.0536C21.2515 18.2504 21.4753 18.5675 21.7547 18.8166C21.7566 17.5208 21.7528 16.2257 21.7566 14.9305Z" />
<path d="M28.9775 14.9305C28.9655 14.52 29.3501 14.1606 29.7587 14.1941C30.1414 14.2067 30.4782 14.5478 30.4643 14.9349C30.4674 16.2263 30.4649 17.5177 30.4655 18.809C30.7064 18.5808 30.924 18.3267 31.1806 18.1161C31.5085 17.8645 32.023 17.9742 32.2412 18.3191C32.4184 18.5915 32.3919 18.9881 32.1592 19.2202C31.5186 19.8621 30.8773 20.5021 30.2367 21.1433C29.975 21.4264 29.4863 21.4239 29.2139 21.1578C28.6748 20.6244 28.1413 20.0859 27.6041 19.5506C27.3733 19.3179 27.0625 19.0833 27.0845 18.7163C27.065 18.1943 27.6911 17.8008 28.1514 18.0536C28.4724 18.2504 28.6962 18.5675 28.9756 18.8166C28.9775 17.5208 28.9737 16.2257 28.9775 14.9305Z" />
<path d="M36.2287 14.9305C36.2168 14.52 36.6014 14.1606 37.01 14.1941C37.3927 14.2067 37.7294 14.5478 37.7156 14.9349C37.7187 16.2263 37.7162 17.5177 37.7168 18.809C37.9577 18.5808 38.1752 18.3267 38.4319 18.1161C38.7598 17.8645 39.2743 17.9742 39.4925 18.3191C39.6696 18.5915 39.6432 18.9881 39.4105 19.2202C38.7698 19.8621 38.1286 20.5021 37.4879 21.1433C37.2263 21.4264 36.7376 21.4239 36.4652 21.1578C35.9261 20.6244 35.3926 20.0859 34.8554 19.5506C34.6246 19.3179 34.3138 19.0833 34.3358 18.7163C34.3163 18.1943 34.9424 17.8008 35.4027 18.0536C35.7237 18.2504 35.9475 18.5675 36.2268 18.8166C36.2287 17.5208 36.225 16.2257 36.2287 14.9305Z" />
<path d="M5.82638 23.9493C5.97141 23.745 6.21921 23.6409 6.46576 23.6491C16.5129 23.6491 26.5607 23.6485 36.6085 23.6491C36.8891 23.6378 37.1079 23.8364 37.3248 23.9852C40.3394 26.0812 43.3579 28.1708 46.3706 30.2693C49.1671 30.2705 51.9642 30.2693 54.7607 30.2699C55.3723 30.2756 55.9934 30.2327 56.5943 30.3765C57.9601 30.6716 59.1594 31.6376 59.7338 32.9125C60.0479 33.5759 60.1683 34.3174 60.1481 35.0482C60.1456 36.8547 60.1513 38.6619 60.1456 40.4684C60.155 40.8789 59.7843 41.2433 59.3732 41.2169C56.4518 41.2187 53.5311 41.2175 50.6104 41.2175C50.35 42.8367 49.14 44.258 47.5794 44.7637C46.4495 45.1515 45.1657 45.0556 44.1025 44.5121C42.8339 43.8784 41.9032 42.6179 41.6743 41.2175C33.3044 41.2181 24.9345 41.2181 16.5652 41.2175C16.3912 42.2484 15.8515 43.2138 15.0563 43.8935C14.3533 44.5096 13.4535 44.8936 12.5228 44.9793C11.4187 45.0872 10.2793 44.7687 9.39339 44.1004C8.45955 43.4112 7.82585 42.3537 7.62029 41.2143C5.32194 41.2206 3.02296 41.2194 0.724615 41.215C0.328 41.2194 -0.00745132 40.8549 0.003268 40.4633C-0.00240694 38.6152 0.00389883 36.7664 0.000115544 34.9177C-0.0017761 34.7455 0.0190316 34.5702 0.101633 34.4177C0.651471 33.3255 1.19437 32.2303 1.74358 31.1382C1.81042 30.9982 1.91068 30.8607 1.89428 30.6968C1.89239 30.2125 1.89302 29.7283 1.89176 29.244C1.89113 29.0447 1.91194 28.8304 2.04687 28.6734C3.30545 27.0976 4.56844 25.525 5.82638 23.9493ZM3.38742 29.3726C3.37859 29.6721 3.38364 29.971 3.38238 30.2705C7.5421 30.268 11.7025 30.2712 15.8622 30.2693C16.2897 30.2434 16.6724 30.6489 16.6207 31.0745C16.6018 31.4553 16.2468 31.7693 15.8685 31.758C11.6136 31.7611 7.35861 31.7593 3.10367 31.7593C2.58473 32.7927 2.07084 33.8287 1.55063 34.8609C1.51028 34.9366 1.48443 35.0192 1.4901 35.1062C1.49199 36.6473 1.49073 38.1883 1.49073 39.7288C3.53623 39.7269 5.58173 39.7281 7.62723 39.7281C7.82333 38.573 8.47973 37.5054 9.4287 36.8175C10.1564 36.2834 11.0461 35.9738 11.949 35.9467C13.118 35.9045 14.2965 36.3383 15.1522 37.1372C15.9 37.81 16.3931 38.742 16.5678 39.7294C24.9351 39.7262 33.3025 39.7281 41.6699 39.7288C41.9057 38.3592 42.7897 37.1126 44.0275 36.4726C44.9885 35.9511 46.1443 35.8124 47.2048 36.0709C48.9344 36.4682 50.3336 37.9765 50.6117 39.7281C53.2934 39.7275 55.9758 39.7288 58.6581 39.7275C58.6575 39.2792 58.6581 38.8309 58.6575 38.3825C57.6335 38.3775 56.6095 38.3832 55.5861 38.3794C55.3597 38.3781 55.1384 38.264 55.0054 38.0824C54.7897 37.8012 54.8137 37.3648 55.0709 37.117C55.2147 36.9556 55.4341 36.8881 55.6454 36.8907C56.6492 36.8894 57.6537 36.8913 58.6581 36.89C58.6575 36.192 58.6588 35.4934 58.6575 34.7953C58.6581 34.0059 58.3397 33.2177 57.7773 32.6628C57.2255 32.0947 56.4411 31.7612 55.6498 31.7599C45.2438 31.7593 34.8379 31.7599 24.432 31.7599C24.1268 31.7782 23.8197 31.5922 23.7094 31.3053C23.6217 31.1123 23.6558 30.8973 23.6539 30.693C23.6551 28.8423 23.6539 26.9911 23.6545 25.1404C18.0294 25.1372 12.4049 25.1398 6.77977 25.1391C5.64857 26.5497 4.52178 27.9646 3.38742 29.3726ZM25.1369 25.1385C25.1363 26.8492 25.1363 28.5599 25.1363 30.2712C27.794 30.2686 30.4512 30.2693 33.1089 30.2705C33.1178 28.5605 33.1102 26.8504 33.1127 25.1404C30.4537 25.1372 27.7953 25.1404 25.1369 25.1385ZM34.5945 25.1385C34.5945 26.8492 34.5951 28.5599 34.5945 30.2705C37.6514 30.2686 40.7089 30.2693 43.7658 30.2705C41.3483 28.5895 38.9276 26.9129 36.5108 25.2312C36.4445 25.1902 36.3783 25.1322 36.2957 25.1404C35.7289 25.136 35.162 25.141 34.5945 25.1385ZM11.7088 37.4582C10.5057 37.5975 9.45203 38.532 9.15631 39.7042C8.94633 40.4886 9.07497 41.3512 9.49743 42.0441C9.96215 42.8216 10.7926 43.3689 11.6917 43.4837C12.5077 43.6003 13.3627 43.3544 14.0021 42.8374C14.7108 42.273 15.1427 41.377 15.1358 40.4703C15.1402 39.5345 14.6837 38.607 13.9308 38.0502C13.3053 37.5704 12.4894 37.3541 11.7088 37.4582ZM45.5913 37.4827C44.3459 37.6959 43.3081 38.7646 43.1372 40.0182C42.9638 41.1034 43.438 42.2617 44.3277 42.9074C44.9071 43.3487 45.6524 43.5587 46.3769 43.502C47.2698 43.4364 48.1242 42.9515 48.6311 42.2137C49.0769 41.5864 49.2655 40.7849 49.1488 40.0251C49.012 39.0661 48.3827 38.1902 47.5119 37.7627C46.9274 37.4563 46.2388 37.3661 45.5913 37.4827Z" />
<path d="M25.2138 33.1181C25.5625 33.0935 25.9137 33.1118 26.2643 33.1074C26.5947 33.0954 26.9201 33.3262 27.0002 33.6503C27.1143 34.0211 26.8804 34.453 26.5096 34.5615C26.1811 34.6352 25.84 34.5804 25.5064 34.5987C25.1741 34.6371 24.8084 34.4953 24.6665 34.1762C24.4427 33.7531 24.7371 33.1768 25.2138 33.1181Z" />
<path d="M34.6708 33.1189C35.022 33.0937 35.3758 33.112 35.7282 33.1075C36.0807 33.0975 36.4225 33.3661 36.4716 33.7198C36.5643 34.141 36.2163 34.5811 35.7875 34.5937C35.4483 34.6013 35.1084 34.5988 34.7692 34.595C34.4016 34.595 34.0693 34.2772 34.0516 33.9102C34.0125 33.5382 34.2994 33.17 34.6708 33.1189Z" />
<path d="M11.9118 39.7572C12.3236 39.6223 12.8028 39.9193 12.8614 40.3487C12.9484 40.7787 12.5796 41.2195 12.1426 41.2176C11.7819 41.2327 11.4402 40.9509 11.3866 40.594C11.321 40.2352 11.5549 39.8487 11.9118 39.7572Z" />
<path d="M45.9645 39.7541C46.3498 39.6381 46.7975 39.8852 46.8902 40.2793C47.0175 40.7005 46.6941 41.1722 46.2584 41.2138C45.8554 41.2687 45.4519 40.9439 45.4254 40.5372C45.3882 40.1898 45.6253 39.8405 45.9645 39.7541Z" />
</svg>
