<svg   viewBox="0 0 45 53"  xmlns="http://www.w3.org/2000/svg">
<path d="M19.3531 1.99701C19.7673 0.849996 20.9187 0.0164862 22.1416 0.0021797C28.4253 -0.00217446 34.7095 0.00155776 40.9932 0.00031371C42.1726 -0.00777258 43.3065 0.740521 43.7768 1.81973C43.9503 2.20414 44.0368 2.62587 44.0411 3.04698C44.0418 7.21391 44.0405 11.3815 44.0418 15.5484C44.0517 16.3943 43.686 17.2366 43.0639 17.8094C42.4973 18.3512 41.7135 18.643 40.9329 18.6374C37.9229 18.638 34.9136 18.6374 31.9036 18.6374C29.8994 20.6415 27.8959 22.6457 25.8918 24.6492C25.6964 24.8576 25.3792 24.9378 25.1099 24.8408C24.8188 24.7431 24.6172 24.4427 24.6266 24.1373C24.6253 22.3048 24.6266 20.4717 24.6259 18.6386C23.7775 18.6318 22.9291 18.6467 22.0812 18.6311C20.9517 18.5913 19.8936 17.8629 19.4327 16.8354C19.251 16.4342 19.1596 15.9938 19.1602 15.5534C19.1602 11.5923 19.1602 7.63129 19.1602 3.67025C19.1534 3.10794 19.1378 2.52821 19.3531 1.99701ZM21.4847 1.63872C20.9417 1.91179 20.6008 2.51515 20.6158 3.11851C20.612 7.222 20.6158 11.3249 20.6139 15.4283C20.6095 15.7655 20.6674 16.1138 20.8521 16.4024C21.1314 16.8714 21.6639 17.1781 22.2112 17.175C23.2706 17.1793 24.3292 17.1694 25.3885 17.1793C25.7674 17.1874 26.1008 17.532 26.0796 17.9146C26.0809 19.4099 26.0796 20.9052 26.0802 22.4C27.7497 20.7323 29.4174 19.0628 31.0863 17.3946C31.2312 17.2341 31.4508 17.17 31.6623 17.175C34.7923 17.175 37.9235 17.1781 41.0536 17.1737C41.864 17.1532 42.5806 16.4304 42.5794 15.6162C42.5794 11.5724 42.5788 7.52865 42.5794 3.48488C42.5763 3.15646 42.6099 2.81372 42.4805 2.50271C42.2565 1.86514 41.5922 1.43656 40.9223 1.45585C34.7462 1.45211 28.5696 1.45522 22.3929 1.4546C22.0819 1.44963 21.7621 1.48881 21.4847 1.63872Z" />
<path d="M24.1041 5.51402C24.4207 5.4456 24.746 5.46923 25.0676 5.46612C25.5671 5.46985 26.066 5.4599 26.5648 5.46985C26.9026 5.47856 27.2124 5.75598 27.2478 6.09436C27.3169 6.49806 26.9772 6.91668 26.5648 6.91917C25.9005 6.92601 25.2362 6.91357 24.5719 6.92352C24.2036 6.91606 23.8603 7.18788 23.7689 7.54181C23.6389 7.97785 23.9405 8.47609 24.3853 8.5669C24.8792 8.64155 25.3886 8.52772 25.8775 8.64963C26.5449 8.80016 27.1303 9.27228 27.4207 9.89181C27.7336 10.5319 27.7193 11.3225 27.3784 11.9488C27.0027 12.6785 26.2072 13.1661 25.3867 13.1699C24.7398 13.1742 24.0935 13.1705 23.4473 13.1724C23.1325 13.1854 22.814 12.9895 22.7164 12.6841C22.5441 12.2605 22.8781 11.7417 23.3328 11.7156C24.0338 11.6969 24.7367 11.7224 25.4377 11.7044C25.8756 11.6808 26.2246 11.2516 26.186 10.8205C26.1636 10.4224 25.8184 10.0672 25.4172 10.0504C25.0757 10.033 24.7336 10.061 24.3927 10.0392C23.8584 9.99942 23.3409 9.76492 22.9652 9.38238C22.4402 8.88476 22.1976 8.12216 22.309 7.41119C22.4365 6.48811 23.1873 5.69067 24.1041 5.51402Z" />
<path d="M31.0714 5.51834C31.6542 5.40078 32.2762 5.48102 32.805 5.75471C33.5029 6.09495 34.0272 6.76301 34.2064 7.5169C34.2798 7.80489 34.2872 8.10347 34.2835 8.39893C34.281 9.10306 34.2847 9.80781 34.2823 10.5126C34.2773 11.2416 33.9588 11.9631 33.4201 12.4558C32.8572 12.9845 32.056 13.2463 31.2897 13.1524C30.5806 13.0759 29.915 12.6934 29.4815 12.1292C29.1076 11.6552 28.9105 11.0506 28.9179 10.4479C28.9235 9.61996 28.908 8.79142 28.926 7.96351C28.9876 6.78789 29.9138 5.73294 31.0714 5.51834ZM31.2462 6.97512C30.7429 7.12067 30.3685 7.61953 30.3797 8.14452C30.3822 8.95253 30.376 9.76053 30.3828 10.5685C30.4033 11.1943 30.9768 11.728 31.6013 11.7118C32.2252 11.7267 32.7994 11.1931 32.8186 10.5673C32.8211 9.71948 32.8267 8.87166 32.8155 8.02447C32.7714 7.28302 31.9484 6.73875 31.2462 6.97512Z" />
<path d="M37.3544 5.5196C37.6909 5.44247 38.0374 5.47046 38.3801 5.46611C38.8566 5.4686 39.3343 5.46238 39.8114 5.46798C40.1846 5.46176 40.5168 5.78832 40.5273 6.15967C40.5572 6.55465 40.212 6.92973 39.8133 6.91978C39.1701 6.92351 38.5269 6.91729 37.8838 6.92102C37.5665 6.91729 37.24 7.08524 37.1056 7.38132C36.8257 7.86961 37.2008 8.54512 37.7569 8.58244C38.2346 8.6235 38.7241 8.53455 39.1937 8.65895C39.7218 8.79206 40.1971 9.12298 40.5068 9.57084C40.9466 10.1804 41.0362 11.0164 40.7612 11.7131C40.4938 12.416 39.8549 12.9584 39.1203 13.117C38.7546 13.1985 38.377 13.1655 38.0057 13.1717C37.5336 13.1661 37.0614 13.1823 36.5906 13.1649C36.1863 13.1338 35.8746 12.7108 35.9586 12.3152C36.0059 11.9638 36.3461 11.7019 36.6951 11.7112C37.3389 11.7062 37.9833 11.7131 38.6271 11.7094C39.0233 11.7193 39.3978 11.4046 39.45 11.0108C39.5327 10.5729 39.1981 10.1052 38.7515 10.0579C38.3602 10.0212 37.9652 10.0734 37.5746 10.0299C36.9196 9.95649 36.3051 9.58203 35.9437 9.0303C35.5257 8.41823 35.4386 7.59778 35.7172 6.91107C35.9884 6.21378 36.621 5.67324 37.3544 5.5196Z" />
<path d="M7.86436 6.81213C9.18304 6.7263 10.5391 7.03295 11.6481 7.76383C12.7348 8.45925 13.5633 9.52664 14.0242 10.7265C14.3975 11.6851 14.5293 12.7245 14.4802 13.7483C14.4298 15.0427 14.1424 16.3913 13.3282 17.4319C12.7236 18.2144 11.8285 18.74 10.8712 18.9615C9.62779 19.2482 8.29044 19.2016 7.09803 18.7282C5.52306 18.1205 4.22988 16.8709 3.49651 15.3581C2.89253 14.1315 2.68975 12.7282 2.85272 11.3747C2.97526 10.1723 3.42125 8.95127 4.32629 8.11714C5.27426 7.23076 6.59356 6.86936 7.86436 6.81213ZM7.24793 8.31743C6.43308 8.43872 5.61388 8.77648 5.0777 9.42276C4.45194 10.1704 4.26658 11.1775 4.24108 12.1261C4.18572 13.4759 4.67027 14.8306 5.54235 15.8582C6.40198 16.8883 7.66531 17.6173 9.01883 17.6919C9.94005 17.7286 10.9272 17.5974 11.6842 17.0301C12.4275 16.4771 12.7995 15.569 12.945 14.6789C13.1061 13.6202 13.1148 12.5099 12.7653 11.4866C12.3697 10.2693 11.4789 9.20754 10.3095 8.67074C9.36219 8.2148 8.27365 8.16379 7.24793 8.31743Z" />
<path d="M0.403164 11.2372C0.850398 10.9921 1.4662 11.3678 1.43883 11.8816C1.44256 14.0581 1.43945 16.2345 1.44008 18.411C1.46122 20.7859 1.82697 23.1564 2.5168 25.4286C2.84336 26.5085 3.26198 27.5572 3.64826 28.6165C5.07331 32.4637 6.49836 36.3115 7.92342 40.1587C8.34577 41.3002 9.14694 42.2979 10.1739 42.9516C11.0845 43.5419 12.1687 43.8542 13.2535 43.8523C15.8032 43.8529 18.3529 43.8536 20.9025 43.8523C21.1221 43.8573 21.3616 43.8194 21.5606 43.9369C21.9413 44.1204 22.0539 44.6641 21.8076 44.9993C21.6683 45.2145 21.4045 45.3128 21.1551 45.2998C18.458 45.2973 15.7609 45.3023 13.0644 45.2973C10.8768 45.2568 8.75195 44.126 7.47992 42.3501C7.09924 41.827 6.79569 41.2498 6.57176 40.6439C5.17781 36.8801 3.78323 33.1162 2.3899 29.3517C2.00301 28.2843 1.58065 27.2288 1.23667 26.1464C0.402543 23.5321 -0.0117249 20.7859 0.00195958 18.0421C0.00195958 16.0081 0.00258195 13.9741 0.0013379 11.9395C-0.0160787 11.6533 0.13756 11.3579 0.403164 11.2372Z" />
<path d="M7.90474 19.6594C8.45523 19.5281 9.02314 19.5686 9.58358 19.563C10.6995 19.5636 11.816 19.5605 12.9319 19.5642C13.7039 19.5748 14.482 19.813 15.0872 20.3019C15.5618 20.6826 15.945 21.1666 16.2473 21.6922C16.8774 22.749 17.296 23.9196 17.5697 25.1158C18.0978 26.835 18.6272 28.5537 19.1615 30.2711C22.0141 31.0113 24.8741 31.7279 27.695 32.5825C28.2978 32.7399 28.8638 33.0783 29.2239 33.5952C29.9312 34.555 29.9349 36.0068 29.14 36.9174C28.9322 37.1588 28.6716 37.3479 28.3954 37.5034C29.3745 41.2231 30.3529 44.9428 31.3326 48.6624C31.4415 49.1066 31.6019 49.547 31.5939 50.0104C31.6007 50.8184 31.2256 51.6177 30.6036 52.1321C29.7216 52.8829 28.3214 53.0029 27.366 52.3212C26.8621 51.9654 26.4895 51.4385 26.2812 50.8607C25.5851 48.9722 24.7385 47.1422 23.8086 45.3583C23.311 44.4203 22.7885 43.4934 22.2001 42.6083C21.8561 42.1069 21.3174 41.74 20.7203 41.618C20.4142 41.5446 20.097 41.5589 19.7848 41.5589C17.7091 41.5596 15.6334 41.5589 13.5577 41.5589C12.861 41.5583 12.1494 41.5913 11.4727 41.3916C10.7399 41.1926 10.103 40.7118 9.67253 40.0904C9.07663 39.2357 8.73514 38.2386 8.40734 37.2589C7.24851 33.5031 6.08781 29.748 4.92836 25.9922C4.7685 25.4622 4.57257 24.9366 4.52903 24.3805C4.42017 23.2802 4.74114 22.1475 5.40919 21.2661C6.01628 20.4581 6.91324 19.869 7.90474 19.6594ZM6.52199 22.1941C5.97212 22.9468 5.79173 23.9601 6.07537 24.8514C7.1154 28.2271 8.1579 31.6022 9.19917 34.9773C9.59353 36.2133 9.91387 37.481 10.4824 38.6529C10.7405 39.1511 11.0671 39.6668 11.5971 39.9075C12.193 40.1799 12.8641 40.1115 13.5005 40.1208C15.5133 40.1208 17.5256 40.1208 19.5378 40.1208C20.0031 40.1246 20.474 40.0947 20.9324 40.1936C21.9189 40.3827 22.8215 40.9755 23.3819 41.8096C23.9722 42.6898 24.4928 43.6147 24.9942 44.5484C25.9036 46.2633 26.7172 48.0298 27.4195 49.8406C27.5793 50.2399 27.6838 50.6859 28.0035 50.9963C28.4309 51.4622 29.2208 51.4149 29.6786 51.0193C30.0438 50.6989 30.2285 50.1721 30.0948 49.6981C29.0479 45.7234 27.9992 41.7487 26.9523 37.7733C23.5859 37.3914 20.2177 37.02 16.8581 36.5821C16.3058 36.5274 15.8318 36.1921 15.4617 35.7984C14.9336 35.2243 14.5237 34.5544 14.1542 33.8701C13.0607 31.7919 12.2639 29.5738 11.5187 27.3513C11.4142 27.0266 11.3035 26.7038 11.2114 26.3754C11.1032 25.9984 11.3707 25.5674 11.7575 25.5008C12.0997 25.4162 12.4822 25.6277 12.5886 25.9642C13.1011 27.6455 13.6846 29.3063 14.3657 30.9273C14.7893 31.9238 15.2334 32.9147 15.7951 33.8421C15.996 34.1724 16.2131 34.4946 16.47 34.7845C16.641 34.9686 16.8469 35.1571 17.1144 35.1646C20.4466 35.6 23.7887 35.9589 27.1271 36.342C27.4922 36.4092 27.863 36.204 28.0825 35.9197C28.4968 35.3107 28.238 34.3242 27.5277 34.0648C27.0058 33.8819 26.4721 33.7376 25.9428 33.579C23.4422 32.8736 20.9262 32.2243 18.4088 31.5829C18.16 31.5295 17.9454 31.3428 17.877 31.0947C17.2998 29.2236 16.72 27.3526 16.1472 25.4803C15.9606 24.6629 15.718 23.8531 15.3392 23.1029C15.0381 22.5039 14.7146 21.8844 14.1859 21.4533C13.8034 21.1373 13.3014 21.0061 12.8113 21.0104C11.4671 21.0086 10.1223 21.0073 8.77806 21.0117C7.89044 21.0111 7.03329 21.472 6.52199 22.1941Z" />
</svg>
